<?xml  version="1.0" encoding="UTF-8"?>
<!DOCTYPE svg PUBLIC "-//W3C//DTD SVG 1.0//EN" "http://www.w3.org/TR/2001/REC-SVG-20010904/DTD/svg10.dtd" >
<svg xmlns="http://www.w3.org/2000/svg" >
<metadata>
<version>1.0</version>
<id><![CDATA[Myriad W01 Bd Sm Cnd]]></id>
<vendor>Monotype Imaging Inc.</vendor>
<credits>
<name>Fonts.com WebFonts</name>
<URL>http://webfonts.fonts.com</URL>
<role>Home of the Web fonts</role>
</credits>
<license>
<URL>http://webfonts.fonts.com/Legal</URL>
</license>
<copyright><![CDATA[© 1992, 1994, 1997, 2000, 2004 Adobe Systems Incorporated. All rights reserved.]]></copyright>
<trademark><![CDATA[Myriad is either a registered trademark or a trademark of Adobe Systems Incorporated in the United States and/or other countries.]]></trademark>
<licensee>
<name></name>
</licensee>
</metadata>
<defs >
<font horiz-adv-x="487" id="1455167d-f3ec-4022-ae9f-b9ce5746d2a0">
<font-face font-family="Myriad W01 Bd Sm Cnd" panose-1="2 11 7 3 3 4 3 2 2 4" ascent="894" descent="-250" units-per-em="1000" alphabetic="0">
</font-face>
<missing-glyph horiz-adv-x="189" />

<glyph unicode="&#xA;" horiz-adv-x="0" />
<glyph unicode="&#xD;" horiz-adv-x="189" />
<glyph unicode=" " horiz-adv-x="189" />
<glyph unicode="!" horiz-adv-x="258" d="M72 220L52 674H206L186 220H72ZM129 -10Q91 -10 68 14T44 77Q44 117 68 141T129 165Q167 165 190 141T214 77Q214 39 191 15T129 -10Z"  />
<glyph unicode="&quot;" horiz-adv-x="377" d="M161 684L138 417H57L35 684H161ZM343 684L321 417H239L217 684H343Z"  />
<glyph unicode="#" horiz-adv-x="513" d="M293 271L308 384H223L207 271H293ZM83 0L109 184H30V271H123L138 384H57V471H151L176 650H260L235 471H321L346 650H430L405 471H483V384H392L377 271H457V184H363L339 0H253L279 184H194L169 0H83Z"  />
<glyph unicode="$" horiz-adv-x="516" d="M206 -86V11Q161 13 121 24T55 49L82 161Q111 145 148 134T229 122Q271 122 295 139T319 185Q319 214 296 235T221 277Q147 307 104 348T60 457Q60 521 100 567T214 631V728H308V639Q352 637 384 628T439 608L412 499Q394 507 364 518T285 530Q240 530 222 513T204 472Q204 447 228 429T312 384Q394 350 428 306T463 199Q463 132 421 83T300 18V-86H206Z"  />
<glyph unicode="%" horiz-adv-x="813" d="M191 660Q231 660 261 645T312 603T342 541T352 466Q352 415 339 377T302 313T249 274T187 261Q151 261 121 275T70 316T36 378T24 457Q24 499 35 536T69 600T121 644T191 660ZM189 581Q158 581 144 548T130 460Q129 405 144 373T190 340Q219 340 233 371T247 460Q247 513 234 547T189 581ZM184 -10L550 660H628L262 -10H184ZM627 392Q667 392 697 377T748 334T778 272T788 197Q788 146 775 108T738 44T686 5T624 -8Q588 -8 558 6T507 47T473 109T461 188Q461 230 472 267T505 332T557 376T627 392ZM625 313Q594 313 580 279T566 192Q565 137 580 104T626 71Q655 71 669 103T683 192Q683 244 670 278T625 313Z"  />
<glyph unicode="&amp;" horiz-adv-x="633" d="M462 0Q451 11 442 22T421 47Q389 21 346 6T248 -10Q192 -10 151 6T82 48T41 109T27 180Q27 246 60 293T149 371V374Q126 402 112 437T98 509Q98 542 110 573T147 629T207 669T291 684Q328 684 359 673T414 642T450 593T463 528Q463 478 435 435T335 352L334 348Q361 316 390 279T443 217Q463 249 475 292T492 379H620Q609 304 584 240T516 129Q542 100 569 68T628 0H462ZM270 96Q298 96 319 105T356 130Q326 162 289 206T213 296Q194 281 179 258T164 203Q164 181 171 162T192 128T226 105T270 96ZM285 591Q257 591 243 570T228 521Q228 494 238 471T270 423Q305 448 322 471T339 524Q339 536 336 547T327 569T310 585T285 591Z"  />
<glyph unicode="&apos;" horiz-adv-x="195" d="M161 684L138 417H57L35 684H161Z"  />
<glyph unicode="(" horiz-adv-x="297" d="M268 691Q225 623 196 523T166 286Q166 152 196 53T268 -118H166Q145 -89 125 -49T88 41T61 152T51 286Q52 359 62 420T88 532T125 622T166 691H268Z"  />
<glyph unicode=")" horiz-adv-x="297" d="M29 -118Q72 -48 102 52T132 288Q132 423 102 522T29 691H132Q152 663 172 624T209 535T236 423T246 288Q245 214 235 153T209 41T172 -48T132 -118H29Z"  />
<glyph unicode="*" horiz-adv-x="433" d="M358 635L254 511V509L408 539V441L253 468L252 465L358 345L271 295L215 446L213 444L156 294L73 344L178 468L177 469L25 441V539L175 509L176 511L73 634L160 684L215 534H217L273 684L358 635Z"  />
<glyph unicode="+" horiz-adv-x="596" d="M345 532V312H556V222H345V0H251V222H40V312H251V532H345Z"  />
<glyph unicode="&#x2c;" horiz-adv-x="252" d="M4 -121Q27 -55 46 18T75 158L223 168Q200 94 168 20T100 -112L4 -121Z"  />
<glyph unicode="-" horiz-adv-x="303" d="M273 316V217H30V316H273Z"  />
<glyph unicode="." horiz-adv-x="252" d="M135 -10Q97 -10 73 15T49 80Q49 121 73 146T135 171Q173 171 196 147T221 80Q221 40 197 15T135 -10Z"  />
<glyph unicode="/" horiz-adv-x="316" d="M5 -40L225 684H321L101 -40H5Z"  />
<glyph unicode="0" horiz-adv-x="516" d="M261 660Q324 660 367 632T436 558T475 452T487 328Q487 249 472 187T427 81T355 14T257 -10Q197 -10 154 17T84 89T43 195T30 323Q30 393 44 454T86 562T158 634T261 660ZM260 546Q221 546 198 493T176 324Q175 211 197 158T260 104Q341 104 341 326Q341 433 322 489T260 546Z"  />
<glyph unicode="1" horiz-adv-x="516" d="M219 518H217L97 460L73 571L238 650H361V0H219V518Z"  />
<glyph unicode="2" horiz-adv-x="516" d="M37 0V91L115 169Q162 214 198 252T259 324T297 388T310 449Q310 488 286 515T210 542Q172 542 140 527T84 495L47 601Q79 625 129 642T239 660Q294 660 334 645T402 602T442 539T455 461Q455 419 442 381T405 307T352 238T288 173L235 124V122H466V0H37Z"  />
<glyph unicode="3" horiz-adv-x="516" d="M61 141Q81 130 118 118T196 106Q252 106 280 131T309 195Q309 220 299 238T270 268T229 285T181 291H132V397H177Q196 397 216 401T252 414T280 438T291 474Q291 505 269 524T201 544Q166 544 134 533T82 509L54 615Q81 632 129 646T235 660Q284 660 322 647T386 613T425 562T438 499Q438 448 410 410T327 350V348Q354 342 378 329T420 295T448 247T459 188Q459 147 442 111T393 48T313 6T207 -10Q151 -10 106 2T34 30L61 141Z"  />
<glyph unicode="4" horiz-adv-x="516" d="M288 0V155H20V251L255 650H423V266H497V155H423V0H288ZM288 266V407Q288 436 289 465T293 524H290Q276 493 263 466T234 409L152 268V266H288Z"  />
<glyph unicode="5" horiz-adv-x="516" d="M443 528H214L200 424Q209 425 217 425T235 425Q274 425 317 414T392 378Q426 352 445 313T464 218Q464 172 446 131T395 59T312 9T201 -10Q149 -10 106 0T38 24L63 135Q83 124 119 115T193 105Q217 105 239 111T278 130T306 162T316 208Q316 318 146 318Q123 318 106 317T71 313L111 650H443V528Z"  />
<glyph unicode="6" horiz-adv-x="516" d="M426 545Q413 545 400 544T369 541Q324 536 291 522T234 485T197 437T177 381H180Q203 405 233 418T306 432Q345 432 378 418T437 377T476 311T491 223Q491 176 476 134T431 60T361 9T268 -10Q209 -10 164 11T89 70T44 159T28 269Q28 366 59 440T141 563Q185 605 241 628T364 656Q386 658 400 658T426 658V545ZM266 97Q304 97 324 131T345 218Q345 240 340 260T324 295T297 319T259 328Q233 328 212 314T180 275Q177 269 175 259T173 231Q174 203 180 179T197 136T226 108T266 97Z"  />
<glyph unicode="7" horiz-adv-x="516" d="M474 650V557L225 0H74L321 526V528H46V650H474Z"  />
<glyph unicode="8" horiz-adv-x="516" d="M254 -10Q198 -10 156 5T86 45T43 102T29 170Q29 230 59 271T139 336V338Q93 364 71 401T49 481Q49 522 65 555T111 611T180 647T265 660Q315 660 353 646T416 609T453 556T466 495Q466 456 445 417T374 352V349Q397 339 418 324T454 288T479 242T488 185Q488 140 471 104T423 43T349 4T254 -10ZM260 90Q298 90 319 114T341 176Q341 220 314 246T247 286Q213 274 194 248T175 185Q175 147 197 119T260 90ZM258 562Q222 562 205 539T187 486Q186 452 210 430T270 394Q295 402 312 426T330 480Q330 511 313 536T258 562Z"  />
<glyph unicode="9" horiz-adv-x="516" d="M85 107Q101 105 115 106T149 109Q179 111 209 121T262 148Q321 193 338 272L335 273Q315 252 286 240T216 228Q178 228 144 242T85 281T44 344T29 428Q29 474 45 516T92 590T164 641T258 660Q315 660 358 639T429 580T471 492T485 384Q485 279 455 204T374 80Q332 41 276 19T151 -8Q134 -10 117 -10T85 -8V107ZM253 554Q218 554 195 523T173 438Q173 416 178 397T194 362T220 339T256 330Q283 330 302 342T330 370Q334 378 335 388T337 418Q337 446 332 470T317 513T291 543T253 554Z"  />
<glyph unicode=":" horiz-adv-x="252" d="M135 315Q97 315 74 340T51 403Q51 441 74 466T135 492Q173 492 196 468T220 403Q220 365 197 340T135 315ZM135 -10Q97 -10 74 15T51 79Q51 117 74 142T135 168Q173 168 196 144T220 79Q220 40 197 15T135 -10Z"  />
<glyph unicode=";" horiz-adv-x="252" d="M4 -121Q27 -55 46 18T76 158L222 168Q198 94 166 20T99 -112L4 -121ZM140 315Q103 315 80 340T56 403Q56 441 79 466T140 492Q178 492 201 468T225 403Q225 365 202 340T140 315Z"  />
<glyph unicode="&lt;" horiz-adv-x="596" d="M58 305L538 532V427L178 267V265L538 105V0L58 227V305Z"  />
<glyph unicode="=" horiz-adv-x="596" d="M40 323V413H556V323H40ZM40 122V212H556V122H40Z"  />
<glyph unicode="&gt;" horiz-adv-x="596" d="M538 220L58 0V104L433 265V267L58 428V532L538 312V220Z"  />
<glyph unicode="?" horiz-adv-x="412" d="M123 215L122 238Q116 320 179 399Q202 429 217 454T232 506Q232 532 215 548T162 566Q139 566 115 560T73 540L43 646Q66 661 106 672T195 684Q244 684 279 671T337 636T369 586T380 529Q380 501 373 478T353 433T327 394T298 358Q272 327 261 298T249 234V215H123ZM184 -10Q146 -10 123 14T99 77Q99 117 123 141T184 166Q222 166 245 142T269 77Q269 39 246 15T184 -10Z"  />
<glyph unicode="@" horiz-adv-x="725" d="M431 350Q422 354 402 354Q379 354 359 342T323 310T298 261T289 202Q289 174 300 158T334 142Q347 142 360 150T384 173T403 205T414 245L431 350ZM514 -65Q471 -86 430 -94T339 -102Q281 -102 228 -81T134 -21T69 76T45 208Q45 284 70 353T143 476T256 560T404 592Q468 592 520 571T609 512T666 423T686 312Q686 254 673 209T635 131T578 82T506 65Q470 65 448 85T424 144H421Q399 106 368 86T298 65Q252 65 223 98T194 192Q194 238 209 280T254 356T325 408T420 428Q451 428 482 422T531 404L500 220Q492 172 498 151T526 128Q542 128 558 138T587 171T609 227T618 306Q618 355 604 397T562 470T491 518T393 536Q338 536 288 514T199 449T138 348T115 215Q115 152 133 104T183 22T260 -28T357 -45Q394 -45 430 -37T498 -12L514 -65Z"  />
<glyph unicode="A" horiz-adv-x="597" d="M205 167L163 0H15L202 674H389L575 0H422L377 167H205ZM358 277L322 420Q314 450 307 488T291 557H289Q282 526 275 488T260 420L225 277H358Z"  />
<glyph unicode="B" horiz-adv-x="568" d="M64 665Q94 671 143 675T246 679Q309 679 355 671T437 638Q470 618 489 585T508 508Q508 463 483 424T402 364V361Q460 345 495 302T531 197Q531 152 514 117T468 57Q433 26 373 10T216 -7Q165 -7 127 -4T64 3V665ZM209 404H252Q306 404 334 428T363 491Q363 529 338 550T264 572Q244 572 231 571T209 567V404ZM209 105Q218 103 230 103T258 103Q282 103 304 108T342 126T369 156T379 201Q379 226 369 244T342 275T302 292T254 298H209V105Z"  />
<glyph unicode="C" horiz-adv-x="535" d="M507 16Q488 7 449 -1T356 -9Q275 -9 215 16T114 87T53 193T32 327Q32 416 59 482T133 593T241 660T371 683Q423 683 460 675T515 657L486 539Q466 548 440 554T378 561Q338 561 303 548T242 507T201 437T186 336Q186 228 237 172T379 115Q408 115 437 120T487 133L507 16Z"  />
<glyph unicode="D" horiz-adv-x="635" d="M64 665Q101 671 148 675T248 679Q335 679 394 662T497 610Q547 571 575 507T603 351Q603 252 574 184T497 74Q449 33 379 13T217 -7Q166 -7 128 -4T64 3V665ZM210 112Q218 110 230 110T254 109Q297 109 333 122T394 165T434 240T449 349Q450 454 402 509T266 565Q228 565 210 560V112Z"  />
<glyph unicode="E" horiz-adv-x="492" d="M430 288H210V121H456V0H64V674H442V553H210V408H430V288Z"  />
<glyph unicode="F" d="M64 674H440V553H210V392H425V273H210V0H64V674Z"  />
<glyph unicode="G" horiz-adv-x="619" d="M570 27Q554 21 532 15T483 4T428 -4T371 -7Q288 -7 228 14T125 77Q79 121 55 186T32 330Q32 417 60 482T136 592T248 658T387 681Q444 681 486 672T551 652L522 532Q498 543 467 550T389 557Q346 557 309 544T244 504T201 434T185 333Q185 278 199 237T238 169T297 127T371 113Q391 113 407 115T431 121V268H340V384H570V27Z"  />
<glyph unicode="H" horiz-adv-x="637" d="M210 674V411H427V674H573V0H427V282H210V0H64V674H210Z"  />
<glyph unicode="I" horiz-adv-x="274" d="M210 674V0H64V674H210Z"  />
<glyph unicode="J" horiz-adv-x="376" d="M173 674H319V238Q319 166 303 118T257 42T186 2T94 -10Q70 -10 43 -7T-3 4L12 123Q26 118 42 116T79 113Q100 113 117 118T147 138T166 176T173 237V674Z"  />
<glyph unicode="K" horiz-adv-x="568" d="M64 674H209V374H211Q222 394 232 413T254 452L387 674H562L360 385L571 0H403L258 287L209 221V0H64V674Z"  />
<glyph unicode="L" horiz-adv-x="471" d="M64 674H210V123H449V0H64V674Z"  />
<glyph unicode="M" horiz-adv-x="783" d="M586 251Q584 309 582 376T580 513H577Q563 451 546 386T512 267L437 11H326L258 264Q244 318 229 383T203 513H201Q199 447 196 378T190 249L178 0H46L90 674H274L336 443Q352 383 366 323T391 204H394Q405 262 420 323T451 444L517 674H698L736 0H597L586 251Z"  />
<glyph unicode="N" horiz-adv-x="638" d="M64 0V674H224L353 422Q379 373 405 314T452 201H454Q442 327 442 492V674H574V0H426L295 259Q269 310 241 370T192 486H189Q193 423 194 350T196 187V0H64Z"  />
<glyph unicode="O" horiz-adv-x="646" d="M328 684Q401 684 455 656T544 581T597 473T615 345Q615 258 594 192T533 81T439 13T318 -10Q248 -10 195 17T105 90T51 200T32 334Q32 408 52 472T111 583T204 657T328 684ZM324 565Q291 565 266 548T222 501T195 429T186 336Q186 232 222 171T325 109Q358 109 383 126T426 174T452 247T461 340Q461 385 453 426T427 497T384 546T324 565Z"  />
<glyph unicode="P" horiz-adv-x="544" d="M64 665Q97 671 143 675T249 679Q382 679 448 625Q480 599 498 560T516 472Q516 420 500 380T455 311Q418 276 366 259T253 242Q240 242 229 242T209 244V0H64V665ZM209 359Q217 357 227 357T251 356Q308 356 339 385T371 465Q371 511 344 538T262 566Q226 566 209 561V359Z"  />
<glyph unicode="Q" horiz-adv-x="646" d="M582 -114Q518 -94 461 -71T343 -22Q322 -12 301 -10Q246 -7 197 16T112 82T54 187T32 333Q32 406 52 470T111 582T204 656T330 684Q402 684 455 656T544 581T597 473T615 346Q615 287 604 238T574 151T529 85T473 44V40Q510 28 549 18T626 -2L582 -114ZM324 109Q357 109 383 126T426 174T452 247T461 340Q461 386 453 427T427 499T385 547T325 565Q292 565 266 547T222 499T195 427T186 337Q186 288 195 246T221 174T265 126T324 109Z"  />
<glyph unicode="R" horiz-adv-x="556" d="M64 665Q99 671 147 675T249 679Q318 679 369 667T455 626Q515 578 515 485Q515 455 506 429T481 381T444 344T400 319V316Q435 302 455 270T488 188Q495 159 502 130T515 76T528 30T539 0H389Q381 14 370 56T346 158Q340 189 332 210T311 243T283 260T246 266H209V0H64V665ZM209 373H258Q311 373 340 400T369 473Q369 518 343 543T266 568Q244 568 230 567T209 564V373Z"  />
<glyph unicode="S" horiz-adv-x="496" d="M63 150Q90 136 130 125T214 113Q265 113 291 133T317 187Q317 220 292 241T212 286Q131 320 88 368T44 482Q44 524 60 561T108 625T184 667T286 683Q337 683 374 674T438 652L408 533Q390 542 359 552T284 562Q236 562 214 542T191 496Q191 464 217 445T306 398Q389 362 426 314T464 199Q464 155 448 118T400 52T319 7T208 -9Q155 -9 108 2T36 28L63 150Z"  />
<glyph unicode="T" horiz-adv-x="501" d="M177 548H14V674H488V548H323V0H177V548Z"  />
<glyph unicode="U" horiz-adv-x="627" d="M208 674V271Q208 187 236 148T313 109Q364 109 391 147T419 271V674H565V285Q565 136 499 63T309 -10Q188 -10 125 62T62 286V674H208Z"  />
<glyph unicode="V" horiz-adv-x="581" d="M203 0L7 674H167L239 387Q254 328 267 270T291 148H294Q305 209 318 268T346 386L420 674H577L372 0H203Z"  />
<glyph unicode="W" horiz-adv-x="825" d="M161 0L15 674H170L215 399Q225 339 233 278T250 163H252Q260 220 271 279T294 401L349 674H494L545 395Q556 336 564 281T580 166H582Q590 226 598 283T617 401L665 674H812L655 0H499L447 269Q437 319 430 370T415 481H413Q405 422 396 371T375 269L317 0H161Z"  />
<glyph unicode="X" horiz-adv-x="551" d="M377 0L322 123Q306 156 294 184T269 243H267Q257 213 246 184T221 122L171 0H11L185 342L17 674H180L234 551Q247 521 257 495T278 440H280Q291 472 300 497T321 551L371 674H532L361 343L541 0H377Z"  />
<glyph unicode="Y" horiz-adv-x="542" d="M195 0V271L2 674H166L227 512Q241 477 252 446T274 379H276Q286 412 297 444T322 513L381 674H542L341 276V0H195Z"  />
<glyph unicode="Z" horiz-adv-x="520" d="M20 81L308 548V551H46V674H491V583L210 126V123H494V0H20V81Z"  />
<glyph unicode="[" horiz-adv-x="297" d="M63 -112V684H261V600H169V-28H261V-112H63Z"  />
<glyph unicode="\" horiz-adv-x="301" d="M200 -40L3 684H99L297 -40H200Z"  />
<glyph unicode="]" horiz-adv-x="297" d="M235 686V-112H36V-28H128V602H36V686H235Z"  />
<glyph unicode="^" horiz-adv-x="596" d="M447 177L299 535H295L147 177H43L253 650H343L553 177H447Z"  />
<glyph unicode="_" horiz-adv-x="500" d="M500 -75V-125H0V-75H500Z"  />
<glyph unicode="`" horiz-adv-x="300" d="M144 698L225 550H127L11 698H144Z"  />
<glyph unicode="a" horiz-adv-x="496" d="M317 0L309 49H306Q283 20 250 5T175 -10Q141 -10 114 2T67 34T37 82T26 139Q26 187 46 222T102 280T187 314T294 325V333Q294 344 291 355T278 376T252 391T211 397Q176 397 143 387T87 363L60 458Q84 472 130 486T239 500Q298 500 337 483T399 437T431 370T441 291V117Q441 83 442 53T448 0H317ZM299 234Q273 234 250 230T208 217T179 193T168 154Q168 122 185 108T225 94Q249 94 268 108T296 146Q299 156 299 170V234Z"  />
<glyph unicode="b" horiz-adv-x="552" d="M52 0Q54 27 55 66T56 146V705H202V434H204Q224 464 257 482T338 500Q380 500 413 482T471 432T508 354T521 255Q521 189 504 140T459 57T393 7T316 -10Q277 -10 243 6T185 65H183L176 0H52ZM202 198Q202 182 205 170Q213 141 234 124T281 106Q326 106 350 142T374 247Q374 306 351 345T281 384Q255 384 234 366T206 318Q204 312 203 305T202 289V198Z"  />
<glyph unicode="c" horiz-adv-x="412" d="M395 11Q378 3 346 -3T274 -9Q218 -9 174 8T98 57T49 135T32 240Q32 295 49 342T100 424T183 479T295 499Q323 499 350 494T398 481L376 371Q364 376 346 380T302 385Q245 385 212 346T180 245Q180 178 215 142T303 106Q326 106 344 110T379 120L395 11Z"  />
<glyph unicode="d" horiz-adv-x="551" d="M495 705V146Q495 106 496 67T499 0H370L364 67H361Q341 30 304 10T224 -10Q182 -10 147 8T86 60T46 140T32 241Q32 303 48 351T92 433T156 483T232 500Q274 500 303 485T347 446H349V705H495ZM349 288Q349 294 349 301T347 315Q342 344 322 364T271 385Q248 385 231 374T202 344T185 299T179 244Q179 179 203 143T270 107Q296 107 317 124T345 171Q347 178 348 186T349 204V288Z"  />
<glyph unicode="e" horiz-adv-x="495" d="M171 196Q172 171 183 153T211 123T251 106T299 100Q334 100 364 105T421 119L441 19Q406 5 364 -2T276 -9Q158 -9 95 56T32 237Q32 288 47 335T91 419T163 478T263 500Q317 500 355 481T418 428T454 351T466 259Q466 218 461 196H171ZM331 297Q331 313 328 331T316 365T292 390T255 400Q233 400 218 390T192 365T177 331T171 297H331Z"  />
<glyph unicode="f" horiz-adv-x="325" d="M75 0V383H10V489H75V508Q75 552 88 594T134 667Q160 693 194 704T264 715Q289 715 308 712T344 704L335 592Q326 595 315 597T288 599Q252 599 237 574T221 514V489H315V383H222V0H75Z"  />
<glyph unicode="g" horiz-adv-x="543" d="M492 489Q490 463 489 428T488 341V66Q488 -7 472 -60T418 -148Q381 -180 333 -193T231 -206Q186 -206 144 -198T71 -173L100 -62Q122 -74 155 -84T227 -94Q280 -94 311 -64T343 32V63H341Q322 34 292 19T223 4Q179 4 144 22T83 73T45 148T32 242Q32 302 48 349T92 430T157 482T237 500Q281 500 310 482T358 434H360L365 489H492ZM342 296Q342 304 341 312T338 327Q331 353 313 369T268 386Q228 386 204 348T179 245Q179 186 202 150T267 113Q292 113 310 127T337 167Q340 175 341 186T342 206V296Z"  />
<glyph unicode="h" horiz-adv-x="547" d="M56 705H202V433H204Q225 461 259 481Q292 500 334 500Q406 500 449 448T492 289V0H345V277Q345 322 330 351T276 380Q250 380 233 366T207 329Q202 314 202 294V0H56V705Z"  />
<glyph unicode="i" horiz-adv-x="259" d="M56 0V489H202V0H56ZM129 698Q164 698 184 677T205 623Q206 591 185 570T127 549Q94 549 73 570T53 623Q52 656 73 677T129 698Z"  />
<glyph unicode="j" horiz-adv-x="271" d="M-39 -92Q-13 -90 8 -83T43 -62Q59 -46 65 -13T71 89V489H217V56Q217 -25 200 -73T149 -152Q117 -180 70 -193T-26 -206L-39 -92ZM143 698Q178 698 198 677T220 623Q220 591 199 570T142 549Q108 549 87 570T67 623Q66 656 87 677T143 698Z"  />
<glyph unicode="k" horiz-adv-x="504" d="M202 280H204Q212 297 220 312T236 342L324 489H495L336 289L514 0H339L236 201L202 154V0H56V705H202V280Z"  />
<glyph unicode="l" horiz-adv-x="260" d="M56 705H202V0H56V705Z"  />
<glyph unicode="m" horiz-adv-x="806" d="M56 336Q56 381 55 418T52 489H176L183 426H186Q194 438 206 451T236 475T275 493T324 500Q370 500 402 479T450 421H452Q476 456 512 477Q549 500 597 500Q666 500 708 449T750 295V0H608V273Q608 323 593 352T543 381Q520 381 504 367T480 331Q477 323 476 313T475 293V0H332V284Q332 325 318 353T269 381Q244 381 228 366T205 330Q199 313 199 292V0H56V336Z"  />
<glyph unicode="n" horiz-adv-x="547" d="M56 336Q56 381 55 418T52 489H179L186 425H188Q196 438 209 451T240 475T280 493T330 500Q404 500 448 449T492 297V0H345V282Q345 324 330 352T277 380Q250 380 233 364T208 327Q202 312 202 287V0H56V336Z"  />
<glyph unicode="o" horiz-adv-x="533" d="M272 500Q324 500 366 482T439 430T485 351T501 249Q501 179 480 130T426 49T350 4T265 -10Q214 -10 172 7T98 56T50 135T32 242Q32 303 50 351T99 432T175 482T272 500ZM268 394Q244 394 227 381T200 346T185 299T180 245Q180 213 185 186T202 139T229 108T269 96Q289 96 304 107T330 139T346 187T352 245Q352 272 348 298T333 346T307 380T268 394Z"  />
<glyph unicode="p" horiz-adv-x="552" d="M56 328Q56 375 55 414T52 489H179L186 424H188Q211 461 248 480T333 500Q373 500 407 482T467 431T506 352T520 249Q520 183 503 134T457 53T392 6T317 -10Q277 -10 248 5T204 43H202V-196H56V328ZM202 200Q202 178 206 166Q214 137 234 121T281 104Q326 104 349 143T373 244Q373 306 351 344T283 383Q256 383 234 365T206 317Q204 310 203 303T202 287V200Z"  />
<glyph unicode="q" horiz-adv-x="551" d="M349 56H347Q327 24 295 7T218 -10Q179 -10 146 7T87 57T47 135T32 237Q32 301 49 350T94 433T158 483T233 500Q274 500 304 484T355 434L357 433L362 489H499Q497 454 496 417T495 340V-196H349V56ZM349 292Q349 306 346 318Q340 346 320 364T271 383Q226 383 203 345T179 244Q179 181 203 144T270 106Q297 106 317 122T345 167Q347 175 348 183T349 200V292Z"  />
<glyph unicode="r" horiz-adv-x="354" d="M56 332Q56 381 55 419T52 489H178L184 405H187Q205 454 240 477T309 500Q320 500 326 500T340 497V358Q323 361 303 361Q267 361 241 342T206 286Q204 278 203 269T202 248V0H56V332Z"  />
<glyph unicode="s" horiz-adv-x="401" d="M55 128Q74 117 108 106T173 95Q234 95 234 136Q234 156 220 168T167 196Q96 224 68 262T39 340Q39 374 52 403T90 454T149 488T227 500Q266 500 299 492T353 473L328 371Q312 379 287 387T233 396Q206 396 192 385T178 356Q178 339 193 327T250 298Q316 272 344 236T373 148Q373 77 322 34T173 -9Q130 -9 92 0T28 23L55 128Z"  />
<glyph unicode="t" horiz-adv-x="350" d="M221 627V489H327V383H221V192Q221 147 235 129T278 110Q292 110 302 111T320 114L322 3Q307 -2 283 -5T229 -9Q194 -9 166 1T120 30Q99 51 89 85T78 173V383H15V489H78V593L221 627Z"  />
<glyph unicode="u" horiz-adv-x="544" d="M486 155Q486 109 487 71T490 0H364L357 64H354Q346 52 334 39T305 15T265 -3T214 -10Q140 -10 97 40T54 199V489H200V221Q200 168 216 139T269 109Q295 109 311 124T334 156Q340 169 340 191V489H486V155Z"  />
<glyph unicode="v" horiz-adv-x="490" d="M165 489L222 264Q230 233 236 203T248 140H251Q256 172 262 202T276 264L331 489H482L315 0H173L8 489H165Z"  />
<glyph unicode="w" horiz-adv-x="716" d="M160 489L195 286Q202 247 208 208T220 129H222Q229 169 238 209T255 284L304 489H419L466 290Q475 248 483 209T498 129H500Q505 168 511 208T525 291L563 489H706L564 0H431L387 171Q379 207 372 243T358 324H356Q350 279 342 243T325 172L279 0H145L9 489H160Z"  />
<glyph unicode="x" horiz-adv-x="482" d="M169 489L211 406Q231 366 246 330H249Q257 350 265 369T282 408L321 489H476L330 254L478 0H314L270 89Q261 108 253 126T236 164H234Q217 125 201 89L160 0H4L153 247L7 489H169Z"  />
<glyph unicode="y" horiz-adv-x="483" d="M166 489L231 245Q237 223 242 200T253 156H255Q260 176 264 199T274 244L329 489H481L371 151Q350 89 331 42T294 -41T258 -103T218 -149Q181 -184 144 -199T82 -219L47 -95Q81 -87 113 -65Q130 -54 145 -38T169 -5Q177 8 177 17Q177 27 172 40L6 489H166Z"  />
<glyph unicode="z" horiz-adv-x="433" d="M21 86L165 286Q183 309 199 329T233 370V373H37V489H406L405 399L267 206Q250 183 232 161T197 119V117H412V0H21V86Z"  />
<glyph unicode="{" horiz-adv-x="297" d="M24 326Q48 327 62 333T84 348T94 369T97 391Q97 410 95 429T91 469Q89 489 88 508T86 548Q86 619 126 652T238 686H268V602H251Q219 602 206 583T192 532Q192 518 193 503T197 473Q199 457 200 441T201 407Q202 353 181 326T119 289V287Q160 277 181 251T201 168Q201 150 200 134T197 101Q195 85 194 71T192 43Q192 11 204 -9T251 -29H268V-112H237Q204 -112 177 -105T129 -82T97 -39T86 27Q86 46 87 66T91 106Q93 126 95 145T97 184Q97 194 95 205T85 225T63 241T24 249V326Z"  />
<glyph unicode="|" horiz-adv-x="263" d="M183 750V-250H80V750H183Z"  />
<glyph unicode="}" horiz-adv-x="297" d="M273 249Q249 248 235 242T213 226T203 205T200 184Q200 165 202 146T206 106Q208 86 210 66T212 27Q212 -12 201 -38T169 -81T122 -105T61 -112H30V-29H46Q81 -27 93 -8T106 43Q106 57 105 71T101 101Q99 117 98 133T96 168Q95 224 116 250T179 287V289Q138 299 117 326T96 407Q96 424 97 440T101 473Q103 488 104 503T106 532Q106 564 93 582T47 602H30V686H60Q130 686 171 653T212 548Q212 528 210 509T206 469Q204 449 202 430T200 391Q200 380 202 369T212 349T234 333T273 326V249Z"  />
<glyph unicode="~" horiz-adv-x="596" d="M47 195Q47 244 57 278T87 335T131 366T185 376Q221 376 251 364T323 328Q357 308 377 298T416 288Q435 288 445 306T457 370H549Q551 320 542 285T516 228T473 196T419 186Q384 186 354 197T282 234Q247 255 225 266T186 277Q166 277 154 260T139 195H47Z"  />
<glyph unicode="&#xA0;" horiz-adv-x="189" />
<glyph unicode="&#xA1;" horiz-adv-x="258" d="M53 -196L73 258H186L206 -196H53ZM129 494Q167 494 190 470T214 406Q214 368 191 344T130 319Q92 319 68 343T44 406Q44 445 68 469T129 494Z"  />
<glyph unicode="&#xA2;" horiz-adv-x="516" d="M259 -10V88Q174 103 122 162Q97 192 83 233T69 326Q69 371 82 411T119 483T179 538T260 570V668H354V576Q377 574 400 570T441 557L420 448Q385 466 335 466Q280 466 249 428T217 330Q217 297 226 272T252 230T290 204T337 195Q366 195 388 199T430 212L446 106Q412 89 353 86V-10H259Z"  />
<glyph unicode="&#xA3;" horiz-adv-x="516" d="M47 0V81Q68 90 86 105T119 139T142 181T151 228Q151 239 151 250T148 272H56V371H132Q128 391 126 412T123 456Q123 501 138 538T181 603T248 645T337 660Q375 660 402 653T444 638L421 526Q407 533 389 538T345 543Q321 543 305 536T278 516T264 487T259 453Q259 431 261 411T269 371H396V272H282Q283 252 281 233T273 196Q266 176 254 158T224 122V120H470V0H47Z"  />
<glyph unicode="&#xA4;" horiz-adv-x="516" d="M258 546Q292 546 320 537T370 510L443 591L506 527L421 449Q432 428 441 400T450 334Q450 293 441 264T419 214L502 133L440 71L368 155Q345 135 315 126T256 116Q227 116 197 125T146 153L77 71L15 133L95 211Q81 232 72 261T63 329Q63 370 72 399T95 449L11 526L74 592L148 508Q170 527 198 536T258 546ZM257 447Q220 447 198 415T176 331Q176 275 201 245T256 214Q290 214 313 244T337 332Q337 356 332 376T316 413T291 438T257 447Z"  />
<glyph unicode="&#xA5;" horiz-adv-x="516" d="M186 0V161H39V231H186V294H39V364H153L3 650H156L221 484Q233 454 242 427T259 375H261Q269 398 278 426T299 485L365 650H513L357 364H472V294H322V231H472V161H322V0H186Z"  />
<glyph unicode="&#xA6;" horiz-adv-x="263" d="M183 174V-176H80V174H183ZM183 674V324H80V674H183Z"  />
<glyph unicode="&#xA7;" horiz-adv-x="522" d="M152 345Q152 322 171 304T235 268Q268 256 297 245T341 226Q354 234 362 248T370 279Q370 300 355 318T304 350Q274 362 241 374T187 397Q172 389 162 376T152 345ZM409 566Q388 577 359 584T289 592Q250 592 229 579T207 545Q207 521 230 506T304 475Q341 463 373 449T430 414T467 367T481 303Q481 263 463 233T413 179Q426 169 439 146T453 90Q453 47 434 17T385 -33T318 -60T245 -69Q201 -69 155 -61T73 -29L100 62Q120 49 158 36T240 23Q278 23 301 35T325 74Q325 99 302 115T222 151Q185 163 152 178T95 212T56 258T41 320Q41 352 60 385T120 441Q105 455 94 479T83 530Q83 567 98 595T142 643T207 673T289 684Q329 684 365 677T432 655L409 566Z"  />
<glyph unicode="&#xA8;" horiz-adv-x="300" d="M51 558Q22 558 2 577T-18 626Q-18 656 2 675T51 695Q78 695 97 676T116 626Q116 597 98 578T51 558ZM251 558Q222 558 203 577T183 626Q183 656 202 675T251 695Q279 695 298 676T317 626Q317 597 299 578T251 558Z"  />
<glyph unicode="&#xA9;" horiz-adv-x="677" d="M340 648Q404 648 459 624T556 558T621 460T645 340Q645 275 622 219T557 120T460 54T340 30Q275 30 219 54T122 120T56 218T32 340Q32 404 56 460T121 558T219 624T340 648ZM339 592Q288 592 244 572T168 518T116 438T97 339Q97 286 116 240T167 160T244 106T339 86Q389 86 433 106T509 160T561 240T580 339Q580 391 561 437T510 518T433 572T339 592ZM459 439Q449 444 424 452T365 461Q307 461 274 428T240 337Q240 282 273 247T363 212Q393 212 419 218T462 235L476 184Q450 167 419 160T354 153Q310 153 276 167T218 205T182 263T169 334Q169 377 184 411T227 470T289 507T365 520Q401 520 432 511T474 493L459 439Z"  />
<glyph unicode="&#xAA;" horiz-adv-x="355" d="M232 265L226 298H224Q207 281 184 271T132 260Q87 260 60 287T32 357Q32 387 45 409T83 445T142 467T216 474V481Q216 486 214 492T206 505T188 515T158 520Q132 520 111 514T74 497L56 560Q75 571 106 580T176 590Q215 590 241 579T284 548T307 503T314 451V342Q314 321 315 301T319 265H232ZM219 416Q183 416 155 405T127 366Q127 349 139 339T169 328Q183 328 195 335T214 355Q219 365 219 376V416Z"  />
<glyph unicode="&#xAB;" horiz-adv-x="440" d="M122 252L238 63H136L23 252L136 441H238L122 252ZM306 252L422 63H320L207 252L320 441H422L306 252Z"  />
<glyph unicode="&#xAC;" horiz-adv-x="596" d="M556 422V106H463V332H40V422H556Z"  />
<glyph unicode="&#xAD;" horiz-adv-x="291" d="M273 316V217H30V316H273Z"  />
<glyph unicode="&#xAE;" horiz-adv-x="433" d="M196 436H149V591Q157 593 175 594T216 596Q242 596 255 593T277 584Q294 572 294 550Q294 539 284 529T258 515V513Q283 504 290 473Q294 456 296 448T300 436H249Q245 441 243 449T238 469Q234 492 211 492H196V436ZM198 524H211Q240 524 240 543Q240 563 214 563Q204 563 198 561V524ZM217 684Q253 684 284 671T339 635T376 582T389 516Q389 481 376 450T340 396T285 360T217 346Q181 346 150 359T95 396T58 450T44 516Q44 551 57 581T94 635T149 671T217 684ZM217 642Q191 642 169 632T130 605T104 565T95 515Q95 488 104 465T129 425T168 398T217 388Q243 388 265 398T304 425T329 465T338 515Q338 542 329 565T304 605T266 632T217 642Z"  />
<glyph unicode="&#xAF;" horiz-adv-x="300" d="M270 663V582H31V663H270Z"  />
<glyph unicode="&#xB0;" horiz-adv-x="335" d="M170 684Q202 684 228 673T273 643T302 599T312 546Q312 514 300 489T268 445T222 416T168 406Q137 406 111 416T66 445T37 488T26 542Q26 572 37 597T68 642T114 673T170 684ZM169 620Q139 620 120 597T100 543Q100 512 120 491T169 470Q199 470 218 491T238 544Q238 573 221 596T169 620Z"  />
<glyph unicode="&#xB1;" horiz-adv-x="596" d="M345 575V402H556V313H345V137H251V313H40V402H251V575H345ZM556 90V0H40V90H556Z"  />
<glyph unicode="&#xB2;" horiz-adv-x="328" d="M13 490L70 546Q121 595 150 627T179 693Q179 716 164 729T123 743Q100 743 79 735T43 716L16 790Q38 807 73 818T151 830Q188 830 215 821T260 795T286 757T295 712Q295 685 286 662T261 618T225 579T183 541L161 522V519H302V435H13V490Z"  />
<glyph unicode="&#xB3;" horiz-adv-x="321" d="M23 801Q44 812 77 821T150 830Q185 830 210 822T253 801T278 770T286 733Q286 700 265 677T209 643V641Q247 636 273 612T300 549Q300 496 254 463T128 430Q91 430 60 437T9 455L28 530Q43 522 67 515T117 507Q146 507 165 520T185 555Q184 581 159 594T102 607H77V673H99Q111 673 124 675T149 682T168 696T175 716Q175 732 163 742T125 753Q101 753 79 746T43 730L23 801Z"  />
<glyph unicode="&#xB4;" horiz-adv-x="300" d="M297 698L182 550H84L165 698H297Z"  />
<glyph unicode="&#xB5;" horiz-adv-x="546" d="M361 62Q350 37 323 16T255 -5Q236 -5 219 1T190 22V-19Q190 -41 190 -66T192 -116T196 -162T201 -196H70Q67 -187 64 -169T60 -127T57 -74T56 -15V489H202V205Q202 158 218 133T268 107Q294 107 312 122T337 155Q340 162 341 171T342 191V489H489V154Q489 123 498 112T528 99L518 -2Q500 -10 468 -10Q388 -10 365 62H361Z"  />
<glyph unicode="&#xB6;" horiz-adv-x="509" d="M195 -48V264H188Q170 264 143 275T90 309T46 368T28 453Q28 493 40 533T84 605T170 657T308 677Q397 677 440 667V-48H352V589H284V-48H195Z"  />
<glyph unicode="&#xB7;" horiz-adv-x="252" d="M126 172Q89 172 65 197T40 262Q40 302 64 327T126 353Q164 353 187 329T212 262Q212 222 188 197T126 172Z"  />
<glyph unicode="&#xB8;" horiz-adv-x="300" d="M202 4L176 -44Q204 -48 225 -67T247 -116Q247 -140 237 -157T211 -184T173 -199T128 -204Q105 -204 85 -199T50 -184L69 -128Q82 -136 96 -140T123 -144Q136 -144 147 -138T158 -118Q158 -88 83 -82L124 4H202Z"  />
<glyph unicode="&#xB9;" horiz-adv-x="282" d="M112 435V733H110L33 699L17 777L125 825H222V435H112Z"  />
<glyph unicode="&#xBA;" horiz-adv-x="363" d="M183 590Q219 590 247 578T295 545T325 493T336 428Q336 383 323 351T287 299T237 270T180 260Q147 260 119 271T69 304T37 355T25 423Q25 462 37 493T70 545T120 578T183 590ZM181 517Q165 517 155 508T138 485T129 455T126 424Q126 386 140 360T181 333Q210 333 223 360T236 426Q236 442 233 458T223 487T206 508T181 517Z"  />
<glyph unicode="&#xBB;" horiz-adv-x="440" d="M18 441H119L233 252L120 63H18L134 252L18 441ZM200 441H301L415 252L302 63H200L316 252L200 441Z"  />
<glyph unicode="&#xBC;" horiz-adv-x="782" d="M124 265V564H123L46 529L30 608L138 655H234V265H124ZM156 -10L519 660H597L235 -10H156ZM596 0V90H415V152L576 393H697V163H747V90H697V0H596ZM596 235Q596 255 597 272T600 307H598Q589 290 582 275T565 246L512 164L514 163H596V235Z"  />
<glyph unicode="&#xBD;" horiz-adv-x="782" d="M112 265V564H111L34 529L18 608L126 655H223V265H112ZM132 -10L494 660H572L210 -10H132ZM455 56L512 111Q563 160 592 192T621 258Q621 281 606 294T565 308Q542 308 521 300T485 281L458 355Q480 372 515 383T593 395Q630 395 657 386T702 360T728 322T737 277Q737 250 728 227T703 184T667 144T625 106L603 87V85H744V0H455V56Z"  />
<glyph unicode="&#xBE;" horiz-adv-x="782" d="M42 631Q62 643 95 651T168 660Q238 660 271 631T305 563Q305 530 284 507T228 473V471Q266 466 292 442T318 379Q318 327 272 294T146 260Q109 260 78 267T27 286L47 361Q61 353 85 345T135 337Q165 337 184 350T203 385Q203 411 178 424T120 437H95V503H117Q130 503 143 505T168 512T186 526T193 546Q193 563 181 573T143 583Q119 583 98 576T62 560L42 631ZM183 -10L546 660H624L262 -10H183ZM605 0V90H423V152L585 393H706V163H755V90H706V0H605ZM605 235Q605 255 606 272T609 307H606Q597 290 590 275T574 246L520 164L522 163H605V235Z"  />
<glyph unicode="&#xBF;" horiz-adv-x="412" d="M231 495Q269 495 292 470T316 406Q316 368 293 344T231 319Q193 319 170 343T146 406Q146 445 170 470T231 495ZM292 264L293 240Q296 200 282 163T236 83Q213 53 198 29T182 -21Q182 -47 200 -63T253 -81Q276 -81 300 -74T342 -55L372 -161Q348 -175 309 -187T220 -199Q170 -199 135 -186T78 -151T46 -101T35 -44Q35 -16 42 7T62 51T88 89T117 124Q143 155 154 182T165 245V264H292Z"  />
<glyph unicode="&#xC0;" horiz-adv-x="597" d="M205 167L163 0H15L202 674H389L575 0H422L377 167H205ZM358 277L322 420Q314 450 307 488T291 557H289Q282 526 275 488T260 420L225 277H358ZM284 830L367 711H254L132 830H284Z"  />
<glyph unicode="&#xC1;" horiz-adv-x="597" d="M205 167L163 0H15L202 674H389L575 0H422L377 167H205ZM358 277L322 420Q314 450 307 488T291 557H289Q282 526 275 488T260 420L225 277H358ZM465 830L342 710H229L313 830H465Z"  />
<glyph unicode="&#xC2;" horiz-adv-x="597" d="M205 167L163 0H15L202 674H389L575 0H422L377 167H205ZM358 277L322 420Q314 450 307 488T291 557H289Q282 526 275 488T260 420L225 277H358ZM354 829L450 710H347L300 769H298L251 710H149L244 829H354Z"  />
<glyph unicode="&#xC3;" horiz-adv-x="597" d="M205 167L163 0H15L202 674H389L575 0H422L377 167H205ZM358 277L322 420Q314 450 307 488T291 557H289Q282 526 275 488T260 420L225 277H358ZM169 716Q167 777 187 808T243 839Q262 839 276 834T303 821Q315 813 325 808T345 802Q357 802 363 810T371 843H437Q439 777 419 750T361 722Q341 722 327 727T299 739Q287 747 278 751T259 756Q239 756 236 716H169Z"  />
<glyph unicode="&#xC4;" horiz-adv-x="597" d="M205 167L163 0H15L202 674H389L575 0H422L377 167H205ZM358 277L322 420Q314 450 307 488T291 557H289Q282 526 275 488T260 420L225 277H358ZM203 712Q175 712 156 732T137 779Q137 808 156 827T203 846Q230 846 248 827T267 779Q267 752 249 732T203 712ZM403 712Q375 712 356 732T337 779Q337 808 356 827T403 846Q431 846 449 827T468 779Q468 752 450 732T403 712Z"  />
<glyph unicode="&#xC5;" horiz-adv-x="597" d="M205 167L163 0H15L202 674H389L575 0H422L377 167H205ZM358 277L322 420Q314 450 307 488T291 557H289Q282 526 275 488T260 420L225 277H358ZM297 894Q354 894 381 866T408 797Q408 758 380 730T297 701Q241 701 213 729T184 796Q184 835 212 864T297 894ZM295 844Q274 844 264 829T253 796Q253 779 264 765T295 751Q317 751 327 764T338 797Q338 815 327 829T295 844Z"  />
<glyph unicode="&#xC6;" horiz-adv-x="786" d="M-1 0L261 674H731V553H485L500 402H727V283H517L534 121H762V0H408L388 184H213L148 0H-1ZM373 300L356 464Q354 489 351 516T346 572H342Q334 542 325 510T307 455L252 300H373Z"  />
<glyph unicode="&#xC7;" horiz-adv-x="538" d="M507 16Q489 7 453 0T369 -9L350 -44Q378 -50 399 -70T421 -123Q421 -149 411 -166T384 -194T346 -209T304 -214Q282 -214 260 -209T222 -195L241 -135Q252 -141 267 -145T296 -149Q310 -149 320 -144T331 -124Q331 -94 255 -87L294 -4Q228 6 179 34T98 105T49 205T32 327Q32 416 59 482T133 593T241 660T371 683Q423 683 460 675T515 657L486 539Q466 548 440 554T378 561Q338 561 303 548T242 507T201 437T186 336Q186 228 237 172T379 115Q408 115 437 120T487 133L507 16Z"  />
<glyph unicode="&#xC8;" horiz-adv-x="492" d="M430 288H210V121H456V0H64V674H442V553H210V408H430V288ZM248 830L332 711H218L96 830H248Z"  />
<glyph unicode="&#xC9;" horiz-adv-x="492" d="M430 288H210V121H456V0H64V674H442V553H210V408H430V288ZM423 830L301 710H188L271 830H423Z"  />
<glyph unicode="&#xCA;" horiz-adv-x="492" d="M430 288H210V121H456V0H64V674H442V553H210V408H430V288ZM313 829L409 710H305L258 769H256L210 710H107L202 829H313Z"  />
<glyph unicode="&#xCB;" horiz-adv-x="492" d="M430 288H210V121H456V0H64V674H442V553H210V408H430V288ZM153 713Q124 713 105 733T86 780Q86 809 105 828T153 847Q179 847 197 828T216 780Q216 753 198 733T153 713ZM353 713Q324 713 306 733T287 780Q287 809 306 828T353 847Q380 847 399 828T418 780Q418 753 400 733T353 713Z"  />
<glyph unicode="&#xCC;" horiz-adv-x="274" d="M210 674V0H64V674H210ZM124 830L207 711H94L-28 830H124Z"  />
<glyph unicode="&#xCD;" horiz-adv-x="274" d="M210 674V0H64V674H210ZM301 830L179 710H66L150 830H301Z"  />
<glyph unicode="&#xCE;" horiz-adv-x="274" d="M210 674V0H64V674H210ZM192 829L288 710H184L138 769H136L89 710H-13L81 829H192Z"  />
<glyph unicode="&#xCF;" horiz-adv-x="274" d="M210 674V0H64V674H210ZM37 713Q9 713 -10 733T-29 780Q-29 809 -10 828T38 847Q64 847 82 828T101 780Q101 753 83 733T37 713ZM238 713Q209 713 191 733T172 780Q172 809 191 828T238 847Q265 847 283 828T302 780Q302 753 284 733T238 713Z"  />
<glyph unicode="&#xD0;" horiz-adv-x="641" d="M2 400H70V666Q107 673 154 676T254 680Q341 680 400 664T503 613Q553 574 581 509T609 351Q609 251 580 183T503 73Q455 31 385 12T224 -8Q173 -8 135 -6T70 1V289H2V400ZM332 289H216V110Q224 108 236 108T260 107Q304 107 340 121T402 164T442 239T456 349Q456 458 408 512T272 567Q252 567 239 566T216 562V400H332V289Z"  />
<glyph unicode="&#xD1;" horiz-adv-x="638" d="M64 0V674H224L353 422Q379 373 405 314T452 201H454Q442 327 442 492V674H574V0H426L295 259Q269 310 241 370T192 486H189Q193 423 194 350T196 187V0H64ZM188 716Q186 777 206 808T262 839Q281 839 295 834T322 821Q334 813 344 808T364 802Q376 802 382 810T390 843H456Q458 777 438 750T380 722Q360 722 346 727T318 739Q306 747 297 751T278 756Q258 756 255 716H188Z"  />
<glyph unicode="&#xD2;" horiz-adv-x="646" d="M328 684Q401 684 455 656T544 581T597 473T615 345Q615 258 594 192T533 81T439 13T318 -10Q248 -10 195 17T105 90T51 200T32 334Q32 408 52 472T111 583T204 657T328 684ZM324 565Q291 565 266 548T222 501T195 429T186 336Q186 232 222 171T325 109Q358 109 383 126T426 174T452 247T461 340Q461 385 453 426T427 497T384 546T324 565ZM310 831L394 712H281L159 831H310Z"  />
<glyph unicode="&#xD3;" horiz-adv-x="646" d="M328 684Q401 684 455 656T544 581T597 473T615 345Q615 258 594 192T533 81T439 13T318 -10Q248 -10 195 17T105 90T51 200T32 334Q32 408 52 472T111 583T204 657T328 684ZM324 565Q291 565 266 548T222 501T195 429T186 336Q186 232 222 171T325 109Q358 109 383 126T426 174T452 247T461 340Q461 385 453 426T427 497T384 546T324 565ZM493 831L371 711H258L341 831H493Z"  />
<glyph unicode="&#xD4;" horiz-adv-x="646" d="M328 684Q401 684 455 656T544 581T597 473T615 345Q615 258 594 192T533 81T439 13T318 -10Q248 -10 195 17T105 90T51 200T32 334Q32 408 52 472T111 583T204 657T328 684ZM324 565Q291 565 266 548T222 501T195 429T186 336Q186 232 222 171T325 109Q358 109 383 126T426 174T452 247T461 340Q461 385 453 426T427 497T384 546T324 565ZM378 829L474 711H371L324 769H322L275 711H173L268 829H378Z"  />
<glyph unicode="&#xD5;" horiz-adv-x="646" d="M328 684Q401 684 455 656T544 581T597 473T615 345Q615 258 594 192T533 81T439 13T318 -10Q248 -10 195 17T105 90T51 200T32 334Q32 408 52 472T111 583T204 657T328 684ZM324 565Q291 565 266 548T222 501T195 429T186 336Q186 232 222 171T325 109Q358 109 383 126T426 174T452 247T461 340Q461 385 453 426T427 497T384 546T324 565ZM190 714Q188 776 208 807T263 838Q283 838 297 833T324 819Q336 811 346 806T366 800Q378 800 383 809T392 841H457Q459 775 439 748T381 720Q362 720 347 725T320 737Q307 745 298 750T280 755Q261 755 256 714H190Z"  />
<glyph unicode="&#xD6;" horiz-adv-x="646" d="M328 684Q401 684 455 656T544 581T597 473T615 345Q615 258 594 192T533 81T439 13T318 -10Q248 -10 195 17T105 90T51 200T32 334Q32 408 52 472T111 583T204 657T328 684ZM324 565Q291 565 266 548T222 501T195 429T186 336Q186 232 222 171T325 109Q358 109 383 126T426 174T452 247T461 340Q461 385 453 426T427 497T384 546T324 565ZM224 713Q195 713 176 733T157 780Q157 809 176 828T224 847Q250 847 268 828T287 780Q287 753 269 733T224 713ZM424 713Q395 713 377 733T358 780Q358 809 377 828T424 847Q451 847 469 828T488 780Q488 753 470 733T424 713Z"  />
<glyph unicode="&#xD7;" horiz-adv-x="596" d="M102 526L298 327L494 526L556 462L361 263L556 65L492 0L298 199L103 0L40 65L234 263L40 462L102 526Z"  />
<glyph unicode="&#xD8;" horiz-adv-x="646" d="M62 -5L115 83Q73 131 53 196T32 337Q32 409 52 472T111 582T203 657T325 684Q399 684 458 652L506 729L587 680L535 592Q577 544 596 479T615 344Q615 257 593 191T533 81T441 13T324 -10Q250 -10 193 23L140 -62L62 -5ZM393 541Q365 567 324 567Q290 567 263 551T216 504T187 432T177 338Q177 276 197 220H199L393 541ZM256 134Q281 107 324 107Q393 107 431 170T469 340Q469 367 466 394T452 450H450L256 134Z"  />
<glyph unicode="&#xD9;" horiz-adv-x="627" d="M208 674V271Q208 187 236 148T313 109Q364 109 391 147T419 271V674H565V285Q565 136 499 63T309 -10Q188 -10 125 62T62 286V674H208ZM304 830L387 711H274L152 830H304Z"  />
<glyph unicode="&#xDA;" horiz-adv-x="627" d="M208 674V271Q208 187 236 148T313 109Q364 109 391 147T419 271V674H565V285Q565 136 499 63T309 -10Q188 -10 125 62T62 286V674H208ZM474 830L352 710H239L323 830H474Z"  />
<glyph unicode="&#xDB;" horiz-adv-x="627" d="M208 674V271Q208 187 236 148T313 109Q364 109 391 147T419 271V674H565V285Q565 136 499 63T309 -10Q188 -10 125 62T62 286V674H208ZM377 829L473 710H369L322 769H320L274 710H172L266 829H377Z"  />
<glyph unicode="&#xDC;" horiz-adv-x="627" d="M208 674V271Q208 187 236 148T313 109Q364 109 391 147T419 271V674H565V285Q565 136 499 63T309 -10Q188 -10 125 62T62 286V674H208ZM218 713Q190 713 171 733T152 780Q152 809 171 828T218 847Q245 847 263 828T282 780Q282 753 264 733T218 713ZM418 713Q389 713 371 733T352 780Q352 809 371 828T418 847Q446 847 464 828T483 780Q483 753 465 733T418 713Z"  />
<glyph unicode="&#xDD;" horiz-adv-x="542" d="M195 0V271L2 674H166L227 512Q241 477 252 446T274 379H276Q286 412 297 444T322 513L381 674H542L341 276V0H195ZM444 829L322 709H209L292 829H444Z"  />
<glyph unicode="&#xDE;" horiz-adv-x="542" d="M64 674H207V554Q220 556 236 557T278 558Q332 558 374 547T451 506Q483 479 498 441T514 359Q514 297 494 254T439 183T359 144T266 131Q246 131 232 132T207 135V0H64V674ZM207 251Q230 246 260 246Q316 246 343 274T371 347Q371 393 344 419T264 445Q244 445 230 444T207 440V251Z"  />
<glyph unicode="&#xDF;" horiz-adv-x="568" d="M56 0V431Q56 516 75 568T130 653Q195 715 302 715Q347 715 384 702T449 665T491 608T506 534Q506 512 500 490T483 453Q454 439 441 422T427 385Q427 366 435 351T462 316Q476 301 489 285T513 249T530 209T537 160Q537 83 486 37T344 -10Q318 -10 291 -7T244 5L261 113Q292 100 329 100Q360 100 376 115T393 152Q393 172 384 188T354 226Q342 239 329 254T306 285T290 321T283 364Q283 402 303 434T359 486Q364 495 365 504T366 525Q366 558 346 580T293 602Q273 602 257 594T228 568T209 519T202 444V0H56Z"  />
<glyph unicode="&#xE0;" horiz-adv-x="496" d="M317 0L309 49H306Q283 20 250 5T175 -10Q141 -10 114 2T67 34T37 82T26 139Q26 187 46 222T102 280T187 314T294 325V333Q294 344 291 355T278 376T252 391T211 397Q176 397 143 387T87 363L60 458Q84 472 130 486T239 500Q298 500 337 483T399 437T431 370T441 291V117Q441 83 442 53T448 0H317ZM299 234Q273 234 250 230T208 217T179 193T168 154Q168 122 185 108T225 94Q249 94 268 108T296 146Q299 156 299 170V234ZM226 698L307 550H209L94 698H226Z"  />
<glyph unicode="&#xE1;" horiz-adv-x="496" d="M317 0L309 49H306Q283 20 250 5T175 -10Q141 -10 114 2T67 34T37 82T26 139Q26 187 46 222T102 280T187 314T294 325V333Q294 344 291 355T278 376T252 391T211 397Q176 397 143 387T87 363L60 458Q84 472 130 486T239 500Q298 500 337 483T399 437T431 370T441 291V117Q441 83 442 53T448 0H317ZM299 234Q273 234 250 230T208 217T179 193T168 154Q168 122 185 108T225 94Q249 94 268 108T296 146Q299 156 299 170V234ZM398 698L283 550H185L266 698H398Z"  />
<glyph unicode="&#xE2;" horiz-adv-x="496" d="M317 0L309 49H306Q283 20 250 5T175 -10Q141 -10 114 2T67 34T37 82T26 139Q26 187 46 222T102 280T187 314T294 325V333Q294 344 291 355T278 376T252 391T211 397Q176 397 143 387T87 363L60 458Q84 472 130 486T239 500Q298 500 337 483T399 437T431 370T441 291V117Q441 83 442 53T448 0H317ZM299 234Q273 234 250 230T208 217T179 193T168 154Q168 122 185 108T225 94Q249 94 268 108T296 146Q299 156 299 170V234ZM295 698L390 550H294L247 635H245L198 550H101L196 698H295Z"  />
<glyph unicode="&#xE3;" horiz-adv-x="496" d="M317 0L309 49H306Q283 20 250 5T175 -10Q141 -10 114 2T67 34T37 82T26 139Q26 187 46 222T102 280T187 314T294 325V333Q294 344 291 355T278 376T252 391T211 397Q176 397 143 387T87 363L60 458Q84 472 130 486T239 500Q298 500 337 483T399 437T431 370T441 291V117Q441 83 442 53T448 0H317ZM299 234Q273 234 250 230T208 217T179 193T168 154Q168 122 185 108T225 94Q249 94 268 108T296 146Q299 156 299 170V234ZM106 558Q104 617 125 651T184 685Q203 685 218 679T247 665Q258 658 268 653T288 647Q299 647 304 655T312 689H379Q381 623 360 594T300 565Q281 565 266 571T236 585Q223 592 216 596T198 601Q175 601 174 558H106Z"  />
<glyph unicode="&#xE4;" horiz-adv-x="496" d="M317 0L309 49H306Q283 20 250 5T175 -10Q141 -10 114 2T67 34T37 82T26 139Q26 187 46 222T102 280T187 314T294 325V333Q294 344 291 355T278 376T252 391T211 397Q176 397 143 387T87 363L60 458Q84 472 130 486T239 500Q298 500 337 483T399 437T431 370T441 291V117Q441 83 442 53T448 0H317ZM299 234Q273 234 250 230T208 217T179 193T168 154Q168 122 185 108T225 94Q249 94 268 108T296 146Q299 156 299 170V234ZM149 558Q120 558 100 577T80 626Q80 656 100 675T149 695Q176 695 195 676T214 626Q214 597 196 578T149 558ZM349 558Q320 558 301 577T281 626Q281 656 300 675T349 695Q377 695 396 676T415 626Q415 597 397 578T349 558Z"  />
<glyph unicode="&#xE5;" horiz-adv-x="496" d="M317 0L309 49H306Q283 20 250 5T175 -10Q141 -10 114 2T67 34T37 82T26 139Q26 187 46 222T102 280T187 314T294 325V333Q294 344 291 355T278 376T252 391T211 397Q176 397 143 387T87 363L60 458Q84 472 130 486T239 500Q298 500 337 483T399 437T431 370T441 291V117Q441 83 442 53T448 0H317ZM299 234Q273 234 250 230T208 217T179 193T168 154Q168 122 185 108T225 94Q249 94 268 108T296 146Q299 156 299 170V234ZM249 539Q196 539 167 566T138 633Q138 675 166 703T250 731Q304 731 331 704T359 634Q359 593 330 566T249 539ZM248 587Q271 587 282 601T293 635Q293 653 283 668T248 683Q226 683 216 668T205 633Q205 617 215 602T248 587Z"  />
<glyph unicode="&#xE6;" horiz-adv-x="752" d="M433 206Q434 152 469 125T558 98Q598 98 626 104T680 122L700 24Q662 4 620 -3T535 -10Q478 -10 430 12T358 76H355Q328 36 286 13T185 -10Q148 -10 119 2T69 34T37 83T26 143Q26 188 46 221T103 276T188 309T295 320V335Q295 343 291 353T277 374T250 390T206 397Q173 397 141 387T88 362L60 456Q87 472 130 486T223 500Q278 500 315 480T373 421H376Q402 459 442 479T532 500Q581 500 617 481T676 428T711 352T723 260Q723 245 722 231T719 206H433ZM298 230Q272 230 248 227T206 214T177 190T166 153Q166 123 183 109T224 94Q250 94 268 108T294 143Q298 154 298 172V230ZM589 303Q589 318 586 335T575 367T552 392T515 402Q493 402 478 392T452 367T437 335T432 303H589Z"  />
<glyph unicode="&#xE7;" horiz-adv-x="412" d="M395 11Q380 4 354 -1T293 -9L274 -44Q302 -50 323 -69T345 -123Q345 -149 335 -166T308 -194T270 -209T228 -214Q206 -214 185 -210T146 -195L165 -135Q177 -141 192 -145T220 -149Q234 -149 244 -144T255 -124Q255 -109 237 -100T180 -87L218 -3Q131 12 82 75T32 240Q32 295 49 342T100 424T183 479T295 499Q323 499 350 494T398 481L376 371Q364 376 346 380T302 385Q245 385 212 346T180 245Q180 178 215 142T303 106Q326 106 345 110T379 121L395 11Z"  />
<glyph unicode="&#xE8;" horiz-adv-x="495" d="M171 196Q172 171 183 153T211 123T251 106T299 100Q334 100 364 105T421 119L441 19Q406 5 364 -2T276 -9Q158 -9 95 56T32 237Q32 288 47 335T91 419T163 478T263 500Q317 500 355 481T418 428T454 351T466 259Q466 218 461 196H171ZM331 297Q331 313 328 331T316 365T292 390T255 400Q233 400 218 390T192 365T177 331T171 297H331ZM244 698L325 550H227L112 698H244Z"  />
<glyph unicode="&#xE9;" horiz-adv-x="495" d="M171 196Q172 171 183 153T211 123T251 106T299 100Q334 100 364 105T421 119L441 19Q406 5 364 -2T276 -9Q158 -9 95 56T32 237Q32 288 47 335T91 419T163 478T263 500Q317 500 355 481T418 428T454 351T466 259Q466 218 461 196H171ZM331 297Q331 313 328 331T316 365T292 390T255 400Q233 400 218 390T192 365T177 331T171 297H331ZM417 698L302 550H204L285 698H417Z"  />
<glyph unicode="&#xEA;" horiz-adv-x="495" d="M171 196Q172 171 183 153T211 123T251 106T299 100Q334 100 364 105T421 119L441 19Q406 5 364 -2T276 -9Q158 -9 95 56T32 237Q32 288 47 335T91 419T163 478T263 500Q317 500 355 481T418 428T454 351T466 259Q466 218 461 196H171ZM331 297Q331 313 328 331T316 365T292 390T255 400Q233 400 218 390T192 365T177 331T171 297H331ZM309 698L404 550H308L261 635H259L212 550H115L210 698H309Z"  />
<glyph unicode="&#xEB;" horiz-adv-x="495" d="M171 196Q172 171 183 153T211 123T251 106T299 100Q334 100 364 105T421 119L441 19Q406 5 364 -2T276 -9Q158 -9 95 56T32 237Q32 288 47 335T91 419T163 478T263 500Q317 500 355 481T418 428T454 351T466 259Q466 218 461 196H171ZM331 297Q331 313 328 331T316 365T292 390T255 400Q233 400 218 390T192 365T177 331T171 297H331ZM166 558Q137 558 117 577T97 626Q97 656 117 675T166 695Q193 695 212 676T231 626Q231 597 213 578T166 558ZM366 558Q337 558 318 577T298 626Q298 656 317 675T366 695Q394 695 413 676T432 626Q432 597 414 578T366 558Z"  />
<glyph unicode="&#xEC;" horiz-adv-x="259" d="M56 0V489H202V0H56ZM105 698L185 550H88L-28 698H105Z"  />
<glyph unicode="&#xED;" horiz-adv-x="259" d="M56 0V489H202V0H56ZM284 698L169 550H71L152 698H284Z"  />
<glyph unicode="&#xEE;" horiz-adv-x="259" d="M56 0V489H202V0H56ZM179 698L274 550H178L131 635H129L82 550H-15L81 698H179Z"  />
<glyph unicode="&#xEF;" horiz-adv-x="259" d="M56 0V489H202V0H56ZM30 558Q1 558 -19 577T-39 626Q-39 656 -19 675T30 695Q57 695 76 676T95 626Q95 597 77 578T30 558ZM230 558Q201 558 182 577T162 626Q162 656 181 675T230 695Q258 695 277 676T296 626Q296 597 278 578T230 558Z"  />
<glyph unicode="&#xF0;" horiz-adv-x="531" d="M266 96Q288 96 303 107T329 138T345 184T350 241Q350 279 346 306T331 350Q321 367 306 376T268 386Q242 386 226 372T199 336T184 289T180 241Q180 211 185 185T201 139T228 108T266 96ZM73 541L171 587Q152 600 131 612T87 635L155 715Q189 701 224 682T291 639L416 695L445 640L347 597Q417 536 458 454Q480 411 489 362T499 258Q499 185 479 134T425 51T349 5T264 -10Q213 -10 171 7T98 56T50 135T32 239Q32 296 50 340T98 415T167 461T249 477Q264 477 278 474T306 460L308 463Q292 486 273 507T230 544L100 486L73 541Z"  />
<glyph unicode="&#xF1;" horiz-adv-x="547" d="M56 336Q56 381 55 418T52 489H179L186 425H188Q196 438 209 451T240 475T280 493T330 500Q404 500 448 449T492 297V0H345V282Q345 324 330 352T277 380Q250 380 233 364T208 327Q202 312 202 287V0H56V336ZM139 558Q137 617 158 651T217 685Q236 685 251 679T280 665Q291 658 301 653T321 647Q332 647 338 655T346 689H412Q414 623 393 594T334 565Q314 565 299 571T269 585Q256 592 249 596T231 601Q208 601 207 558H139Z"  />
<glyph unicode="&#xF2;" horiz-adv-x="533" d="M272 500Q324 500 366 482T439 430T485 351T501 249Q501 179 480 130T426 49T350 4T265 -10Q214 -10 172 7T98 56T50 135T32 242Q32 303 50 351T99 432T175 482T272 500ZM268 394Q244 394 227 381T200 346T185 299T180 245Q180 213 185 186T202 139T229 108T269 96Q289 96 304 107T330 139T346 187T352 245Q352 272 348 298T333 346T307 380T268 394ZM251 698L332 550H234L118 698H251Z"  />
<glyph unicode="&#xF3;" horiz-adv-x="533" d="M272 500Q324 500 366 482T439 430T485 351T501 249Q501 179 480 130T426 49T350 4T265 -10Q214 -10 172 7T98 56T50 135T32 242Q32 303 50 351T99 432T175 482T272 500ZM268 394Q244 394 227 381T200 346T185 299T180 245Q180 213 185 186T202 139T229 108T269 96Q289 96 304 107T330 139T346 187T352 245Q352 272 348 298T333 346T307 380T268 394ZM420 698L305 550H207L288 698H420Z"  />
<glyph unicode="&#xF4;" horiz-adv-x="533" d="M272 500Q324 500 366 482T439 430T485 351T501 249Q501 179 480 130T426 49T350 4T265 -10Q214 -10 172 7T98 56T50 135T32 242Q32 303 50 351T99 432T175 482T272 500ZM268 394Q244 394 227 381T200 346T185 299T180 245Q180 213 185 186T202 139T229 108T269 96Q289 96 304 107T330 139T346 187T352 245Q352 272 348 298T333 346T307 380T268 394ZM316 698L411 550H315L268 635H266L219 550H122L218 698H316Z"  />
<glyph unicode="&#xF5;" horiz-adv-x="533" d="M272 500Q324 500 366 482T439 430T485 351T501 249Q501 179 480 130T426 49T350 4T265 -10Q214 -10 172 7T98 56T50 135T32 242Q32 303 50 351T99 432T175 482T272 500ZM268 394Q244 394 227 381T200 346T185 299T180 245Q180 213 185 186T202 139T229 108T269 96Q289 96 304 107T330 139T346 187T352 245Q352 272 348 298T333 346T307 380T268 394ZM130 558Q128 617 149 651T208 685Q227 685 242 679T271 665Q282 658 292 653T312 647Q323 647 329 655T337 689H403Q405 623 384 594T325 565Q305 565 290 571T260 585Q247 592 240 596T222 601Q199 601 198 558H130Z"  />
<glyph unicode="&#xF6;" horiz-adv-x="533" d="M272 500Q324 500 366 482T439 430T485 351T501 249Q501 179 480 130T426 49T350 4T265 -10Q214 -10 172 7T98 56T50 135T32 242Q32 303 50 351T99 432T175 482T272 500ZM268 394Q244 394 227 381T200 346T185 299T180 245Q180 213 185 186T202 139T229 108T269 96Q289 96 304 107T330 139T346 187T352 245Q352 272 348 298T333 346T307 380T268 394ZM167 558Q138 558 118 577T98 626Q98 656 118 675T167 695Q194 695 213 676T232 626Q232 597 214 578T167 558ZM367 558Q338 558 319 577T299 626Q299 656 318 675T367 695Q395 695 414 676T433 626Q433 597 415 578T367 558Z"  />
<glyph unicode="&#xF7;" horiz-adv-x="596" d="M298 371Q267 371 249 390T230 441Q230 473 249 492T298 512Q330 512 348 493T367 441Q367 410 349 391T298 371ZM40 222V312H556V222H40ZM298 22Q267 22 249 42T230 92Q230 124 249 143T298 163Q330 163 348 144T367 92Q367 62 349 42T298 22Z"  />
<glyph unicode="&#xF8;" horiz-adv-x="533" d="M267 500Q327 500 377 474L419 539L474 504L430 435Q464 402 482 354T501 246Q501 177 480 129T426 50T351 5T268 -10Q238 -10 210 -4T159 15L115 -52L63 -12L106 53Q71 85 52 132T32 243Q32 303 49 351T98 432T173 482T267 500ZM316 374Q307 383 295 388T266 394Q239 394 221 380T192 344T176 296T171 245Q171 226 173 208T184 172L187 171L316 374ZM220 116Q236 96 267 96Q290 96 308 107T338 137T356 183T362 240Q362 257 360 276T350 313H347L220 116Z"  />
<glyph unicode="&#xF9;" horiz-adv-x="544" d="M486 155Q486 109 487 71T490 0H364L357 64H354Q346 52 334 39T305 15T265 -3T214 -10Q140 -10 97 40T54 199V489H200V221Q200 168 216 139T269 109Q295 109 311 124T334 156Q340 169 340 191V489H486V155ZM254 698L335 550H237L121 698H254Z"  />
<glyph unicode="&#xFA;" horiz-adv-x="544" d="M486 155Q486 109 487 71T490 0H364L357 64H354Q346 52 334 39T305 15T265 -3T214 -10Q140 -10 97 40T54 199V489H200V221Q200 168 216 139T269 109Q295 109 311 124T334 156Q340 169 340 191V489H486V155ZM429 698L314 550H216L297 698H429Z"  />
<glyph unicode="&#xFB;" horiz-adv-x="544" d="M486 155Q486 109 487 71T490 0H364L357 64H354Q346 52 334 39T305 15T265 -3T214 -10Q140 -10 97 40T54 199V489H200V221Q200 168 216 139T269 109Q295 109 311 124T334 156Q340 169 340 191V489H486V155ZM322 698L417 550H321L274 635H272L225 550H128L223 698H322Z"  />
<glyph unicode="&#xFC;" horiz-adv-x="544" d="M486 155Q486 109 487 71T490 0H364L357 64H354Q346 52 334 39T305 15T265 -3T214 -10Q140 -10 97 40T54 199V489H200V221Q200 168 216 139T269 109Q295 109 311 124T334 156Q340 169 340 191V489H486V155ZM176 558Q147 558 127 577T107 626Q107 656 127 675T176 695Q203 695 222 676T241 626Q241 597 223 578T176 558ZM376 558Q347 558 328 577T308 626Q308 656 327 675T376 695Q404 695 423 676T442 626Q442 597 424 578T376 558Z"  />
<glyph unicode="&#xFD;" horiz-adv-x="483" d="M166 489L231 245Q237 223 242 200T253 156H255Q260 176 264 199T274 244L329 489H481L371 151Q350 89 331 42T294 -41T258 -103T218 -149Q181 -184 144 -199T82 -219L47 -95Q81 -87 113 -65Q130 -54 145 -38T169 -5Q177 8 177 17Q177 27 172 40L6 489H166ZM406 698L291 550H193L274 698H406Z"  />
<glyph unicode="&#xFE;" horiz-adv-x="552" d="M201 705V429H203Q223 461 256 480T335 500Q374 500 407 483T466 432T505 353T520 248Q520 181 502 132T456 52T392 5T321 -10Q279 -10 250 6T204 46H202V-196H56V705H201ZM202 194Q202 182 205 169T214 148Q225 127 242 116T281 104Q325 104 349 143T373 246Q373 306 350 344T285 383Q261 383 241 369T211 332Q207 324 205 314T202 292V194Z"  />
<glyph unicode="&#xFF;" horiz-adv-x="483" d="M166 489L231 245Q237 223 242 200T253 156H255Q260 176 264 199T274 244L329 489H481L371 151Q350 89 331 42T294 -41T258 -103T218 -149Q181 -184 144 -199T82 -219L47 -95Q81 -87 113 -65Q130 -54 145 -38T169 -5Q177 8 177 17Q177 27 172 40L6 489H166ZM151 558Q122 558 103 577T83 626Q83 656 102 675T151 695Q179 695 198 676T217 626Q217 597 199 578T151 558ZM352 558Q323 558 304 577T284 626Q284 656 303 675T352 695Q380 695 399 676T418 626Q418 597 400 578T352 558Z"  />
<glyph unicode="&#x152;" horiz-adv-x="850" d="M814 0H469Q456 0 442 -1T413 -5Q398 -7 381 -8T343 -10Q260 -10 201 18T105 94T50 204T32 333Q32 411 53 475T116 586T215 658T347 684Q370 684 388 683T423 679Q440 677 453 676T478 674H800V553H568V408H787V288H568V121H814V0ZM422 552Q394 565 354 565Q320 565 290 551T236 509T199 438T186 338Q185 230 231 170T362 109Q379 109 395 112T422 120V552Z"  />
<glyph unicode="&#x153;" horiz-adv-x="808" d="M489 200Q492 150 528 125T613 99Q653 99 682 105T737 122L756 24Q719 3 674 -3T593 -10Q542 -10 498 8T422 75H420Q391 30 346 10T252 -10Q205 -10 165 7T96 56T49 136T32 243Q32 303 49 351T98 432T171 482T262 500Q311 500 354 479T420 414H422Q451 457 492 478T583 500Q635 500 672 480T733 427T768 351T779 259Q779 240 778 224T775 200H489ZM268 394Q242 394 225 380T198 344T184 296T180 244Q180 213 185 186T202 139T229 108T267 96Q289 96 305 107T331 139T347 186T352 246Q352 274 348 300T333 348T306 381T268 394ZM644 297Q644 313 642 331T631 364T609 389T570 399Q549 399 534 389T508 364T493 331T488 297H644Z"  />
<glyph unicode="&#x160;" horiz-adv-x="496" d="M63 150Q90 136 130 125T214 113Q265 113 291 133T317 187Q317 220 292 241T212 286Q131 320 88 368T44 482Q44 524 60 561T108 625T184 667T286 683Q337 683 374 674T438 652L408 533Q390 542 359 552T284 562Q236 562 214 542T191 496Q191 464 217 445T306 398Q389 362 426 314T464 199Q464 155 448 118T400 52T319 7T208 -9Q155 -9 108 2T36 28L63 150ZM203 711L107 829H211L258 770H260L306 829H408L314 711H203Z"  />
<glyph unicode="&#x161;" horiz-adv-x="401" d="M55 128Q74 117 108 106T173 95Q234 95 234 136Q234 156 220 168T167 196Q96 224 68 262T39 340Q39 374 52 403T90 454T149 488T227 500Q266 500 299 492T353 473L328 371Q312 379 287 387T233 396Q206 396 192 385T178 356Q178 339 193 327T250 298Q316 272 344 236T373 148Q373 77 322 34T173 -9Q130 -9 92 0T28 23L55 128ZM153 550L58 698H154L202 613H204L251 698H348L253 550H153Z"  />
<glyph unicode="&#x178;" horiz-adv-x="542" d="M195 0V271L2 674H166L227 512Q241 477 252 446T274 379H276Q286 412 297 444T322 513L381 674H542L341 276V0H195ZM179 711Q151 711 132 731T113 778Q113 807 132 826T179 845Q206 845 224 826T243 778Q243 751 225 731T179 711ZM379 711Q351 711 333 731T314 778Q314 807 332 826T379 845Q407 845 425 826T444 778Q444 751 426 731T379 711Z"  />
<glyph unicode="&#x17D;" horiz-adv-x="520" d="M20 81L308 548V551H46V674H491V583L210 126V123H494V0H20V81ZM212 710L116 829H220L267 770H269L315 829H417L323 710H212Z"  />
<glyph unicode="&#x17E;" horiz-adv-x="433" d="M21 86L165 286Q183 309 199 329T233 370V373H37V489H406L405 399L267 206Q250 183 232 161T197 119V117H412V0H21V86ZM174 550L79 698H175L223 613H225L272 698H369L274 550H174Z"  />
<glyph unicode="&#x192;" horiz-adv-x="516" d="M102 409H188L192 446Q195 477 206 514T240 583T303 638T401 660Q424 660 444 656T477 645L456 541Q446 544 436 546T411 549Q375 549 357 523T333 454L327 409H426V305H316L295 124Q290 80 279 42T247 -25T191 -70T105 -87Q77 -87 55 -83T20 -71L41 32Q52 27 63 26T85 23Q101 23 113 29T134 49T149 89T160 153L177 305H102V409Z"  />
<glyph unicode="&#x2C6;" horiz-adv-x="300" d="M200 698L295 550H199L152 635H150L103 550H6L101 698H200Z"  />
<glyph unicode="&#x2DC;" horiz-adv-x="300" d="M14 558Q12 617 33 651T92 685Q111 685 126 679T155 665Q166 658 176 653T196 647Q207 647 213 655T221 689H287Q289 623 268 594T209 565Q189 565 174 571T144 585Q131 592 124 596T106 601Q83 601 82 558H14Z"  />
<glyph unicode="&#x2013;" horiz-adv-x="500" d="M470 302V210H30V302H470Z"  />
<glyph unicode="&#x2014;" horiz-adv-x="1000" d="M970 302V210H30V302H970Z"  />
<glyph unicode="&#x2018;" horiz-adv-x="239" d="M21 411Q44 483 74 551T139 676L224 684Q201 620 183 552T154 420L21 411Z"  />
<glyph unicode="&#x2019;" horiz-adv-x="239" d="M222 684Q199 612 169 544T104 419L19 411Q42 474 60 542T88 675L222 684Z"  />
<glyph unicode="&#x201A;" horiz-adv-x="239" d="M12 -106Q35 -42 53 26T82 158L215 168Q192 96 162 28T97 -97L12 -106Z"  />
<glyph unicode="&#x201C;" horiz-adv-x="419" d="M19 411Q42 483 72 551T137 676L222 684Q199 620 181 552T153 420L19 411ZM203 411Q225 483 255 551T320 676L405 684Q382 620 364 552T336 420L203 411Z"  />
<glyph unicode="&#x201D;" horiz-adv-x="419" d="M220 684Q197 612 167 544T102 419L17 411Q40 474 58 542T86 675L220 684ZM403 684Q380 612 350 544T285 419L201 411Q223 474 241 542T270 675L403 684Z"  />
<glyph unicode="&#x201E;" horiz-adv-x="422" d="M11 -106Q33 -42 51 26T80 158L213 168Q190 96 160 28T95 -97L11 -106ZM194 -106Q217 -42 235 26T263 158L397 168Q374 96 344 28T279 -97L194 -106Z"  />
<glyph unicode="&#x2020;" horiz-adv-x="494" d="M312 674L301 477L461 487V372L301 383L312 -50H183L194 383L34 372V487L194 477L183 674H312Z"  />
<glyph unicode="&#x2021;" horiz-adv-x="494" d="M311 674L302 490L461 500V386L302 396V234L461 244V130L302 140L311 -50H183L191 140L34 130V244L192 234V396L34 386V500L192 490L183 674H311Z"  />
<glyph unicode="&#x2022;" horiz-adv-x="323" d="M161 139Q135 139 113 148T75 173T49 212T39 262Q39 289 48 312T74 351T113 377T161 387Q186 387 208 378T248 352T274 313T284 263Q284 236 275 213T249 174T210 148T161 139Z"  />
<glyph unicode="&#x2026;" horiz-adv-x="1000" d="M166 -10Q129 -10 105 15T81 80Q81 121 105 146T167 171Q204 171 228 147T252 80Q252 40 229 15T166 -10ZM500 -10Q463 -10 439 15T415 80Q415 121 439 146T500 171Q538 171 562 147T586 80Q586 40 563 15T500 -10ZM834 -10Q796 -10 772 15T748 80Q748 121 772 146T834 171Q872 171 895 147T920 80Q920 40 896 15T834 -10Z"  />
<glyph unicode="&#x2030;" horiz-adv-x="1187" d="M627 392Q667 392 697 377T748 334T778 272T788 197Q788 146 775 108T738 44T686 5T624 -8Q588 -8 558 6T507 47T473 109T461 188Q461 230 472 267T505 332T557 376T627 392ZM625 313Q594 313 580 279T566 192Q565 137 580 104T626 71Q655 71 669 103T683 192Q683 244 670 278T625 313ZM1000 392Q1040 392 1070 377T1121 334T1151 272T1161 197Q1161 146 1148 108T1111 44T1059 5T997 -8Q961 -8 931 6T879 47T845 109T833 188Q833 230 844 267T878 332T930 376T1000 392ZM998 313Q967 313 953 279T939 192Q938 137 953 104T999 71Q1028 71 1042 103T1056 192Q1056 244 1043 278T998 313ZM191 660Q231 660 261 645T312 603T342 541T352 466Q352 415 339 377T302 313T249 274T187 261Q151 261 121 275T70 316T36 378T24 457Q24 499 35 536T69 600T121 644T191 660ZM189 581Q158 581 144 548T130 460Q129 405 144 373T190 340Q219 340 233 371T247 460Q247 513 234 547T189 581ZM184 -10L550 660H628L262 -10H184Z"  />
<glyph unicode="&#x2039;" horiz-adv-x="255" d="M122 252L238 63H136L23 252L136 441H238L122 252Z"  />
<glyph unicode="&#x203A;" horiz-adv-x="255" d="M17 441H118L232 252L119 63H17L133 252L17 441Z"  />
<glyph unicode="&#x20AC;" horiz-adv-x="516" d="M490 24Q468 11 431 1T349 -10Q285 -10 228 15T131 91Q109 117 94 152T71 234H11V304H63V319Q63 327 63 335T64 351H11V421H74Q82 464 99 498T138 560Q178 608 232 634T355 660Q397 660 430 652T487 633L461 520Q444 528 418 535T363 543Q331 543 303 531T254 492Q232 465 223 421H443V351H210Q209 343 209 335T209 319V304H443V234H220Q229 185 252 157Q273 131 303 121T367 110Q397 110 425 118T469 134L490 24Z"  />
<glyph unicode="&#x2122;" horiz-adv-x="616" d="M250 674V608H178V401H97V608H26V674H250ZM528 401L523 521Q523 544 523 569T523 627H518Q513 597 508 570T497 521L471 406H395L373 522Q370 542 366 571T357 627H352Q351 599 351 572T349 521L344 401H269L285 674H408L425 608Q428 591 431 573T439 520H440Q445 545 449 566T458 607L476 674H591L605 401H528Z"  />


</font>
</defs>
<text x="40" y="40" font-family="Myriad W01 Bd Sm Cnd" font-size="30" fill="#933" >ABCDEFGHIJKLMNOPQRSTUVWXYZ abcdefghijklmnopqrstuvwxyz AÁÀÂÄÅÃÆ CÇ DÐ EÉÈÊË I Í Ì Î Ï NÑ</text>
<text x="40" y="80" font-family="Myriad W01 Bd Sm Cnd" font-size="30" fill="#933" >OÓÒÔÖÕØŒ SŠ UÚÙÛÜ YÝŸ ZŽ Þ aáàâäåãæ cç dð eéèêë i ı í ì î ï nñ oóòôöõøœ sšß uúùûü yýÿ zž</text>
<text x="40" y="120" font-family="Myriad W01 Bd Sm Cnd" font-size="30" fill="#933" >þ 1234567890 ½ ¼ ¾ % ‰ $¢£¥ƒ€¤ † ‡ § ¶ # ^~µ +×± &lt; = &gt; ÷¬ !¡?¿ &quot; &amp; &apos; * ° . , : ; () [ \ ] {} / |</text>
<text x="40" y="160" font-family="Myriad W01 Bd Sm Cnd" font-size="30" fill="#933" >¦ _ ‚ „ … ‹› «» ‘ ’ “ ” • ­ - – — @ © ® ™ ªº ¹²³ ´ ` ˆ ˜ ¨ ¯ · ¸</text>
</svg>
