<?xml  version="1.0" encoding="UTF-8"?>
<!DOCTYPE svg PUBLIC "-//W3C//DTD SVG 1.0//EN" "http://www.w3.org/TR/2001/REC-SVG-20010904/DTD/svg10.dtd" >
<svg xmlns="http://www.w3.org/2000/svg" >
<metadata>
<version>1.0</version>
<id><![CDATA[Myriad W01 Black Cnd It]]></id>
<vendor>Monotype Imaging Inc.</vendor>
<credits>
<name>Fonts.com WebFonts</name>
<URL>http://webfonts.fonts.com</URL>
<role>Home of the Web fonts</role>
</credits>
<license>
<URL>http://webfonts.fonts.com/Legal</URL>
</license>
<copyright><![CDATA[© 1992, 1994, 1997, 2000, 2004 Adobe Systems Incorporated. All rights reserved.]]></copyright>
<trademark><![CDATA[Myriad is either a registered trademark or a trademark of Adobe Systems Incorporated in the United States and/or other countries.]]></trademark>
<licensee>
<name></name>
</licensee>
</metadata>
<defs >
<font horiz-adv-x="416" id="79900f3b-b997-4294-8198-d3502705b37e">
<font-face font-family="Myriad W01 Black Cnd It" panose-1="2 11 9 6 3 4 3 9 2 4" ascent="865" descent="-250" units-per-em="1000" alphabetic="0">
</font-face>
<missing-glyph horiz-adv-x="140" />

<glyph unicode="&#xA;" horiz-adv-x="0" />
<glyph unicode="&#xD;" horiz-adv-x="140" />
<glyph unicode=" " horiz-adv-x="140" />
<glyph unicode="!" horiz-adv-x="250" d="M58 233L125 674H291L188 233H58ZM89 -8Q51 -8 30 17T9 78Q9 95 16 112T36 144T64 167T98 176Q138 176 159 152T181 92Q181 69 173 51T153 20T124 -1T89 -8Z"  />
<glyph unicode="&quot;" horiz-adv-x="338" d="M227 682L161 411H80L108 682H227ZM397 682L331 411H250L278 682H397Z"  />
<glyph unicode="#" horiz-adv-x="447" d="M257 273L290 382H221L188 273H257ZM20 0L83 195H7L23 273H107L142 382H63L79 460H166L226 650H306L246 460H315L375 650H455L395 460H470L454 382H370L337 273H415L399 195H312L250 0H169L232 195H163L101 0H20Z"  />
<glyph unicode="$" horiz-adv-x="447" d="M101 -85L122 17Q93 19 68 24T26 37L60 149Q82 140 101 135T149 130Q192 130 212 151T232 199Q232 226 220 245T181 286Q154 308 137 329T111 369T98 408T95 446Q95 473 104 501T132 555T182 599T257 628L273 725H358L340 633Q361 632 384 627T421 613L385 504Q368 512 351 516T313 520Q279 520 259 501T239 457Q239 449 240 440T248 421T265 399T297 370Q321 352 335 333T358 295T369 257T372 221Q372 180 360 146T325 85T272 43T205 21L186 -85H101Z"  />
<glyph unicode="%" horiz-adv-x="680" d="M217 658Q251 658 273 646T308 615T326 574T331 529Q331 469 317 419T278 333T223 278T159 258Q105 258 74 293T42 397Q42 445 55 492T92 576T147 635T217 658ZM212 581Q193 581 180 557T157 499T144 431T140 379Q140 335 163 335Q176 335 186 348T204 383T217 430T226 478T231 520T233 546Q233 560 229 570T212 581ZM72 -8L553 658H630L150 -8H72ZM552 395Q586 395 608 383T643 352T661 311T666 266Q666 206 652 156T613 70T558 15T494 -5Q440 -5 409 30T377 134Q377 182 390 229T427 313T482 372T552 395ZM547 318Q528 318 515 294T492 236T479 168T475 116Q475 72 498 72Q511 72 521 85T539 120T552 167T561 215T566 257T568 283Q568 297 564 307T547 318Z"  />
<glyph unicode="&amp;" horiz-adv-x="542" d="M342 0Q336 9 331 17T321 35Q289 14 253 3T172 -8Q130 -8 98 5T45 41T12 92T1 152Q1 192 13 224T45 282T93 328T153 365V368Q131 412 126 439T121 488Q121 535 137 571T182 632T245 669T318 682Q362 682 391 669T438 635T463 589T471 541Q471 517 464 492T439 441T391 389T313 338V333Q322 318 331 300T349 265T366 233T380 210Q400 241 412 279T435 358H553Q536 284 502 221T426 119Q438 97 457 65T497 0H342ZM211 99Q232 99 248 105T276 121Q268 133 258 151T237 191T215 234T195 276Q177 263 160 238T143 176Q143 144 162 122T211 99ZM310 590Q284 590 269 562T253 496Q253 474 258 457T271 424Q305 446 324 478T344 546Q344 563 338 576T310 590Z"  />
<glyph unicode="&apos;" horiz-adv-x="168" d="M227 682L161 411H80L108 682H227Z"  />
<glyph unicode="(" horiz-adv-x="260" d="M358 692Q324 658 288 605T223 482T174 330T155 153Q155 118 156 84T162 17T176 -50T201 -120H99Q40 -7 40 155Q40 254 61 340T113 494T181 613T246 692H358Z"  />
<glyph unicode=")" horiz-adv-x="260" d="M-86 -120Q-54 -85 -18 -32T48 91T97 245T117 424Q117 459 116 492T111 558T97 624T71 692H178Q206 637 219 569T232 422Q232 321 211 235T159 80T93 -40T31 -120H-86Z"  />
<glyph unicode="*" horiz-adv-x="380" d="M399 626L283 513L284 510L427 545L407 429L274 466L272 463L370 348L263 297L228 447L225 443L167 295L76 356L194 469L191 470L49 429L69 545L198 510L201 513L106 630L211 682L247 536H250L301 682L399 626Z"  />
<glyph unicode="+" horiz-adv-x="596" d="M351 532V314H561V220H351V0H255V220H45V314H255V532H351Z"  />
<glyph unicode="&#x2c;" horiz-adv-x="240" d="M-70 -125Q-32 -54 3 19T60 156L213 166Q178 95 133 22T37 -115L-70 -125Z"  />
<glyph unicode="-" horiz-adv-x="250" d="M240 337L219 228H29L50 337H240Z"  />
<glyph unicode="." horiz-adv-x="240" d="M97 -8Q56 -8 35 18T14 85Q14 105 21 124T41 158T70 182T106 191Q148 191 170 166T192 99Q192 48 164 20T97 -8Z"  />
<glyph unicode="/" horiz-adv-x="280" d="M-91 -40L290 682H395L14 -40H-91Z"  />
<glyph unicode="0" horiz-adv-x="447" d="M296 658Q348 658 378 637T425 585T447 519T452 454Q452 403 446 349T426 243T391 146T341 66T274 12T190 -8Q143 -8 113 11T65 60T42 126T35 198Q35 287 53 370T104 517T186 619T296 658ZM282 533Q265 533 251 512T225 458T204 384T189 305T180 234T177 184Q177 117 210 117Q226 117 240 139T265 196T284 273T299 355T308 427T311 476Q311 506 303 519T282 533Z"  />
<glyph unicode="1" horiz-adv-x="447" d="M223 511H221L113 462L112 579L265 650H395L271 0H125L223 511Z"  />
<glyph unicode="2" horiz-adv-x="447" d="M-9 0L9 105L85 188Q124 230 158 268T219 340T261 407T277 468Q277 495 262 515T206 535Q178 535 158 529T120 513L108 626Q138 640 175 649T253 658Q308 658 341 642T393 601T417 549T423 499Q423 448 406 404T361 320T299 244T231 175L190 133V131H377L353 0H-9Z"  />
<glyph unicode="3" horiz-adv-x="447" d="M43 136Q62 128 80 124T123 120Q171 120 200 143T229 207Q229 249 201 266T135 284H117L138 400H150Q166 400 185 403T220 416T248 439T259 476Q259 498 243 513T193 528Q173 528 155 524T123 513L127 636Q143 643 174 650T244 658Q294 658 327 645T379 610T406 563T414 513Q414 483 404 457T378 409T341 373T298 348L297 346Q336 328 356 292T377 211Q377 163 359 123T308 54T229 9T126 -8Q85 -8 53 -2T6 12L43 136Z"  />
<glyph unicode="4" horiz-adv-x="447" d="M192 0L222 150H8L25 252L302 650H443L370 264H433L412 150H349L319 0H192ZM243 264L263 363Q269 392 277 424T294 486H290Q273 457 258 431T229 384L151 266L150 264H243Z"  />
<glyph unicode="5" horiz-adv-x="447" d="M418 519H265L240 422H243Q262 422 290 412T345 369Q366 344 374 315T383 249Q383 194 363 147T306 66T221 12T113 -8Q75 -8 49 -3T9 10L44 134Q60 126 77 123T118 119Q141 119 163 126T201 146T228 178T238 223Q238 271 206 291T129 312Q118 312 109 312T86 310L169 650H445L418 519Z"  />
<glyph unicode="6" horiz-adv-x="447" d="M407 532Q385 532 363 526Q306 511 269 475T208 387H212Q229 406 253 417T303 428Q338 428 361 413T397 375T416 328T422 282Q422 222 405 170T358 78T285 15T194 -8Q146 -8 115 10T65 58T39 124T31 195Q31 263 46 321T84 426T137 509T193 568Q274 637 384 654Q400 657 410 657T430 658L407 532ZM204 98Q224 98 237 116T259 160T272 217T276 271Q276 288 269 305T240 322Q222 322 205 305T179 264Q177 259 177 255T175 245Q170 215 169 196T168 163Q168 152 169 141T175 120T186 104T204 98Z"  />
<glyph unicode="7" horiz-adv-x="447" d="M468 650L448 547Q376 410 305 274T161 0H14Q84 131 153 259T293 517L294 519H92L116 650H468Z"  />
<glyph unicode="8" horiz-adv-x="447" d="M287 658Q371 658 413 615T455 504Q455 460 429 418T344 344L343 342Q383 310 398 273T413 201Q413 151 394 112T343 47T273 6T195 -8Q150 -8 116 4T59 39T24 91T12 157Q12 193 23 222T52 275T92 316T135 347L136 349Q106 378 95 408T84 470Q84 512 100 546T144 606T209 644T287 658ZM199 87Q229 87 249 117T270 195Q270 260 217 289Q196 272 175 241T154 164Q154 133 163 110T199 87ZM279 564Q267 564 257 557T238 537T224 508T219 472Q219 444 229 427T260 395Q294 415 307 445T321 508Q321 564 279 564Z"  />
<glyph unicode="9" horiz-adv-x="447" d="M69 120Q83 120 96 120T124 124Q141 127 160 135T197 157Q248 197 279 262H276Q260 247 237 240T190 232Q157 232 133 245T94 280T71 327T63 381Q63 435 80 485T129 573T201 635T290 658Q341 658 373 640T423 593T447 532T454 470Q453 394 437 331T395 217T341 130T283 70Q248 41 202 21T103 -7Q90 -9 79 -9T45 -8L69 120ZM281 552Q263 552 250 536T227 496T214 445T209 395Q209 369 217 351T246 332Q265 332 277 345T293 365Q297 371 300 383T309 428Q312 443 313 462T315 495Q315 521 308 536T281 552Z"  />
<glyph unicode=":" horiz-adv-x="240" d="M157 303Q119 303 98 328T77 391Q77 409 84 427T104 459T132 483T166 492Q206 492 227 467T249 405Q249 382 241 363T221 331T192 310T157 303ZM97 -8Q59 -8 38 17T17 80Q17 98 24 116T44 148T72 172T106 181Q146 181 167 156T189 94Q189 71 181 52T161 20T132 -1T97 -8Z"  />
<glyph unicode=";" horiz-adv-x="240" d="M-69 -125Q-31 -54 4 19T61 156L209 166Q174 95 129 22T33 -115L-69 -125ZM159 303Q121 303 100 328T79 391Q79 409 86 427T106 459T134 483T168 492Q208 492 229 467T251 405Q251 382 243 363T223 331T194 310T159 303Z"  />
<glyph unicode="&lt;" horiz-adv-x="596" d="M59 300L547 532V415L210 266V264L547 116V0L59 232V300Z"  />
<glyph unicode="=" horiz-adv-x="596" d="M55 313V407H571V313H55ZM55 127V221H571V127H55Z"  />
<glyph unicode="&gt;" horiz-adv-x="596" d="M557 215L69 0V114L446 265V267L69 418V532L557 317V215Z"  />
<glyph unicode="?" horiz-adv-x="333" d="M81 222Q82 227 82 232T83 242Q88 286 110 324T167 403Q192 433 206 457T220 504Q220 526 209 540T169 554Q152 554 134 550T98 536L97 654Q116 665 150 673T220 682Q274 682 305 667T352 630T373 585T378 546Q378 516 368 488T344 436T313 390T283 352Q260 324 243 299T219 246L213 222H81ZM115 -8Q79 -8 59 17T38 78Q38 95 45 112T65 144T93 167T126 176Q167 176 188 152T210 92Q210 69 202 51T181 20T151 -1T115 -8Z"  />
<glyph unicode="@" horiz-adv-x="631" d="M376 355Q368 360 351 360Q338 360 324 349T297 316T276 265T267 196Q267 173 274 159T300 144Q310 144 319 151T335 171T348 199T356 232L376 355ZM458 -57Q416 -80 377 -89T294 -98Q247 -98 201 -79T119 -21T61 75T38 207Q38 279 60 348T125 471T228 558T364 592Q428 592 475 569T553 509T598 423T613 325Q613 200 571 133T453 65Q411 65 393 88T373 152H370Q356 114 327 90T260 65Q218 65 195 99T172 189Q172 238 186 281T227 357T291 409T376 428Q403 428 431 422T478 404L447 228Q438 174 446 150T478 126Q492 126 505 136T530 170T548 228T555 314Q555 360 544 402T507 476T444 526T352 545Q304 545 258 521T176 453T118 347T96 208Q96 143 113 95T159 14T226 -33T309 -49Q343 -49 376 -40T442 -12L458 -57Z"  />
<glyph unicode="A" horiz-adv-x="454" d="M150 136L101 0H-42L228 674H402V0H259L264 136H150ZM269 243L275 381Q276 395 277 415T279 458T282 504T284 546H282Q276 527 270 504T256 458T243 415T232 382L184 243H269Z"  />
<glyph unicode="B" horiz-adv-x="493" d="M141 664Q169 670 205 673T281 677Q325 677 369 668T446 627Q469 606 478 578T488 518Q488 487 478 460T450 411T409 373T361 349V345Q385 337 402 322T429 287T444 246T449 203Q449 160 429 122T377 59Q339 28 285 13T150 -3Q123 -3 104 -3T69 -1T40 1T15 5L141 664ZM233 408H247Q298 408 322 435T346 504Q346 514 344 526T335 547T319 563T293 570Q285 570 277 570T262 567L233 408ZM175 112Q181 111 187 111T201 111Q246 111 274 140T303 218Q303 256 285 278T232 300H212L175 112Z"  />
<glyph unicode="C" horiz-adv-x="396" d="M338 6Q305 -6 244 -6Q175 -6 135 20T73 84T45 159T39 222Q39 355 76 446T168 594Q213 639 267 659T377 680Q403 680 427 675T458 665L417 536Q407 541 394 543T357 546Q335 546 310 532T266 492Q237 453 217 393T197 253Q197 196 215 162T278 127Q295 127 314 129T346 137L338 6Z"  />
<glyph unicode="D" horiz-adv-x="500" d="M141 664Q167 669 203 673T282 677Q346 677 387 658T455 607Q485 570 496 524T507 427Q507 361 493 303T458 197T410 114T358 59Q317 26 269 12T147 -3Q117 -3 80 0T17 11L141 664ZM180 125Q186 124 194 123T211 122Q239 122 269 148T316 220Q334 269 345 321T356 443Q356 461 354 481T344 519T323 547T289 559Q281 559 275 559T265 557L180 125Z"  />
<glyph unicode="E" horiz-adv-x="405" d="M360 288H219L187 131H349L323 0H15L144 674H441L415 544H269L241 412H384L360 288Z"  />
<glyph unicode="F" horiz-adv-x="405" d="M144 674H441L415 544H269L238 392H378L354 268H216L164 0H15L144 674Z"  />
<glyph unicode="G" horiz-adv-x="487" d="M406 20Q376 9 341 2T263 -6Q199 -6 159 12T92 64Q66 95 53 140T39 231Q39 340 73 430T165 583Q207 629 266 654T394 680Q441 680 468 674T511 661L465 530Q453 536 432 540T389 545Q355 545 331 536T287 507Q249 469 222 399T195 231Q195 176 212 149T260 121Q269 121 276 121T291 123L317 266H268L292 384H475L406 20Z"  />
<glyph unicode="H" horiz-adv-x="529" d="M292 674L241 407H355L406 674H554L425 0H277L327 272H215L163 0H15L144 674H292Z"  />
<glyph unicode="I" horiz-adv-x="267" d="M292 674L163 0H15L144 674H292Z"  />
<glyph unicode="J" horiz-adv-x="298" d="M-21 130Q-9 128 1 128T26 127Q49 127 68 145T96 206L186 674H334L246 215Q234 151 215 109T167 40T102 3T18 -8Q-3 -8 -20 -6T-44 -2L-21 130Z"  />
<glyph unicode="K" horiz-adv-x="468" d="M144 674H288L228 363H232Q246 396 259 419T286 468L394 674H554L356 372L425 0H270L241 267L200 208L159 0H15L144 674Z"  />
<glyph unicode="L" horiz-adv-x="363" d="M144 674H292L187 128H343L318 0H15L144 674Z"  />
<glyph unicode="M" horiz-adv-x="639" d="M432 0L461 212Q466 253 476 312T500 443H496Q473 371 451 313T414 222L328 14H220L214 222Q213 253 212 312T212 443H210Q196 371 184 312T161 212L110 0H-16L157 674H313L320 384Q320 366 320 343T321 296T322 250T321 210H323Q327 227 334 249T349 295T365 342T381 384L493 674H647L560 0H432Z"  />
<glyph unicode="N" horiz-adv-x="525" d="M15 0L144 674H278L322 448Q336 374 344 323T356 232H358Q361 260 365 297T374 378T387 469T403 565L424 674H550L421 0H296L249 208Q240 247 235 276T225 330T219 381T214 438H212Q206 387 194 302T163 116L141 0H15Z"  />
<glyph unicode="O" horiz-adv-x="498" d="M330 682Q388 682 422 660T475 605T499 535T505 469Q505 413 497 355T471 242T429 140T369 59Q336 26 297 9T210 -8Q152 -8 117 16T64 76T39 149T33 215Q33 268 41 324T67 434T111 535T173 617Q204 647 242 664T330 682ZM311 553Q292 553 274 535Q253 514 236 472T208 382T191 283T185 196Q185 185 186 172T193 148T207 129T232 121Q249 121 265 137Q288 160 304 207T332 307T348 409T353 485Q353 495 352 506T346 528T333 546T311 553Z"  />
<glyph unicode="P" horiz-adv-x="475" d="M142 664Q176 670 216 673T290 677Q307 677 328 675T372 667T417 650T456 620Q479 596 489 562T499 501Q499 463 491 430T469 371T438 324T404 290Q368 261 321 248T230 234H204L159 0H15L142 664ZM228 355H245Q277 355 297 369T330 404T346 448T351 491Q351 520 337 538T293 557Q285 557 278 557T266 555L228 355Z"  />
<glyph unicode="Q" horiz-adv-x="498" d="M393 -110Q365 -98 339 -85T289 -59T248 -36T218 -18Q207 -11 203 -10T196 -8Q117 -3 75 56T33 218Q33 267 41 322T66 429T110 530T172 614Q204 646 241 664T326 682Q372 682 403 668T454 633T484 586T499 536T504 493T505 466Q505 416 497 361T473 253T434 155T382 80Q365 63 344 51L343 46Q373 31 401 21T465 -1L393 -110ZM309 553Q289 553 271 535Q248 512 232 467T205 370T189 269T184 190Q184 161 195 141T233 120Q247 120 261 134Q275 148 287 174T310 232T328 301T341 372T350 438T353 490Q353 496 352 507T347 528T333 545T309 553Z"  />
<glyph unicode="R" horiz-adv-x="485" d="M142 664Q177 670 214 673T288 677Q333 677 376 668T449 629Q471 608 483 579T496 515Q496 477 486 445T457 386T414 341T361 313V310Q387 297 398 269T412 188Q413 163 413 134T415 79T418 31T423 0H275Q274 7 273 22T272 59T271 106T271 159Q272 216 261 237T223 259H207L159 0H15L142 664ZM231 372H256Q277 372 293 383T321 412T339 452T345 497Q345 507 343 519T335 540T320 556T295 563Q275 563 265 560L231 372Z"  />
<glyph unicode="S" horiz-adv-x="388" d="M33 147Q50 137 75 131T127 124Q162 122 187 139T213 192Q213 223 196 243T147 294Q68 369 68 456Q68 506 85 547T132 618T206 664T301 680Q344 680 369 674T407 659L368 532Q353 540 336 545T296 550Q261 550 238 531T215 476Q215 467 217 458T225 438T245 414T280 381Q325 343 343 301T361 221Q361 166 343 124T294 53T221 9T131 -6Q74 -6 42 2T-3 18L33 147Z"  />
<glyph unicode="T" horiz-adv-x="383" d="M172 534H56L83 674H462L435 534H320L217 0H69L172 534Z"  />
<glyph unicode="U" horiz-adv-x="504" d="M284 674L201 242Q192 197 192 170Q192 123 232 123Q243 123 253 127T272 144T289 179T304 237L388 674H536L457 259Q445 198 427 149T380 65T311 11T216 -8Q170 -8 138 3T86 37T56 89T46 158Q46 181 49 209T59 270L136 674H284Z"  />
<glyph unicode="V" horiz-adv-x="441" d="M89 0L69 674H234L218 364Q217 341 216 314T213 260T209 207T206 161H208Q213 181 220 206T234 259T250 314T266 364L369 674H533L251 0H89Z"  />
<glyph unicode="W" horiz-adv-x="666" d="M55 0L84 674H238L211 413Q205 354 199 295T185 176H187Q201 236 218 289T256 397L356 674H490L475 415Q472 359 468 299T456 176H458Q472 236 488 293T519 404L596 674H740L507 0H349L350 159Q351 222 354 285T365 401H363Q345 348 323 283T265 138L205 0H55Z"  />
<glyph unicode="X" horiz-adv-x="385" d="M208 0L192 138Q188 170 187 191T185 238H183Q177 223 172 211T163 186T152 161T139 129L84 0H-64L118 348L74 674H222L231 562Q232 542 233 527T235 498T237 472T238 444H240Q251 478 261 503T286 564L332 674H481L297 333L356 0H208Z"  />
<glyph unicode="Y" horiz-adv-x="390" d="M74 0L121 246L58 674H216L223 529Q226 468 226 432T224 376H226Q237 408 248 443T277 518L343 674H496L267 244L222 0H74Z"  />
<glyph unicode="Z" horiz-adv-x="383" d="M-20 95L260 540V542H86L113 674H449L426 551L161 134V132H345L319 0H-37L-20 95Z"  />
<glyph unicode="[" horiz-adv-x="260" d="M-31 -112L121 686H314L295 593H211L94 -19H180L162 -112H-31Z"  />
<glyph unicode="\" horiz-adv-x="280" d="M167 -40L62 682H157L262 -40H167Z"  />
<glyph unicode="]" horiz-adv-x="260" d="M299 686L147 -112H-46L-28 -19H56L173 593H87L106 686H299Z"  />
<glyph unicode="^" horiz-adv-x="596" d="M440 172L295 522H289L144 172H31L245 650H341L555 172H440Z"  />
<glyph unicode="_" horiz-adv-x="500" d="M451 -75L441 -125H-59L-49 -75H451Z"  />
<glyph unicode="`" horiz-adv-x="400" d="M287 692L325 550H230L158 692H287Z"  />
<glyph unicode="a" horiz-adv-x="446" d="M253 0L256 78H252Q226 34 192 13T128 -8Q99 -8 78 3T42 35T22 83T15 143Q15 199 29 261T78 377T168 465T307 500Q349 500 388 494T453 478L399 207Q395 187 392 160T385 104T381 48T379 0H253ZM291 389Q276 392 267 392Q240 392 220 367T187 306T166 235T159 177Q159 151 164 132T193 113Q213 113 230 142T261 237L291 389Z"  />
<glyph unicode="b" horiz-adv-x="455" d="M273 692L219 430H221Q241 461 269 480T335 500Q369 500 390 485T421 447T435 400T439 358Q439 283 420 217T364 100T275 21T157 -8Q20 -8 20 108Q20 130 23 150T28 182L127 692H273ZM171 190Q165 163 165 141Q165 121 172 110T196 98Q217 98 234 122T262 180T280 249T287 309Q287 336 283 355T257 375Q246 375 236 368T217 348T202 321T193 291L171 190Z"  />
<glyph unicode="c" horiz-adv-x="317" d="M272 7Q262 3 238 -1T181 -6Q139 -6 108 9T58 49T29 106T19 171Q19 242 40 302T98 405T184 473T291 498Q317 498 333 496T359 489L323 369Q300 374 287 374Q264 374 243 360T204 322T177 265T167 193Q167 156 182 135T224 114Q243 114 258 118T285 124L272 7Z"  />
<glyph unicode="d" horiz-adv-x="448" d="M492 692L390 157Q382 118 376 79T365 0H245L251 70H249Q226 32 194 12T131 -8Q74 -8 45 35T15 148Q15 213 32 276T81 389T160 469T264 500Q277 500 287 498T306 491L344 692H492ZM288 382Q278 390 263 390Q240 390 221 367T189 310T168 239T161 174Q161 145 169 129T197 113Q217 113 229 134T251 181L288 382Z"  />
<glyph unicode="e" horiz-adv-x="404" d="M352 20Q317 6 282 0T199 -6Q151 -6 117 8T61 47T29 107T19 183Q19 238 34 294T80 396T156 471T264 500Q301 500 327 488T371 455T398 409T407 356Q407 303 388 267T336 208T257 178T160 171Q160 160 163 151T175 132Q184 123 200 116T240 108Q272 108 296 114T345 132L352 20ZM278 341Q278 382 246 382Q219 382 199 352T173 280Q219 277 248 294T278 341Z"  />
<glyph unicode="f" horiz-adv-x="303" d="M17 0L91 389H24L43 492H111L114 507Q123 552 141 588T191 654Q215 676 249 688T324 700Q352 700 371 697T405 690L371 577Q362 580 353 581T331 583Q316 583 304 577T283 560T269 537T261 511L257 492H352L333 389H239L165 0H17Z"  />
<glyph unicode="g" horiz-adv-x="448" d="M30 -67Q45 -75 67 -81T109 -87Q162 -87 190 -57T227 19L237 70H235Q212 35 185 20T126 4Q99 4 79 16T46 47T27 92T19 144Q17 204 34 267T87 381T175 466T296 500Q344 500 382 491T450 468L372 52Q361 -8 340 -57T284 -139Q252 -171 206 -185T103 -200Q74 -200 41 -194T-6 -179L30 -67ZM292 383Q284 387 272 387Q249 387 230 366T196 314T173 248T165 185Q165 174 166 163T170 142T179 126T198 119Q210 119 220 128T238 151T251 180T259 206L292 383Z"  />
<glyph unicode="h" horiz-adv-x="464" d="M-3 0L129 692H277L227 435L229 434Q249 460 280 480T353 500Q401 500 422 470T444 388Q444 367 441 341T432 286L377 0H229L284 284Q286 298 288 317T290 345Q290 361 285 370T266 380Q250 380 230 357T199 280L145 0H-3Z"  />
<glyph unicode="i" horiz-adv-x="234" d="M-3 0L91 492H239L145 0H-3ZM183 543Q148 543 133 564T117 617Q117 632 122 647T137 676T162 697T196 705Q231 705 247 683T264 632Q264 589 240 566T183 543Z"  />
<glyph unicode="j" horiz-adv-x="220" d="M234 492L149 48Q142 13 136 -13T123 -59T110 -95T96 -122Q76 -157 36 -178T-61 -200Q-90 -200 -121 -194L-106 -85Q-100 -86 -95 -86T-83 -87Q-68 -87 -56 -82T-35 -64T-17 -27T-1 34L86 492H234ZM177 543Q142 543 127 564T111 617Q111 632 116 647T131 676T156 697T190 705Q225 705 241 683T258 632Q258 589 234 566T177 543Z"  />
<glyph unicode="k" d="M-3 0L129 692H273L197 292H199Q209 309 217 324T235 356L310 492H466L313 270L378 0H227L197 199L171 158L141 0H-3Z"  />
<glyph unicode="l" horiz-adv-x="234" d="M-3 0L129 692H277L145 0H-3Z"  />
<glyph unicode="m" horiz-adv-x="681" d="M-3 0L61 335Q69 374 75 414T87 492H213L209 429H211Q235 463 268 481T347 500Q382 500 403 481T431 429Q454 459 488 479T568 500Q616 500 639 470T662 389Q662 375 659 347T649 286L594 0H448L502 282Q506 303 508 321T510 354Q510 382 485 382Q477 382 468 376T450 355T431 316T415 256L365 0H223L277 282Q285 322 285 350Q285 364 280 373T262 382Q248 382 226 354T191 256L143 0H-3Z"  />
<glyph unicode="n" horiz-adv-x="464" d="M-3 0L61 335Q69 374 75 414T87 492H213L209 434H211Q235 464 269 482T344 500Q372 500 391 491T422 467T439 432T444 388Q444 366 441 342T432 289L377 0H229L286 300Q288 311 289 322T291 345Q291 360 285 370T266 380Q258 380 248 374T228 352T209 313T193 254L145 0H-3Z"  />
<glyph unicode="o" horiz-adv-x="438" d="M269 500Q320 500 350 482T396 437T418 379T423 322Q423 259 407 200T359 95T284 20T183 -8Q131 -8 99 9T49 53T25 108T19 163Q19 230 37 291T88 399T167 472T269 500ZM245 389Q229 389 214 366T188 309T171 237T164 168Q164 158 164 147T168 126T179 110T198 103Q216 103 230 127T255 188T272 266T278 342Q278 361 271 375T245 389Z"  />
<glyph unicode="p" horiz-adv-x="456" d="M-40 -192L61 335Q69 374 75 413T87 492H212L206 424H208Q230 459 263 479T329 500Q365 500 386 486T420 450T436 399T440 342Q440 279 424 216T377 104T303 23T206 -8Q189 -8 173 -6T145 2H142L106 -192H-40ZM162 109Q169 105 175 103T192 100Q215 100 233 123T263 180T282 251T289 316Q289 326 289 336T285 355T276 369T257 375Q238 375 221 350T196 290L162 109Z"  />
<glyph unicode="q" horiz-adv-x="446" d="M176 -192L230 66H228Q208 31 182 12T123 -8Q68 -8 42 36T15 150Q15 204 31 265T81 378T168 465T297 500Q344 500 382 490T448 470L322 -192H176ZM287 383Q280 387 267 387Q242 387 222 364T188 308T167 237T159 169Q159 113 192 113Q205 113 215 122T233 144T246 172T254 198L287 383Z"  />
<glyph unicode="r" horiz-adv-x="313" d="M-3 0L61 335Q69 374 75 414T87 492H213Q211 472 210 453T206 414H210Q239 462 270 481T331 500Q343 500 354 497L326 350Q322 351 315 351T301 352Q263 352 230 316T185 214L145 0H-3Z"  />
<glyph unicode="s" horiz-adv-x="332" d="M22 121Q38 113 57 107T102 102Q125 103 137 115T149 145Q149 161 140 174T102 209Q67 236 54 267T41 329Q41 364 54 395T93 449T154 486T235 500Q270 500 295 495T334 481L304 375Q293 381 277 385T245 390Q219 390 203 379T186 345Q186 331 194 320T220 296Q243 279 257 262T280 227T292 195T295 167Q295 85 241 40T95 -6Q59 -6 31 1T-12 18L22 121Z"  />
<glyph unicode="t" horiz-adv-x="302" d="M273 625L248 492H340L321 389H228L189 184Q186 164 186 151Q186 126 197 117T226 108Q232 108 241 108T262 110L243 0Q224 -5 201 -6T158 -8Q94 -8 64 24T33 112Q33 130 35 150T41 184L80 389H24L43 492H100L119 590L273 625Z"  />
<glyph unicode="u" horiz-adv-x="459" d="M462 492L398 157Q390 118 384 78T372 0H246L249 61L247 63Q220 26 188 9T120 -8Q69 -8 46 25T23 111Q23 136 26 163T36 223L87 492H235L184 225Q179 201 177 182T174 145Q174 111 200 111Q218 111 235 134T261 206L314 492H462Z"  />
<glyph unicode="v" horiz-adv-x="399" d="M201 492L188 289Q186 261 185 242T183 206T181 175T179 141H181Q186 159 190 174T199 204T210 236T224 278L297 492H444L222 0H73L45 492H201Z"  />
<glyph unicode="w" horiz-adv-x="615" d="M202 492L184 297Q181 270 179 249T175 210T171 175T166 136H169Q175 156 180 173T190 207T203 242T219 284L303 492H417L415 288Q415 261 414 242T412 206T410 174T406 136H409Q413 157 417 174T427 211T439 251T455 301L517 492H660L443 0H313L309 143Q308 176 310 217T317 309H314Q300 259 287 218T259 143L200 0H70L48 492H202Z"  />
<glyph unicode="x" horiz-adv-x="366" d="M188 492L198 410Q202 378 202 360T202 328H205Q210 341 217 360T235 401L277 492H427L267 245L331 0H179L167 76Q165 90 164 100T161 120T160 139T159 162H157Q152 150 147 134T127 87L87 0H-63L97 249L35 492H188Z"  />
<glyph unicode="y" horiz-adv-x="399" d="M200 492L198 272Q198 237 198 209T197 158H199Q206 187 213 214T233 284L296 492H444L285 110Q248 24 206 -44T120 -155Q98 -176 74 -192T32 -216L-27 -96Q-10 -87 5 -78T35 -58Q56 -42 72 -26T97 8Q99 12 100 16T100 27L45 492H200Z"  />
<glyph unicode="z" horiz-adv-x="330" d="M-18 100L106 275Q119 293 127 305T143 326T159 345T180 369L182 371H48L72 492H357L339 383L222 220Q205 196 194 181T174 156T158 138T144 123V121H295L271 0H-34L-18 100Z"  />
<glyph unicode="{" horiz-adv-x="260" d="M26 336Q66 336 81 351T100 384Q108 421 108 457T117 534Q131 608 173 647T295 686H324L306 595H291Q264 593 248 573T227 528Q220 494 219 467T214 414Q208 369 183 337T119 290V288Q136 282 145 272T160 249T166 225T168 204Q168 187 162 161T149 108Q142 81 137 58T131 24Q131 4 141 -8T176 -21H189L172 -112H145Q110 -112 86 -105T46 -84T25 -51T18 -9Q18 20 25 52T42 113Q51 142 58 165T66 200Q66 207 65 214T57 227T40 236T8 240L26 336Z"  />
<glyph unicode="|" horiz-adv-x="230" d="M183 750V-250H83V750H183Z"  />
<glyph unicode="}" horiz-adv-x="260" d="M256 238Q216 238 201 223T182 190Q174 153 174 117T165 40Q151 -34 109 -73T-13 -112H-42L-24 -21H-9Q18 -19 34 1T55 46Q62 80 63 107T68 160Q74 205 99 237T163 284V286Q146 292 137 302T122 325T116 349T114 370Q115 387 120 413T133 466Q140 493 145 516T151 550Q151 570 141 582T106 595H93L110 686H137Q207 686 235 658T264 583Q264 554 257 522T240 461Q231 432 224 409T216 374Q216 367 217 360T225 347T242 338T274 334L256 238Z"  />
<glyph unicode="~" horiz-adv-x="596" d="M52 193Q52 247 66 282T101 338T148 367T198 376Q235 377 265 363T333 323Q351 311 362 304T382 291T397 284T410 282Q430 282 440 300T452 366H548Q552 277 518 229T418 180Q401 180 385 182T352 191T316 209T271 238Q252 251 230 264T194 277Q166 277 159 253T149 193H52Z"  />
<glyph unicode="&#xA0;" horiz-adv-x="140" />
<glyph unicode="&#xA1;" horiz-adv-x="250" d="M-40 -192L63 249H193L126 -192H-40ZM163 497Q201 497 221 472T242 411Q242 394 235 377T215 345T187 322T154 313Q113 313 92 337T70 397Q70 419 78 437T98 469T128 490T163 497Z"  />
<glyph unicode="&#xA2;" horiz-adv-x="447" d="M179 -8L199 94Q171 99 147 114T107 149Q93 168 84 197T74 263Q74 325 91 375T137 462T206 522T290 557L309 658H393L374 562Q395 561 412 557T438 548L402 436Q385 445 368 446T336 448Q312 448 291 435T254 400T229 347T219 282Q219 267 223 252T238 226T263 207T298 200Q315 200 332 202T372 211L361 99Q329 90 282 90L263 -8H179Z"  />
<glyph unicode="&#xA3;" horiz-adv-x="447" d="M9 0L27 96Q54 106 73 122T106 156T128 193T139 228Q141 239 142 250T145 273H67L86 374H147Q146 395 148 418T155 466Q162 505 178 539T222 600T286 642T374 658Q400 658 419 652T449 640L416 526Q405 531 393 534T364 537Q337 537 320 518T294 465Q289 439 288 417T286 374H384L365 273H280Q277 253 274 240T264 210Q255 187 239 164T198 126V124H395L370 0H9Z"  />
<glyph unicode="&#xA4;" horiz-adv-x="447" d="M240 539Q272 539 293 531T325 510L397 582L458 517L377 439Q398 392 398 328Q398 293 393 264T378 211L458 132L398 68L324 141Q310 127 284 119T235 111Q208 111 184 118T145 139L80 67L19 132L96 208Q73 252 73 320Q73 357 80 386T100 439L19 516L82 583L150 508Q165 522 189 530T240 539ZM235 445Q206 445 192 410T177 323Q177 272 193 239T237 205Q268 205 281 238T294 325Q294 346 291 367T282 406T264 434T235 445Z"  />
<glyph unicode="&#xA5;" horiz-adv-x="447" d="M107 0L137 156H15L29 232H151L161 284H39L54 360H149L86 650H231L242 474Q244 444 246 414T247 363H249Q257 383 269 413T296 475L375 650H510L342 360H432L417 284H295L285 232H407L393 156H271L241 0H107Z"  />
<glyph unicode="&#xA6;" horiz-adv-x="230" d="M183 174V-176H83V174H183ZM183 674V324H83V674H183Z"  />
<glyph unicode="&#xA7;" horiz-adv-x="447" d="M176 337Q176 320 183 305T222 273Q245 262 255 256T275 245Q284 253 292 267T301 303Q301 319 294 334T267 361Q246 372 235 378T214 391Q202 385 189 369T176 337ZM406 570Q389 578 369 583T325 588Q293 588 276 573T259 538Q259 524 268 513T312 488Q342 476 362 460T394 425T412 387T417 349Q417 295 398 257T343 188Q348 179 351 165T355 134Q355 92 341 58T300 0T238 -37T158 -50Q116 -50 85 -43T34 -24L68 68Q85 60 107 52T165 44Q201 44 217 59T233 93Q233 111 217 126T158 162Q129 176 111 192T82 226T67 261T62 294Q62 339 83 378T154 453Q146 464 142 480T138 514Q138 548 151 579T190 632T251 668T332 682Q364 682 391 676T440 658L406 570Z"  />
<glyph unicode="&#xA8;" horiz-adv-x="400" d="M186 550Q157 550 138 570T118 624Q118 656 138 676T186 697Q215 697 234 677T254 624Q254 591 235 571T186 550ZM366 550Q337 550 318 570T298 624Q298 656 318 676T366 697Q395 697 414 677T434 624Q434 591 415 571T366 550Z"  />
<glyph unicode="&#xA9;" horiz-adv-x="657" d="M355 648Q417 648 472 624T568 558T633 460T657 340Q657 275 633 219T568 120T472 54T355 30Q292 30 237 54T140 120T74 218T50 340Q50 404 74 460T139 558T236 624T355 648ZM354 588Q304 588 261 569T186 516T135 436T117 338Q117 285 135 240T186 161T261 108T354 89Q403 89 446 108T521 161T572 240T591 339Q591 391 573 436T522 516T447 569T354 588ZM473 428Q463 434 438 443T378 452Q328 452 297 423T266 336Q266 286 296 254T373 221Q404 221 430 228T474 245L490 182Q464 167 431 160T365 153Q324 153 291 167T234 205T199 263T186 334Q186 377 201 411T244 470T306 507T382 520Q417 520 448 511T489 494L473 428Z"  />
<glyph unicode="&#xAA;" horiz-adv-x="315" d="M215 263V310H213Q198 284 177 271T131 258Q95 258 79 286T62 358Q62 402 74 443T109 517T168 568T250 588Q276 588 297 585T340 576L304 365Q300 343 299 316T296 263H215ZM237 510Q231 512 224 512Q206 512 193 497T171 460T159 416T155 380Q155 366 159 354T178 341Q192 341 202 358T217 392L237 510Z"  />
<glyph unicode="&#xAB;" horiz-adv-x="395" d="M113 243L193 63H91L10 252L142 441H253L113 243ZM283 243L363 63H261L180 252L312 441H423L283 243Z"  />
<glyph unicode="&#xAC;" horiz-adv-x="596" d="M561 431V100H469V337H45V431H561Z"  />
<glyph unicode="&#xAD;" horiz-adv-x="250" d="M240 337L219 228H29L50 337H240Z"  />
<glyph unicode="&#xAE;" horiz-adv-x="370" d="M225 450H180V594Q186 595 202 597T242 600Q265 600 277 597T298 588Q313 578 313 556Q313 546 304 537T280 524V522Q303 515 310 484Q313 469 315 462T319 450H269Q265 455 263 463T259 479Q256 500 238 500H225V450ZM227 533H238Q261 533 261 549Q261 557 255 561T240 565Q236 565 233 565T227 564V533ZM243 686Q277 686 306 673T357 638T391 587T404 524Q404 490 392 461T357 409T306 374T243 361Q209 361 180 374T128 409T94 460T81 524Q81 557 93 586T128 638T179 673T243 686ZM242 643Q218 643 198 634T164 608T141 570T132 523Q132 498 140 477T163 439T198 414T242 404Q266 404 286 413T321 439T344 477T353 524Q353 549 345 570T322 608T287 633T242 643Z"  />
<glyph unicode="&#xAF;" horiz-adv-x="400" d="M385 662L367 586H158L176 662H385Z"  />
<glyph unicode="&#xB0;" horiz-adv-x="290" d="M198 682Q226 682 248 673T286 648T309 611T317 567Q317 537 305 514T275 476T236 454T194 446Q142 446 109 478T76 559Q76 585 86 607T114 646T153 672T198 682ZM196 626Q174 626 157 607T140 560Q140 536 157 519T197 502Q220 502 236 518T253 562Q253 585 241 605T196 626Z"  />
<glyph unicode="&#xB1;" horiz-adv-x="596" d="M351 567V404H561V310H351V145H255V310H45V404H255V567H351ZM561 94V0H45V94H561Z"  />
<glyph unicode="&#xB2;" horiz-adv-x="265" d="M39 403L52 469L130 548Q146 564 161 580T190 613T211 646T219 677Q219 690 210 699T179 709Q163 709 150 705T119 693L116 775Q134 784 160 791T213 798Q253 798 276 788T312 762T327 732T331 706Q331 676 318 648T285 594T243 548T201 510L187 498V494H294L277 403H39Z"  />
<glyph unicode="&#xB3;" horiz-adv-x="253" d="M121 780Q134 786 157 792T209 798Q242 798 262 789T294 767T310 739T315 714Q315 674 294 648T240 611V609Q267 601 282 579T297 531Q297 504 285 480T251 437T196 409T123 398Q96 398 75 403T44 413L67 489Q78 484 94 481T124 477Q153 477 170 491T188 528Q188 549 172 561T125 574H108L121 643H134Q146 643 159 645T182 651T200 664T207 686Q207 719 169 719Q156 719 144 716T121 707V780Z"  />
<glyph unicode="&#xB4;" horiz-adv-x="400" d="M432 692L306 550H205L297 692H432Z"  />
<glyph unicode="&#xB5;" horiz-adv-x="465" d="M177 180Q168 136 177 122T203 108Q224 108 242 131Q247 137 252 149T259 175L321 492H469L405 165Q398 129 403 119T429 108L395 -1Q387 -4 377 -6T353 -8Q315 -8 296 7T268 49H265Q251 28 230 14T184 0Q156 0 141 17L136 -11Q126 -65 122 -114T117 -192H-14Q-17 -183 -19 -167T-20 -124T-13 -58T3 37L91 492H239L177 180Z"  />
<glyph unicode="&#xB6;" horiz-adv-x="447" d="M133 -48L193 262H189Q173 262 153 270T116 297T86 346T74 418Q74 476 93 523T150 605T242 657T367 676Q399 676 424 675T466 671L328 -48H259L387 618H330L202 -48H133Z"  />
<glyph unicode="&#xB7;" horiz-adv-x="240" d="M117 175Q76 175 55 201T34 268Q34 288 41 307T61 341T90 365T126 374Q168 374 190 349T212 282Q212 231 184 203T117 175Z"  />
<glyph unicode="&#xB8;" horiz-adv-x="400" d="M195 5L163 -41Q190 -47 203 -67T217 -105Q217 -134 205 -153T174 -183T135 -200T96 -205Q75 -205 56 -200T29 -188L52 -131Q78 -144 103 -144Q114 -144 126 -138T138 -115Q139 -100 125 -90T76 -77L131 5H195Z"  />
<glyph unicode="&#xB9;" horiz-adv-x="226" d="M111 403L168 698H166L96 666L91 746L197 793H292L217 403H111Z"  />
<glyph unicode="&#xBA;" horiz-adv-x="315" d="M219 588Q252 588 272 577T304 548T320 512T325 476Q325 420 310 379T273 311T223 271T170 258Q139 258 118 268T83 294T65 330T59 370Q59 415 71 454T104 523T155 570T219 588ZM208 509Q196 509 186 495T168 461T156 416T152 372Q152 356 158 346T180 336Q190 336 198 348T214 381T225 425T229 474Q229 488 225 498T208 509Z"  />
<glyph unicode="&#xBB;" horiz-adv-x="395" d="M41 441H143L224 252L92 63H-19L121 266L41 441ZM211 441H313L394 252L262 63H151L291 266L211 441Z"  />
<glyph unicode="&#xBC;" horiz-adv-x="675" d="M455 0L471 80H318L331 157L510 390H627L584 161H624L609 80H569L553 0H455ZM497 218Q500 236 504 252T512 282H510Q501 270 493 259T475 237L418 162V161H486L497 218ZM89 263L146 558H144L74 526L69 606L175 653H270L195 263H89ZM48 -8L529 658H616L136 -8H48Z"  />
<glyph unicode="&#xBD;" horiz-adv-x="675" d="M94 263L151 558H149L79 526L74 606L180 653H275L200 263H94ZM39 -8L520 658H607L127 -8H39ZM354 0L367 66L440 145Q455 161 471 177T500 210T521 243T529 274Q529 287 520 296T491 306Q462 306 434 287L431 372Q449 381 476 388T530 395Q567 395 589 385T623 359T637 329T641 303Q641 273 628 245T596 192T553 146T511 107L497 95V91H599L582 0H354Z"  />
<glyph unicode="&#xBE;" horiz-adv-x="675" d="M68 -8L549 658H636L156 -8H68ZM101 640Q114 646 137 652T189 658Q222 658 242 649T274 627T290 599T295 574Q295 534 274 508T220 471L221 469Q248 461 262 439T277 391Q277 364 265 340T231 297T176 269T103 258Q76 258 55 263T24 273L47 349Q58 344 74 341T104 337Q133 337 150 351T168 388Q168 409 152 421T105 434H88L101 503H114Q126 503 139 505T162 511T180 524T187 546Q187 579 149 579Q136 579 124 576T101 567V640ZM470 0L486 80H333L346 157L525 390H642L599 161H639L624 80H584L568 0H470ZM512 218Q515 236 519 252T527 282H525Q517 270 508 259T490 237L433 162V161H501L512 218Z"  />
<glyph unicode="&#xBF;" horiz-adv-x="333" d="M260 264Q260 259 260 254T258 244Q253 200 231 162T175 82Q149 53 135 26T121 -22Q121 -44 132 -58T171 -72Q188 -72 207 -68T243 -54L244 -172Q225 -183 191 -191T120 -200Q67 -200 36 -185T-11 -148T-32 -103T-37 -64Q-37 -13 -12 39T56 136Q81 162 98 187T122 240L128 264H260ZM233 500Q269 500 289 475T310 414Q310 397 303 380T284 348T256 325T220 316Q181 316 160 340T138 400Q138 422 146 440T167 472T197 493T233 500Z"  />
<glyph unicode="&#xC0;" horiz-adv-x="454" d="M316 840L383 710H284L173 840H316ZM150 136L101 0H-42L228 674H402V0H259L264 136H150ZM269 243L275 381Q276 395 277 415T279 458T282 504T284 546H282Q276 527 270 504T256 458T243 415T232 382L184 243H269Z"  />
<glyph unicode="&#xC1;" horiz-adv-x="454" d="M522 840L361 710H257L374 840H522ZM150 136L101 0H-42L228 674H402V0H259L264 136H150ZM269 243L275 381Q276 395 277 415T279 458T282 504T284 546H282Q276 527 270 504T256 458T243 415T232 382L184 243H269Z"  />
<glyph unicode="&#xC2;" horiz-adv-x="454" d="M394 840L462 710H360L337 765H335L290 710H181L300 840H394ZM150 136L101 0H-42L228 674H402V0H259L264 136H150ZM269 243L275 381Q276 395 277 415T279 458T282 504T284 546H282Q276 527 270 504T256 458T243 415T232 382L184 243H269Z"  />
<glyph unicode="&#xC3;" horiz-adv-x="454" d="M180 711Q191 776 217 802T275 828Q295 828 308 823T332 810Q342 802 350 797T367 792Q376 792 382 800T396 833H468Q457 768 431 742T370 715Q350 715 336 720T312 731Q301 739 294 743T277 747Q269 747 262 739T253 711H180ZM150 136L101 0H-42L228 674H402V0H259L264 136H150ZM269 243L275 381Q276 395 277 415T279 458T282 504T284 546H282Q276 527 270 504T256 458T243 415T232 382L184 243H269Z"  />
<glyph unicode="&#xC4;" horiz-adv-x="454" d="M235 710Q209 710 189 730T169 780Q169 810 189 830T235 851Q261 851 281 831T301 780Q301 751 281 731T235 710ZM421 710Q395 710 375 730T355 780Q355 810 375 830T421 851Q447 851 467 831T487 780Q487 751 467 731T421 710ZM150 136L101 0H-42L228 674H402V0H259L264 136H150ZM269 243L275 381Q276 395 277 415T279 458T282 504T284 546H282Q276 527 270 504T256 458T243 415T232 382L184 243H269Z"  />
<glyph unicode="&#xC5;" horiz-adv-x="454" d="M323 865Q380 865 406 840T431 782Q431 766 425 751T405 723T371 704T323 696Q266 696 240 722T214 778Q214 794 221 809T241 837T275 857T323 865ZM322 823Q302 823 294 808T286 779Q287 765 294 752T322 739Q343 739 351 751T359 781Q359 795 351 809T322 823ZM150 136L101 0H-42L228 674H402V0H259L264 136H150ZM269 243L275 381Q276 395 277 415T279 458T282 504T284 546H282Q276 527 270 504T256 458T243 415T232 382L184 243H269Z"  />
<glyph unicode="&#xC6;" horiz-adv-x="577" d="M-67 0L250 674H623L602 544H448L429 397H578L559 273H417L399 131H566L545 0H246L267 166H147L78 0H-67ZM275 282L298 437Q302 465 306 498T315 567H312Q303 544 294 520T275 474T258 432T245 401L196 282H275Z"  />
<glyph unicode="&#xC7;" horiz-adv-x="396" d="M338 7Q326 3 309 0T267 -4L241 -41Q267 -46 281 -64T295 -106Q295 -135 283 -154T252 -184T213 -200T174 -205Q154 -205 138 -200T109 -187L130 -128Q142 -135 155 -138T181 -141Q192 -141 204 -135T217 -113Q217 -102 203 -93T154 -80L203 -4Q148 3 116 30T66 93T44 163T39 222Q39 355 76 446T168 594Q213 639 267 659T377 680Q403 680 427 675T458 665L417 536Q407 541 394 543T357 546Q335 546 310 532T266 492Q237 453 217 393T197 253Q197 196 215 162T278 127Q295 127 314 129T346 137L338 7Z"  />
<glyph unicode="&#xC8;" horiz-adv-x="405" d="M293 840L360 710H261L150 840H293ZM360 288H219L187 131H349L323 0H15L144 674H441L415 544H269L241 412H384L360 288Z"  />
<glyph unicode="&#xC9;" horiz-adv-x="405" d="M498 840L337 710H233L350 840H498ZM360 288H219L187 131H349L323 0H15L144 674H441L415 544H269L241 412H384L360 288Z"  />
<glyph unicode="&#xCA;" horiz-adv-x="405" d="M377 840L445 710H343L320 765H318L273 710H164L283 840H377ZM360 288H219L187 131H349L323 0H15L144 674H441L415 544H269L241 412H384L360 288Z"  />
<glyph unicode="&#xCB;" horiz-adv-x="405" d="M360 288H219L187 131H349L323 0H15L144 674H441L415 544H269L241 412H384L360 288ZM215 710Q189 710 169 730T149 780Q149 810 169 830T215 851Q241 851 261 831T281 780Q281 751 261 731T215 710ZM401 710Q375 710 355 730T335 780Q335 810 355 830T401 851Q427 851 447 831T467 780Q467 751 447 731T401 710Z"  />
<glyph unicode="&#xCC;" horiz-adv-x="267" d="M214 840L281 710H182L71 840H214ZM292 674L163 0H15L144 674H292Z"  />
<glyph unicode="&#xCD;" horiz-adv-x="267" d="M429 840L268 710H164L281 840H429ZM292 674L163 0H15L144 674H292Z"  />
<glyph unicode="&#xCE;" horiz-adv-x="267" d="M296 840L364 710H262L239 765H237L192 710H83L202 840H296ZM292 674L163 0H15L144 674H292Z"  />
<glyph unicode="&#xCF;" horiz-adv-x="267" d="M292 674L163 0H15L144 674H292ZM130 710Q104 710 84 730T64 780Q64 810 84 830T130 851Q156 851 176 831T196 780Q196 751 176 731T130 710ZM316 710Q290 710 270 730T250 780Q250 810 270 830T316 851Q342 851 362 831T382 780Q382 751 362 731T316 710Z"  />
<glyph unicode="&#xD0;" horiz-adv-x="500" d="M34 400H91L141 664Q165 669 200 673T281 677Q344 677 389 658T459 604Q487 566 497 521T507 419Q507 348 493 291T458 188T410 111T358 59Q317 26 269 12T147 -3Q100 -3 71 1T17 11L71 294H14L34 400ZM277 294H213L180 127Q193 122 211 122Q239 122 269 148T316 220Q334 269 345 324T356 433Q356 453 354 475T344 516T323 547T289 559Q281 559 275 558T265 554L234 400H297L277 294Z"  />
<glyph unicode="&#xD1;" horiz-adv-x="525" d="M224 721Q235 786 261 812T319 838Q339 838 352 833T376 820Q386 812 394 807T411 802Q420 802 426 810T440 843H512Q501 778 475 752T414 725Q394 725 380 730T356 741Q345 749 338 753T321 757Q313 757 306 749T297 721H224ZM15 0L144 674H278L322 448Q336 374 344 323T356 232H358Q361 260 365 297T374 378T387 469T403 565L424 674H550L421 0H296L249 208Q240 247 235 276T225 330T219 381T214 438H212Q206 387 194 302T163 116L141 0H15Z"  />
<glyph unicode="&#xD2;" horiz-adv-x="498" d="M328 840L395 710H296L185 840H328ZM330 682Q388 682 422 660T475 605T499 535T505 469Q505 413 497 355T471 242T429 140T369 59Q336 26 297 9T210 -8Q152 -8 117 16T64 76T39 149T33 215Q33 268 41 324T67 434T111 535T173 617Q204 647 242 664T330 682ZM311 553Q292 553 274 535Q253 514 236 472T208 382T191 283T185 196Q185 185 186 172T193 148T207 129T232 121Q249 121 265 137Q288 160 304 207T332 307T348 409T353 485Q353 495 352 506T346 528T333 546T311 553Z"  />
<glyph unicode="&#xD3;" horiz-adv-x="498" d="M535 840L374 710H270L387 840H535ZM330 682Q388 682 422 660T475 605T499 535T505 469Q505 413 497 355T471 242T429 140T369 59Q336 26 297 9T210 -8Q152 -8 117 16T64 76T39 149T33 215Q33 268 41 324T67 434T111 535T173 617Q204 647 242 664T330 682ZM311 553Q292 553 274 535Q253 514 236 472T208 382T191 283T185 196Q185 185 186 172T193 148T207 129T232 121Q249 121 265 137Q288 160 304 207T332 307T348 409T353 485Q353 495 352 506T346 528T333 546T311 553Z"  />
<glyph unicode="&#xD4;" horiz-adv-x="498" d="M411 840L479 710H377L354 765H352L307 710H198L317 840H411ZM330 682Q388 682 422 660T475 605T499 535T505 469Q505 413 497 355T471 242T429 140T369 59Q336 26 297 9T210 -8Q152 -8 117 16T64 76T39 149T33 215Q33 268 41 324T67 434T111 535T173 617Q204 647 242 664T330 682ZM311 553Q292 553 274 535Q253 514 236 472T208 382T191 283T185 196Q185 185 186 172T193 148T207 129T232 121Q249 121 265 137Q288 160 304 207T332 307T348 409T353 485Q353 495 352 506T346 528T333 546T311 553Z"  />
<glyph unicode="&#xD5;" horiz-adv-x="498" d="M197 721Q208 786 234 812T292 838Q312 838 325 833T349 820Q359 812 367 807T384 802Q393 802 399 810T413 843H485Q474 778 448 752T387 725Q367 725 353 730T329 741Q318 749 311 753T294 757Q286 757 279 749T270 721H197ZM330 682Q388 682 422 660T475 605T499 535T505 469Q505 413 497 355T471 242T429 140T369 59Q336 26 297 9T210 -8Q152 -8 117 16T64 76T39 149T33 215Q33 268 41 324T67 434T111 535T173 617Q204 647 242 664T330 682ZM311 553Q292 553 274 535Q253 514 236 472T208 382T191 283T185 196Q185 185 186 172T193 148T207 129T232 121Q249 121 265 137Q288 160 304 207T332 307T348 409T353 485Q353 495 352 506T346 528T333 546T311 553Z"  />
<glyph unicode="&#xD6;" horiz-adv-x="498" d="M253 710Q227 710 207 730T187 780Q187 810 207 830T253 851Q279 851 299 831T319 780Q319 751 299 731T253 710ZM439 710Q413 710 393 730T373 780Q373 810 393 830T439 851Q465 851 485 831T505 780Q505 751 485 731T439 710ZM330 682Q388 682 422 660T475 605T499 535T505 469Q505 413 497 355T471 242T429 140T369 59Q336 26 297 9T210 -8Q152 -8 117 16T64 76T39 149T33 215Q33 268 41 324T67 434T111 535T173 617Q204 647 242 664T330 682ZM311 553Q292 553 274 535Q253 514 236 472T208 382T191 283T185 196Q185 185 186 172T193 148T207 129T232 121Q249 121 265 137Q288 160 304 207T332 307T348 409T353 485Q353 495 352 506T346 528T333 546T311 553Z"  />
<glyph unicode="&#xD7;" horiz-adv-x="596" d="M110 526L306 329L493 526L560 458L368 262L560 70L493 0L302 193L114 0L51 70L239 261L46 458L110 526Z"  />
<glyph unicode="&#xD8;" horiz-adv-x="482" d="M5 -19L62 76Q45 98 35 135T25 223Q25 283 35 340T63 449T106 543T164 616Q196 648 234 665T319 682Q354 682 377 675T417 656L458 731L522 702L466 604Q480 584 488 551T497 479Q499 342 464 236T368 66Q335 30 294 11T205 -8Q175 -8 151 -1T109 21L62 -57L5 -19ZM337 535Q334 544 324 551T298 558Q280 558 264 544T233 507T208 455T188 395Q178 359 173 321T164 236H172L337 535ZM183 140Q188 128 199 122T228 116Q245 116 260 129T288 166T312 218T332 281Q341 316 346 351T356 435H349L183 140Z"  />
<glyph unicode="&#xD9;" horiz-adv-x="504" d="M343 840L410 710H311L200 840H343ZM284 674L201 242Q192 197 192 170Q192 123 232 123Q243 123 253 127T272 144T289 179T304 237L388 674H536L457 259Q445 198 427 149T380 65T311 11T216 -8Q170 -8 138 3T86 37T56 89T46 158Q46 181 49 209T59 270L136 674H284Z"  />
<glyph unicode="&#xDA;" horiz-adv-x="504" d="M547 840L386 710H282L399 840H547ZM284 674L201 242Q192 197 192 170Q192 123 232 123Q243 123 253 127T272 144T289 179T304 237L388 674H536L457 259Q445 198 427 149T380 65T311 11T216 -8Q170 -8 138 3T86 37T56 89T46 158Q46 181 49 209T59 270L136 674H284Z"  />
<glyph unicode="&#xDB;" horiz-adv-x="504" d="M419 840L487 710H385L362 765H360L315 710H206L325 840H419ZM284 674L201 242Q192 197 192 170Q192 123 232 123Q243 123 253 127T272 144T289 179T304 237L388 674H536L457 259Q445 198 427 149T380 65T311 11T216 -8Q170 -8 138 3T86 37T56 89T46 158Q46 181 49 209T59 270L136 674H284Z"  />
<glyph unicode="&#xDC;" horiz-adv-x="504" d="M264 710Q238 710 218 730T198 780Q198 810 218 830T264 851Q290 851 310 831T330 780Q330 751 310 731T264 710ZM450 710Q424 710 404 730T384 780Q384 810 404 830T450 851Q476 851 496 831T516 780Q516 751 496 731T450 710ZM284 674L201 242Q192 197 192 170Q192 123 232 123Q243 123 253 127T272 144T289 179T304 237L388 674H536L457 259Q445 198 427 149T380 65T311 11T216 -8Q170 -8 138 3T86 37T56 89T46 158Q46 181 49 209T59 270L136 674H284Z"  />
<glyph unicode="&#xDD;" horiz-adv-x="390" d="M490 840L329 710H225L342 840H490ZM74 0L121 246L58 674H216L223 529Q226 468 226 432T224 376H226Q237 408 248 443T277 518L343 674H496L267 244L222 0H74Z"  />
<glyph unicode="&#xDE;" horiz-adv-x="475" d="M144 674H288L267 567Q276 568 284 568T301 568Q332 568 368 558T434 518Q461 491 470 460T479 402Q479 335 457 284T398 199T314 147T217 129H184L159 0H15L144 674ZM207 248H228Q255 248 275 260T308 292T327 335T333 380Q333 410 319 429T272 449Q255 449 245 446L207 248Z"  />
<glyph unicode="&#xDF;" horiz-adv-x="503" d="M-3 0L76 415Q89 482 108 534T159 624T234 680T340 700Q391 700 424 685T476 647T502 598T510 550Q510 508 497 484T471 449Q442 432 429 413T415 375Q415 360 418 347T438 307Q456 277 465 245T474 183Q474 132 458 96T415 37T351 3T275 -8Q247 -8 225 -5T188 4L217 111Q235 103 247 102T268 100Q291 100 309 114T327 159Q327 176 324 189T307 228Q295 249 288 264T276 292T270 317T268 344Q268 368 276 388T296 425T323 454T351 474Q359 485 364 499T370 540Q370 546 368 554T361 569T348 582T326 587Q291 587 267 551T231 452L145 0H-3Z"  />
<glyph unicode="&#xE0;" horiz-adv-x="446" d="M315 692L353 550H258L186 692H315ZM253 0L256 78H252Q226 34 192 13T128 -8Q99 -8 78 3T42 35T22 83T15 143Q15 199 29 261T78 377T168 465T307 500Q349 500 388 494T453 478L399 207Q395 187 392 160T385 104T381 48T379 0H253ZM291 389Q276 392 267 392Q240 392 220 367T187 306T166 235T159 177Q159 151 164 132T193 113Q213 113 230 142T261 237L291 389Z"  />
<glyph unicode="&#xE1;" horiz-adv-x="446" d="M465 692L339 550H238L330 692H465ZM253 0L256 78H252Q226 34 192 13T128 -8Q99 -8 78 3T42 35T22 83T15 143Q15 199 29 261T78 377T168 465T307 500Q349 500 388 494T453 478L399 207Q395 187 392 160T385 104T381 48T379 0H253ZM291 389Q276 392 267 392Q240 392 220 367T187 306T166 235T159 177Q159 151 164 132T193 113Q213 113 230 142T261 237L291 389Z"  />
<glyph unicode="&#xE2;" horiz-adv-x="446" d="M375 692L436 550H343L321 615H319L272 550H173L284 692H375ZM253 0L256 78H252Q226 34 192 13T128 -8Q99 -8 78 3T42 35T22 83T15 143Q15 199 29 261T78 377T168 465T307 500Q349 500 388 494T453 478L399 207Q395 187 392 160T385 104T381 48T379 0H253ZM291 389Q276 392 267 392Q240 392 220 367T187 306T166 235T159 177Q159 151 164 132T193 113Q213 113 230 142T261 237L291 389Z"  />
<glyph unicode="&#xE3;" horiz-adv-x="446" d="M168 562Q171 586 177 608T194 647T220 674T256 684Q276 684 288 679T311 666Q320 659 327 653T340 647Q346 647 351 654T363 688H429Q420 625 398 597T342 569Q327 569 314 573T292 584Q279 595 272 600T258 605Q243 605 237 562H168ZM253 0L256 78H252Q226 34 192 13T128 -8Q99 -8 78 3T42 35T22 83T15 143Q15 199 29 261T78 377T168 465T307 500Q349 500 388 494T453 478L399 207Q395 187 392 160T385 104T381 48T379 0H253ZM291 389Q276 392 267 392Q240 392 220 367T187 306T166 235T159 177Q159 151 164 132T193 113Q213 113 230 142T261 237L291 389Z"  />
<glyph unicode="&#xE4;" horiz-adv-x="446" d="M209 550Q180 550 161 570T141 624Q141 656 161 676T209 697Q238 697 257 677T277 624Q277 591 258 571T209 550ZM389 550Q360 550 341 570T321 624Q321 656 341 676T389 697Q418 697 437 677T457 624Q457 591 438 571T389 550ZM253 0L256 78H252Q226 34 192 13T128 -8Q99 -8 78 3T42 35T22 83T15 143Q15 199 29 261T78 377T168 465T307 500Q349 500 388 494T453 478L399 207Q395 187 392 160T385 104T381 48T379 0H253ZM291 389Q276 392 267 392Q240 392 220 367T187 306T166 235T159 177Q159 151 164 132T193 113Q213 113 230 142T261 237L291 389Z"  />
<glyph unicode="&#xE5;" horiz-adv-x="446" d="M301 727Q352 727 377 701T403 635Q403 596 376 569T301 541Q250 541 224 567T197 631Q197 671 223 699T301 727ZM299 680Q288 680 281 675T269 663T262 648T260 632Q260 627 261 620T267 605T279 593T299 588Q311 588 319 592T331 604T338 619T340 634Q340 641 339 649T333 664T320 675T299 680ZM253 0L256 78H252Q226 34 192 13T128 -8Q99 -8 78 3T42 35T22 83T15 143Q15 199 29 261T78 377T168 465T307 500Q349 500 388 494T453 478L399 207Q395 187 392 160T385 104T381 48T379 0H253ZM291 389Q276 392 267 392Q240 392 220 367T187 306T166 235T159 177Q159 151 164 132T193 113Q213 113 230 142T261 237L291 389Z"  />
<glyph unicode="&#xE6;" horiz-adv-x="612" d="M563 18Q532 4 490 -2T411 -8Q367 -8 329 11T273 69H270Q220 -8 122 -8Q92 -8 69 2T31 31T7 72T-2 122Q-2 174 20 211T78 271T158 305T245 312L248 332Q252 356 235 374T186 392Q160 392 131 383T79 360L59 461Q97 482 138 491T205 500Q258 500 290 481T340 427H343Q368 461 404 480T486 500Q517 500 542 490T584 461T610 419T619 366Q619 280 554 236T372 200Q370 187 369 170T374 141Q384 122 407 114T455 105Q484 105 508 111T557 127L563 18ZM230 217Q213 219 195 216T163 205T139 181T129 144Q129 128 138 116T162 103Q184 103 198 118T218 161L230 217ZM488 347Q488 362 480 374T455 386Q442 386 430 378T409 358T394 329T385 297Q430 293 459 305T488 347Z"  />
<glyph unicode="&#xE7;" horiz-adv-x="320" d="M272 7Q264 4 248 1T209 -4L183 -41Q210 -47 223 -67T237 -105Q237 -134 225 -153T194 -183T155 -200T116 -205Q95 -205 76 -200T49 -188L72 -131Q98 -144 123 -144Q134 -144 146 -138T158 -115Q158 -100 145 -90T96 -77L146 -2Q113 4 89 21T50 61T27 113T19 171Q19 242 40 302T98 405T184 473T291 498Q317 498 333 496T359 489L323 368Q302 374 287 374Q264 374 243 360T204 322T177 265T167 193Q167 156 182 135T224 114Q243 114 258 118T285 124L272 7Z"  />
<glyph unicode="&#xE8;" horiz-adv-x="404" d="M294 692L332 550H237L165 692H294ZM352 20Q317 6 282 0T199 -6Q151 -6 117 8T61 47T29 107T19 183Q19 238 34 294T80 396T156 471T264 500Q301 500 327 488T371 455T398 409T407 356Q407 303 388 267T336 208T257 178T160 171Q160 160 163 151T175 132Q184 123 200 116T240 108Q272 108 296 114T345 132L352 20ZM278 341Q278 382 246 382Q219 382 199 352T173 280Q219 277 248 294T278 341Z"  />
<glyph unicode="&#xE9;" horiz-adv-x="404" d="M449 692L323 550H222L314 692H449ZM352 20Q317 6 282 0T199 -6Q151 -6 117 8T61 47T29 107T19 183Q19 238 34 294T80 396T156 471T264 500Q301 500 327 488T371 455T398 409T407 356Q407 303 388 267T336 208T257 178T160 171Q160 160 163 151T175 132Q184 123 200 116T240 108Q272 108 296 114T345 132L352 20ZM278 341Q278 382 246 382Q219 382 199 352T173 280Q219 277 248 294T278 341Z"  />
<glyph unicode="&#xEA;" horiz-adv-x="404" d="M348 692L409 550H316L294 615H292L245 550H146L257 692H348ZM352 20Q317 6 282 0T199 -6Q151 -6 117 8T61 47T29 107T19 183Q19 238 34 294T80 396T156 471T264 500Q301 500 327 488T371 455T398 409T407 356Q407 303 388 267T336 208T257 178T160 171Q160 160 163 151T175 132Q184 123 200 116T240 108Q272 108 296 114T345 132L352 20ZM278 341Q278 382 246 382Q219 382 199 352T173 280Q219 277 248 294T278 341Z"  />
<glyph unicode="&#xEB;" horiz-adv-x="404" d="M352 20Q317 6 282 0T199 -6Q151 -6 117 8T61 47T29 107T19 183Q19 238 34 294T80 396T156 471T264 500Q301 500 327 488T371 455T398 409T407 356Q407 303 388 267T336 208T257 178T160 171Q160 160 163 151T175 132Q184 123 200 116T240 108Q272 108 296 114T345 132L352 20ZM278 341Q278 382 246 382Q219 382 199 352T173 280Q219 277 248 294T278 341ZM208 550Q179 550 160 570T140 624Q140 656 160 676T208 697Q237 697 256 677T276 624Q276 591 257 571T208 550ZM388 550Q359 550 340 570T320 624Q320 656 340 676T388 697Q417 697 436 677T456 624Q456 591 437 571T388 550Z"  />
<glyph unicode="&#xEC;" horiz-adv-x="234" d="M188 692L226 550H131L59 692H188ZM-3 0L91 492H239L145 0H-3Z"  />
<glyph unicode="&#xED;" horiz-adv-x="234" d="M349 692L223 550H122L214 692H349ZM-3 0L91 492H239L145 0H-3Z"  />
<glyph unicode="&#xEE;" horiz-adv-x="234" d="M249 692L310 550H217L195 615H193L146 550H47L158 692H249ZM-3 0L91 492H239L145 0H-3Z"  />
<glyph unicode="&#xEF;" horiz-adv-x="234" d="M-3 0L91 492H239L145 0H-3ZM103 550Q74 550 55 570T35 624Q35 656 55 676T103 697Q132 697 151 677T171 624Q171 591 152 571T103 550ZM283 550Q254 550 235 570T215 624Q215 656 235 676T283 697Q312 697 331 677T351 624Q351 591 332 571T283 550Z"  />
<glyph unicode="&#xF0;" horiz-adv-x="439" d="M193 101Q223 101 240 140T270 246Q277 282 280 303T284 348Q284 359 278 371T251 384Q231 384 215 362T187 306T170 231T164 153Q164 124 172 113T193 101ZM118 547L223 596Q214 606 199 619T168 646L254 715Q280 702 302 684T339 647L422 690L446 637L370 601Q397 563 412 505T428 377Q428 290 410 219T360 98T285 20T192 -8Q135 -8 101 10T49 57T25 118T19 180Q19 229 31 278T68 370T131 442T220 481Q236 484 250 484T280 477L279 484Q277 499 271 517T256 549L144 495L118 547Z"  />
<glyph unicode="&#xF1;" horiz-adv-x="464" d="M167 562Q170 586 176 608T193 647T219 674T255 684Q275 684 287 679T310 666Q319 659 326 653T339 647Q345 647 350 654T362 688H428Q419 625 397 597T341 569Q326 569 313 573T291 584Q278 595 271 600T257 605Q242 605 236 562H167ZM-3 0L61 335Q69 374 75 414T87 492H213L209 434H211Q235 464 269 482T344 500Q372 500 391 491T422 467T439 432T444 388Q444 366 441 342T432 289L377 0H229L286 300Q288 311 289 322T291 345Q291 360 285 370T266 380Q258 380 248 374T228 352T209 313T193 254L145 0H-3Z"  />
<glyph unicode="&#xF2;" horiz-adv-x="438" d="M293 692L331 550H236L164 692H293ZM269 500Q320 500 350 482T396 437T418 379T423 322Q423 259 407 200T359 95T284 20T183 -8Q131 -8 99 9T49 53T25 108T19 163Q19 230 37 291T88 399T167 472T269 500ZM245 389Q229 389 214 366T188 309T171 237T164 168Q164 158 164 147T168 126T179 110T198 103Q216 103 230 127T255 188T272 266T278 342Q278 361 271 375T245 389Z"  />
<glyph unicode="&#xF3;" horiz-adv-x="438" d="M436 692L310 550H209L301 692H436ZM269 500Q320 500 350 482T396 437T418 379T423 322Q423 259 407 200T359 95T284 20T183 -8Q131 -8 99 9T49 53T25 108T19 163Q19 230 37 291T88 399T167 472T269 500ZM245 389Q229 389 214 366T188 309T171 237T164 168Q164 158 164 147T168 126T179 110T198 103Q216 103 230 127T255 188T272 266T278 342Q278 361 271 375T245 389Z"  />
<glyph unicode="&#xF4;" horiz-adv-x="438" d="M351 692L412 550H319L297 615H295L248 550H149L260 692H351ZM269 500Q320 500 350 482T396 437T418 379T423 322Q423 259 407 200T359 95T284 20T183 -8Q131 -8 99 9T49 53T25 108T19 163Q19 230 37 291T88 399T167 472T269 500ZM245 389Q229 389 214 366T188 309T171 237T164 168Q164 158 164 147T168 126T179 110T198 103Q216 103 230 127T255 188T272 266T278 342Q278 361 271 375T245 389Z"  />
<glyph unicode="&#xF5;" horiz-adv-x="438" d="M154 562Q157 586 163 608T180 647T206 674T242 684Q262 684 274 679T297 666Q306 659 313 653T326 647Q332 647 337 654T349 688H415Q406 625 384 597T328 569Q313 569 300 573T278 584Q265 595 258 600T244 605Q229 605 223 562H154ZM269 500Q320 500 350 482T396 437T418 379T423 322Q423 259 407 200T359 95T284 20T183 -8Q131 -8 99 9T49 53T25 108T19 163Q19 230 37 291T88 399T167 472T269 500ZM245 389Q229 389 214 366T188 309T171 237T164 168Q164 158 164 147T168 126T179 110T198 103Q216 103 230 127T255 188T272 266T278 342Q278 361 271 375T245 389Z"  />
<glyph unicode="&#xF6;" horiz-adv-x="438" d="M205 550Q176 550 157 570T137 624Q137 656 157 676T205 697Q234 697 253 677T273 624Q273 591 254 571T205 550ZM385 550Q356 550 337 570T317 624Q317 656 337 676T385 697Q414 697 433 677T453 624Q453 591 434 571T385 550ZM269 500Q320 500 350 482T396 437T418 379T423 322Q423 259 407 200T359 95T284 20T183 -8Q131 -8 99 9T49 53T25 108T19 163Q19 230 37 291T88 399T167 472T269 500ZM245 389Q229 389 214 366T188 309T171 237T164 168Q164 158 164 147T168 126T179 110T198 103Q216 103 230 127T255 188T272 266T278 342Q278 361 271 375T245 389Z"  />
<glyph unicode="&#xF7;" horiz-adv-x="596" d="M303 369Q274 369 257 388T239 436Q239 465 257 484T304 504Q333 504 350 485T368 436Q368 408 352 389T303 369ZM45 220V314H561V220H45ZM303 30Q274 30 257 49T239 97Q239 126 257 145T304 165Q333 165 350 146T368 97Q368 69 352 50T303 30Z"  />
<glyph unicode="&#xF8;" horiz-adv-x="438" d="M-6 -5L46 65Q33 87 26 107T19 168Q19 234 37 294T87 400T164 473T263 500Q319 500 356 475L405 537L453 503L398 431Q416 395 419 370T422 322Q422 251 404 191T353 86T278 17T187 -8Q149 -8 127 -2T86 19L36 -45L-6 -5ZM276 368Q270 394 244 394Q228 394 215 380T193 343T177 295T167 247L161 196L165 193L276 368ZM170 125Q171 111 179 105T200 98Q213 98 224 109T246 138T263 181T273 231L279 282H274L170 125Z"  />
<glyph unicode="&#xF9;" horiz-adv-x="459" d="M307 692L345 550H250L178 692H307ZM462 492L398 157Q390 118 384 78T372 0H246L249 61L247 63Q220 26 188 9T120 -8Q69 -8 46 25T23 111Q23 136 26 163T36 223L87 492H235L184 225Q179 201 177 182T174 145Q174 111 200 111Q218 111 235 134T261 206L314 492H462Z"  />
<glyph unicode="&#xFA;" horiz-adv-x="459" d="M452 692L326 550H225L317 692H452ZM462 492L398 157Q390 118 384 78T372 0H246L249 61L247 63Q220 26 188 9T120 -8Q69 -8 46 25T23 111Q23 136 26 163T36 223L87 492H235L184 225Q179 201 177 182T174 145Q174 111 200 111Q218 111 235 134T261 206L314 492H462Z"  />
<glyph unicode="&#xFB;" horiz-adv-x="459" d="M362 692L423 550H330L308 615H306L259 550H160L271 692H362ZM462 492L398 157Q390 118 384 78T372 0H246L249 61L247 63Q220 26 188 9T120 -8Q69 -8 46 25T23 111Q23 136 26 163T36 223L87 492H235L184 225Q179 201 177 182T174 145Q174 111 200 111Q218 111 235 134T261 206L314 492H462Z"  />
<glyph unicode="&#xFC;" horiz-adv-x="459" d="M201 550Q172 550 153 570T133 624Q133 656 153 676T201 697Q230 697 249 677T269 624Q269 591 250 571T201 550ZM381 550Q352 550 333 570T313 624Q313 656 333 676T381 697Q410 697 429 677T449 624Q449 591 430 571T381 550ZM462 492L398 157Q390 118 384 78T372 0H246L249 61L247 63Q220 26 188 9T120 -8Q69 -8 46 25T23 111Q23 136 26 163T36 223L87 492H235L184 225Q179 201 177 182T174 145Q174 111 200 111Q218 111 235 134T261 206L314 492H462Z"  />
<glyph unicode="&#xFD;" horiz-adv-x="399" d="M432 692L306 550H205L297 692H432ZM200 492L198 272Q198 237 198 209T197 158H199Q206 187 213 214T233 284L296 492H444L285 110Q248 24 206 -44T120 -155Q98 -176 74 -192T32 -216L-27 -96Q-10 -87 5 -78T35 -58Q56 -42 72 -26T97 8Q99 12 100 16T100 27L45 492H200Z"  />
<glyph unicode="&#xFE;" horiz-adv-x="456" d="M129 692H275L224 435H226Q246 463 274 481T333 500Q362 500 382 488T416 455T435 406T440 344Q438 263 418 198T365 87T292 17T209 -8Q192 -8 175 -7T144 -1H141L106 -192H-40L129 692ZM160 103Q165 98 173 97T192 95Q215 95 233 118T263 175T282 246T289 314Q289 326 289 337T285 356T276 370T257 375Q241 375 221 351T190 265L160 103Z"  />
<glyph unicode="&#xFF;" horiz-adv-x="399" d="M175 550Q146 550 127 570T107 624Q107 656 127 676T175 697Q204 697 223 677T243 624Q243 591 224 571T175 550ZM355 550Q326 550 307 570T287 624Q287 656 307 676T355 697Q384 697 403 677T423 624Q423 591 404 571T355 550ZM200 492L198 272Q198 237 198 209T197 158H199Q206 187 213 214T233 284L296 492H444L285 110Q248 24 206 -44T120 -155Q98 -176 74 -192T32 -216L-27 -96Q-10 -87 5 -78T35 -58Q56 -42 72 -26T97 8Q99 12 100 16T100 27L45 492H200Z"  />
<glyph unicode="&#x152;" horiz-adv-x="657" d="M580 0H315Q306 0 293 -2T271 -5Q264 -6 253 -7T229 -8Q162 -8 123 17T64 78T39 154T33 224Q33 301 52 382T110 530T207 639T342 682Q360 682 370 682T390 679Q400 677 411 676T432 674H693L672 544H518L495 412H636L617 288H470L442 131H601L580 0ZM371 545Q366 548 357 550T331 553Q302 553 276 524T230 450T199 347T187 234Q187 212 190 192T201 156T222 131T255 121Q269 121 276 123T292 127L371 545Z"  />
<glyph unicode="&#x153;" horiz-adv-x="655" d="M599 17Q572 3 534 -2T464 -8Q416 -8 377 8T315 67H313Q289 28 252 10T175 -8Q134 -8 105 7T57 46T28 103T19 170Q19 247 38 308T91 412T166 477T253 500Q348 500 377 425H379Q391 442 407 456T442 479T480 494T519 500Q551 500 576 488T619 457T646 412T656 360Q656 308 637 271T585 211T507 178T409 171Q408 143 424 127Q437 115 455 110T493 105Q522 106 546 113T594 129L599 17ZM198 103Q218 103 233 126T257 185T272 261T277 336Q277 343 276 352T272 370T263 384T244 390Q227 390 212 370T186 317T169 245T163 167Q163 143 170 123T198 103ZM526 339Q526 360 519 372T489 384Q464 384 446 353T422 280Q443 278 461 281T494 293T517 312T526 339Z"  />
<glyph unicode="&#x160;" horiz-adv-x="388" d="M228 710L161 840H263L286 785H288L332 840H442L323 710H228ZM33 147Q50 137 75 131T127 124Q162 122 187 139T213 192Q213 223 196 243T147 294Q68 369 68 456Q68 506 85 547T132 618T206 664T301 680Q344 680 369 674T407 659L368 532Q353 540 336 545T296 550Q261 550 238 531T215 476Q215 467 217 458T225 438T245 414T280 381Q325 343 343 301T361 221Q361 166 343 124T294 53T221 9T131 -6Q74 -6 42 2T-3 18L33 147Z"  />
<glyph unicode="&#x161;" horiz-adv-x="332" d="M186 550L125 692H218L240 627H242L289 692H388L277 550H186ZM22 121Q38 113 57 107T102 102Q125 103 137 115T149 145Q149 161 140 174T102 209Q67 236 54 267T41 329Q41 364 54 395T93 449T154 486T235 500Q270 500 295 495T334 481L304 375Q293 381 277 385T245 390Q219 390 203 379T186 345Q186 331 194 320T220 296Q243 279 257 262T280 227T292 195T295 167Q295 85 241 40T95 -6Q59 -6 31 1T-12 18L22 121Z"  />
<glyph unicode="&#x178;" horiz-adv-x="390" d="M197 710Q171 710 151 730T131 780Q131 810 151 830T197 851Q223 851 243 831T263 780Q263 751 243 731T197 710ZM383 710Q357 710 337 730T317 780Q317 810 337 830T383 851Q409 851 429 831T449 780Q449 751 429 731T383 710ZM74 0L121 246L58 674H216L223 529Q226 468 226 432T224 376H226Q237 408 248 443T277 518L343 674H496L267 244L222 0H74Z"  />
<glyph unicode="&#x17D;" horiz-adv-x="383" d="M231 710L164 840H266L289 785H291L335 840H445L326 710H231ZM-20 95L260 540V542H86L113 674H449L426 551L161 134V132H345L319 0H-37L-20 95Z"  />
<glyph unicode="&#x17E;" horiz-adv-x="330" d="M185 550L124 692H217L239 627H241L288 692H387L276 550H185ZM-18 100L106 275Q119 293 127 305T143 326T159 345T180 369L182 371H48L72 492H357L339 383L222 220Q205 196 194 181T174 156T158 138T144 123V121H295L271 0H-34L-18 100Z"  />
<glyph unicode="&#x192;" horiz-adv-x="447" d="M105 396H167L176 444Q185 491 202 530T246 598T310 642T396 658Q415 658 429 655T455 648L424 541Q415 544 409 544T395 545Q331 545 314 443L306 396H403L381 287H287L257 116Q250 78 236 43T198 -20T138 -63T52 -80Q31 -80 16 -78T-11 -72L14 37Q25 33 33 33T50 33Q58 33 68 36T87 48T105 73T118 115L149 287H83L105 396Z"  />
<glyph unicode="&#x2C6;" horiz-adv-x="400" d="M332 692L393 550H300L278 615H276L229 550H130L241 692H332Z"  />
<glyph unicode="&#x2DC;" horiz-adv-x="400" d="M145 562Q148 586 154 608T171 647T197 674T233 684Q253 684 265 679T288 666Q297 659 304 653T317 647Q323 647 328 654T340 688H406Q397 625 375 597T319 569Q304 569 291 573T269 584Q256 595 249 600T235 605Q220 605 214 562H145Z"  />
<glyph unicode="&#x2013;" horiz-adv-x="500" d="M485 312L465 208H25L46 312H485Z"  />
<glyph unicode="&#x2014;" horiz-adv-x="1000" d="M985 312L965 208H25L46 312H985Z"  />
<glyph unicode="&#x2018;" horiz-adv-x="185" d="M33 411Q69 482 107 546T195 674L282 682Q244 611 213 548T161 421L33 411Z"  />
<glyph unicode="&#x2019;" horiz-adv-x="185" d="M277 682Q241 611 203 548T115 421L28 411Q66 482 97 545T149 672L277 682Z"  />
<glyph unicode="&#x201A;" horiz-adv-x="185" d="M-71 -105Q-33 -34 -2 29T50 156L178 166Q142 95 104 32T16 -95L-71 -105Z"  />
<glyph unicode="&#x201C;" horiz-adv-x="340" d="M28 411Q64 482 102 546T190 674L277 682Q239 611 208 548T156 421L28 411ZM193 411Q229 482 267 546T355 674L442 682Q404 611 373 548T321 421L193 411Z"  />
<glyph unicode="&#x201D;" horiz-adv-x="340" d="M272 682Q236 611 198 548T110 421L23 411Q61 482 92 546T144 674L272 682ZM437 682Q401 611 363 548T275 421L188 411Q226 482 257 546T309 674L437 682Z"  />
<glyph unicode="&#x201E;" horiz-adv-x="340" d="M-71 -105Q-33 -34 -2 29T50 156L178 166Q142 95 104 32T16 -95L-71 -105ZM94 -105Q132 -34 163 29T215 156L343 166Q307 95 269 32T181 -95L94 -105Z"  />
<glyph unicode="&#x2020;" horiz-adv-x="447" d="M365 674L323 489L457 495L435 381L304 387L226 -51H110L200 387L67 381L89 495L219 489L249 674H365Z"  />
<glyph unicode="&#x2021;" horiz-adv-x="447" d="M363 674L320 500L454 506L432 392L301 398L268 226L402 232L380 118L249 124L224 -50H112L155 124L22 118L44 232L174 226L207 398L74 392L96 506L226 500L251 674H363Z"  />
<glyph unicode="&#x2022;" horiz-adv-x="300" d="M161 147Q114 147 83 177T51 260Q51 314 82 345T162 376Q207 376 239 347T271 261Q271 207 241 177T161 147Z"  />
<glyph unicode="&#x2026;" horiz-adv-x="1000" d="M133 -8Q92 -8 71 18T50 85Q50 105 57 124T77 158T106 182T142 191Q184 191 206 166T228 99Q228 48 200 20T133 -8ZM467 -8Q426 -8 405 18T384 85Q384 105 391 124T411 158T440 182T476 191Q518 191 540 166T562 99Q562 48 534 20T467 -8ZM801 -8Q760 -8 739 18T718 85Q718 105 725 124T745 158T774 182T810 191Q852 191 874 166T896 99Q896 48 868 20T801 -8Z"  />
<glyph unicode="&#x2030;" horiz-adv-x="994" d="M552 395Q586 395 608 383T643 352T661 311T666 266Q666 206 652 156T613 70T558 15T494 -5Q440 -5 409 30T377 134Q377 182 390 229T427 313T482 372T552 395ZM547 318Q528 318 515 294T492 236T479 168T475 116Q475 72 498 72Q511 72 521 85T539 120T552 167T561 215T566 257T568 283Q568 297 564 307T547 318ZM866 395Q900 395 922 383T957 352T975 311T980 266Q980 206 966 156T927 70T872 15T808 -5Q754 -5 723 30T691 134Q691 182 704 229T741 313T796 372T866 395ZM861 318Q842 318 829 294T806 236T793 168T789 116Q789 72 812 72Q825 72 835 85T853 120T866 167T875 215T880 257T882 283Q882 297 878 307T861 318ZM217 658Q251 658 273 646T308 615T326 574T331 529Q331 469 317 419T278 333T223 278T159 258Q105 258 74 293T42 397Q42 445 55 492T92 576T147 635T217 658ZM212 581Q193 581 180 557T157 499T144 431T140 379Q140 335 163 335Q176 335 186 348T204 383T217 430T226 478T231 520T233 546Q233 560 229 570T212 581ZM72 -8L553 658H630L150 -8H72Z"  />
<glyph unicode="&#x2039;" horiz-adv-x="225" d="M113 243L193 63H91L10 252L142 441H253L113 243Z"  />
<glyph unicode="&#x203A;" horiz-adv-x="225" d="M41 441H143L224 252L92 63H-19L121 266L41 441Z"  />
<glyph unicode="&#x20AC;" horiz-adv-x="447" d="M393 12Q379 4 350 -2T291 -8Q237 -8 199 10T137 61T103 136T93 230H32L47 306H99Q101 317 103 327T107 349H55L70 425H126Q142 470 169 512T233 587T316 638T418 658Q454 658 476 652T505 642L469 523Q448 531 418 531Q390 531 367 522T326 498T296 464T275 425H414L399 349H253Q250 338 249 328T245 306H391L376 230H238Q238 210 242 190T256 154T282 129T323 119Q339 119 356 122T389 131L393 12Z"  />
<glyph unicode="&#x2122;" horiz-adv-x="590" d="M295 674V600H242V401H152V600H100V674H295ZM538 401L535 503Q535 529 535 558T535 622H531Q526 581 522 553T514 505L501 406H422L413 505Q411 527 408 559T401 622H397Q396 590 396 560T394 503L391 401H314L326 674H454L458 636Q459 625 460 616T462 597T464 573T468 540H469Q472 568 475 590T482 636L488 674H607L617 401H538Z"  />


</font>
</defs>
<text x="40" y="40" font-family="Myriad W01 Black Cnd It" font-size="30" fill="#933" >ABCDEFGHIJKLMNOPQRSTUVWXYZ abcdefghijklmnopqrstuvwxyz AÁÀÂÄÅÃÆ CÇ DÐ EÉÈÊË I Í Ì Î Ï NÑ</text>
<text x="40" y="80" font-family="Myriad W01 Black Cnd It" font-size="30" fill="#933" >OÓÒÔÖÕØŒ SŠ UÚÙÛÜ YÝŸ ZŽ Þ aáàâäåãæ cç dð eéèêë i ı í ì î ï nñ oóòôöõøœ sšß uúùûü yýÿ zž</text>
<text x="40" y="120" font-family="Myriad W01 Black Cnd It" font-size="30" fill="#933" >þ 1234567890 ½ ¼ ¾ % ‰ $¢£¥ƒ€¤ † ‡ § ¶ # ^~µ +×± &lt; = &gt; ÷¬ !¡?¿ &quot; &amp; &apos; * ° . , : ; () [ \ ] {} / |</text>
<text x="40" y="160" font-family="Myriad W01 Black Cnd It" font-size="30" fill="#933" >¦ _ ‚ „ … ‹› «» ‘ ’ “ ” • ­ - – — @ © ® ™ ªº ¹²³ ´ ` ˆ ˜ ¨ ¯ · ¸</text>
</svg>
