<?xml  version="1.0" encoding="UTF-8"?>
<!DOCTYPE svg PUBLIC "-//W3C//DTD SVG 1.0//EN" "http://www.w3.org/TR/2001/REC-SVG-20010904/DTD/svg10.dtd" >
<svg xmlns="http://www.w3.org/2000/svg" >
<metadata>
<version>1.0</version>
<id><![CDATA[Myriad W01 Black Sm Cnd]]></id>
<vendor>Monotype Imaging Inc.</vendor>
<credits>
<name>Fonts.com WebFonts</name>
<URL>http://webfonts.fonts.com</URL>
<role>Home of the Web fonts</role>
</credits>
<license>
<URL>http://webfonts.fonts.com/Legal</URL>
</license>
<copyright><![CDATA[© 1992, 1994, 1997, 2000, 2004 Adobe Systems Incorporated. All rights reserved.]]></copyright>
<trademark><![CDATA[Myriad is either a registered trademark or a trademark of Adobe Systems Incorporated in the United States and/or other countries.]]></trademark>
<licensee>
<name></name>
</licensee>
</metadata>
<defs >
<font horiz-adv-x="502" id="b350283f-a333-4871-afa5-501775f235b4">
<font-face font-family="Myriad W01 Black Sm Cnd" panose-1="2 11 9 3 3 4 3 2 2 4" ascent="901" descent="-250" units-per-em="1000" alphabetic="0">
</font-face>
<missing-glyph horiz-adv-x="186" />

<glyph unicode="&#xA;" horiz-adv-x="0" />
<glyph unicode="&#xD;" horiz-adv-x="186" />
<glyph unicode=" " horiz-adv-x="186" />
<glyph unicode="!" horiz-adv-x="274" d="M70 232L47 674H227L204 232H70ZM137 -10Q94 -10 67 18T39 89Q39 134 67 162T137 190Q180 190 207 162T234 89Q234 46 208 18T137 -10Z"  />
<glyph unicode="&quot;" horiz-adv-x="398" d="M173 684L148 404H53L28 684H173ZM371 684L346 404H251L226 684H371Z"  />
<glyph unicode="#" horiz-adv-x="534" d="M302 278L315 376H235L221 278H302ZM83 0L109 178H29V278H125L139 376H57V477H154L178 650H274L250 477H331L355 650H452L427 477H505V376H412L399 278H478V178H382L358 0H260L286 178H205L181 0H83Z"  />
<glyph unicode="$" horiz-adv-x="534" d="M208 -87V9Q161 11 120 21T52 45L81 178Q112 163 151 152T236 140Q273 140 294 152T316 188Q316 211 295 228T222 266Q183 281 153 298T101 338T68 387T56 450Q56 514 97 562T217 630V726H326V639Q371 637 404 629T462 610L432 481Q413 490 382 501T301 512Q259 512 243 499T227 467Q227 449 250 432T332 390Q418 356 452 312T487 203Q487 134 443 85T317 18V-87H208Z"  />
<glyph unicode="%" horiz-adv-x="842" d="M197 660Q241 660 273 644T326 600T357 537T367 466Q367 415 353 377T314 312T259 273T194 260Q155 260 123 275T69 317T34 380T22 457Q22 496 33 533T67 598T122 643T197 660ZM195 569Q169 569 157 540T144 460Q144 407 157 379T196 351Q244 351 244 460Q244 510 233 539T195 569ZM194 -10L559 660H646L282 -10H194ZM650 392Q694 392 726 376T778 332T809 269T819 198Q819 147 805 109T766 44T711 4T646 -9Q607 -9 575 6T521 48T486 111T474 188Q474 228 485 264T519 329T575 375T650 392ZM648 301Q621 301 609 272T597 192Q596 138 609 110T649 82Q697 82 697 191Q697 242 686 271T648 301Z"  />
<glyph unicode="&amp;" horiz-adv-x="660" d="M460 0Q452 10 444 19T427 39Q399 19 357 5T257 -10Q197 -10 154 6T82 49T40 110T26 181Q26 247 58 294T147 370V373Q124 399 111 434T97 504Q97 537 110 569T149 627T213 668T303 684Q343 684 377 673T437 640T476 589T490 522Q490 474 463 430T366 348L365 343Q388 316 412 286T454 238Q472 267 483 307T500 385H650Q639 310 612 246T541 133Q567 102 596 68T656 0H460ZM283 114Q306 114 323 120T351 136Q323 164 290 203T222 282Q207 269 197 251T187 208Q187 170 212 142T283 114ZM299 577Q276 577 264 559T251 518Q251 495 260 474T290 430Q320 453 332 473T345 517Q345 537 334 557T299 577Z"  />
<glyph unicode="&apos;" horiz-adv-x="200" d="M173 684L148 404H53L28 684H173Z"  />
<glyph unicode="(" horiz-adv-x="307" d="M275 690Q236 622 208 522T179 286Q179 153 207 53T275 -116H156Q137 -88 118 -49T82 41T56 153T46 287Q47 359 57 420T83 532T118 622T156 690H275Z"  />
<glyph unicode=")" horiz-adv-x="307" d="M32 -116Q72 -47 100 53T128 288Q128 422 100 522T32 690H151Q170 662 190 624T225 535T251 423T261 288Q260 215 250 154T225 42T190 -48T151 -116H32Z"  />
<glyph unicode="*" horiz-adv-x="447" d="M375 628L265 504V501L423 536V424L264 455L263 453L375 331L276 274L221 432L219 430L164 274L70 331L180 455L179 457L24 424V536L177 501L179 504L70 628L169 684L221 529H224L277 684L375 628Z"  />
<glyph unicode="+" horiz-adv-x="596" d="M352 532V319H556V215H352V0H244V215H40V319H244V532H352Z"  />
<glyph unicode="&#x2c;" horiz-adv-x="273" d="M-1 -120Q25 -45 44 30T75 177L246 187Q220 108 187 33T111 -110L-1 -120Z"  />
<glyph unicode="-" horiz-adv-x="305" d="M275 324V209H30V324H275Z"  />
<glyph unicode="." horiz-adv-x="273" d="M147 -10Q104 -10 77 18T49 93Q49 139 77 168T147 197Q189 197 217 169T245 93Q245 47 218 19T147 -10Z"  />
<glyph unicode="/" horiz-adv-x="312" d="M6 -40L209 684H319L116 -40H6Z"  />
<glyph unicode="0" horiz-adv-x="534" d="M269 660Q338 660 383 630T456 552T495 445T506 327Q506 250 491 188T445 82T370 14T267 -10Q200 -10 155 19T81 95T41 201T28 323Q28 389 41 449T84 557T158 632T269 660ZM269 525Q237 525 219 479T201 325Q200 217 218 171T270 124Q301 124 317 171T334 325Q334 428 318 476T269 525Z"  />
<glyph unicode="1" horiz-adv-x="534" d="M218 496H216L92 439L65 570L241 650H385V0H218V496Z"  />
<glyph unicode="2" horiz-adv-x="534" d="M35 0V108L119 189Q163 231 197 266T255 331T290 388T303 441Q303 476 281 498T211 521Q174 521 142 507T84 475L42 601Q76 625 129 642T245 660Q302 660 345 645T416 602T459 537T474 455Q474 414 461 378T427 309T379 248T324 194L269 146V144H484V0H35Z"  />
<glyph unicode="3" horiz-adv-x="534" d="M62 161Q82 150 120 138T199 126Q247 126 274 145T302 199Q302 220 293 235T267 261T229 275T186 280H133V403H181Q199 403 217 406T251 417T275 436T285 466Q285 492 264 508T202 524Q167 524 134 513T81 491L51 616Q80 633 132 646T244 660Q295 660 335 647T402 612T444 560T459 496Q459 445 431 407T348 349V347Q404 334 441 293T479 189Q479 147 461 111T408 48T325 6T215 -10Q155 -10 108 2T32 30L62 161Z"  />
<glyph unicode="4" horiz-adv-x="534" d="M286 0V146H21V259L244 650H446V276H515V146H446V0H286ZM286 276V387Q286 416 288 446T292 507H288Q274 478 261 449T232 388L175 278L174 276H286Z"  />
<glyph unicode="5" horiz-adv-x="534" d="M460 507H231L221 430Q230 431 237 431T253 431Q294 430 339 419T419 380Q487 326 487 221Q487 176 469 135T415 61T328 9T208 -10Q154 -10 109 0T38 22L65 153Q87 143 123 134T198 125Q220 125 240 130T277 145T302 171T312 210Q312 260 270 283T143 306Q121 306 104 305T69 301L109 650H460V507Z"  />
<glyph unicode="6" horiz-adv-x="534" d="M443 525Q430 526 417 526T387 523Q343 520 311 509T257 480T222 440T202 393H205Q251 436 325 436Q363 436 397 422T456 381T497 315T512 226Q512 179 496 136T448 61T374 9T278 -10Q214 -10 167 12T89 73T42 162T26 271Q26 369 58 443T143 565Q190 607 250 630T379 657Q402 659 417 659T443 658V525ZM275 115Q308 115 323 146T339 221Q339 237 335 254T323 284T301 306T268 315Q245 315 229 303T204 272Q198 260 198 225Q199 204 204 185T218 150T242 125T275 115Z"  />
<glyph unicode="7" horiz-adv-x="534" d="M492 650V541L248 0H69L311 504V506H44V650H492Z"  />
<glyph unicode="8" horiz-adv-x="534" d="M263 -10Q203 -10 159 5T85 45T41 104T26 172Q26 230 54 270T131 334V336Q87 361 67 398T46 477Q46 519 63 553T111 610T183 647T273 660Q327 660 367 646T433 609T473 555T486 492Q486 454 466 416T398 352V350Q419 341 439 327T474 292T499 246T508 189Q508 143 490 106T440 44T363 4T263 -10ZM270 106Q301 106 318 128T335 179Q335 217 312 241T256 275Q230 265 215 243T199 189Q199 157 217 132T270 106ZM266 546Q236 546 222 526T207 481Q207 454 227 434T279 403Q298 408 312 429T326 474Q326 501 312 523T266 546Z"  />
<glyph unicode="9" horiz-adv-x="534" d="M84 127Q101 125 114 125T148 128Q177 130 205 137T257 159Q285 176 303 203T330 260L327 261Q309 244 282 235T217 225Q179 225 145 238T84 277T41 340T25 426Q25 472 42 514T90 589T166 640T265 660Q327 660 372 638T446 577T490 489T504 382Q504 276 474 202T389 78Q344 37 284 16T148 -9Q131 -11 115 -10T84 -8V127ZM260 536Q231 536 213 509T196 437Q196 420 200 403T212 373T233 352T264 344Q287 344 301 353T322 373Q326 381 327 392T328 426Q328 446 325 466T313 501T292 526T260 536Z"  />
<glyph unicode=":" horiz-adv-x="273" d="M147 300Q104 300 77 328T50 401Q50 445 77 473T147 502Q189 502 216 475T244 401Q244 357 218 329T147 300ZM147 -10Q104 -10 77 18T50 91Q50 135 77 163T147 192Q189 192 216 164T244 91Q244 46 218 18T147 -10Z"  />
<glyph unicode=";" horiz-adv-x="273" d="M-1 -120Q25 -45 44 30T75 177L244 187Q218 108 185 33T109 -110L-1 -120ZM150 300Q108 300 81 328T54 401Q54 445 81 473T151 502Q193 502 220 475T247 401Q247 357 221 329T150 300Z"  />
<glyph unicode="&lt;" horiz-adv-x="596" d="M54 311L542 532V411L195 267V265L542 120V0L54 221V311Z"  />
<glyph unicode="=" horiz-adv-x="596" d="M40 317V421H556V317H40ZM40 113V217H556V113H40Z"  />
<glyph unicode="&gt;" horiz-adv-x="596" d="M542 213L54 0V119L421 265V267L54 413V532L542 319V213Z"  />
<glyph unicode="?" horiz-adv-x="427" d="M120 227L119 251Q117 290 131 327T176 404Q196 429 210 451T224 496Q224 516 209 530T162 545Q140 545 116 539T74 520L40 646Q65 660 106 672T202 684Q255 684 292 670T352 634T387 583T398 524Q398 495 390 471T370 427T344 389T316 356Q293 329 282 302T269 244L268 227H120ZM193 -10Q149 -10 122 18T95 89Q95 134 122 161T192 190Q235 190 262 162T290 89Q290 46 264 18T193 -10Z"  />
<glyph unicode="@" horiz-adv-x="739" d="M427 341Q416 344 403 344Q385 344 368 334T337 305T316 262T308 208Q308 182 318 168T348 153Q368 153 387 178T413 243L427 341ZM523 -66Q478 -87 437 -94T345 -102Q287 -102 233 -81T138 -20T72 78T47 211Q47 286 73 354T146 476T260 560T409 592Q475 592 528 570T620 510T678 420T699 309Q699 252 686 207T648 130T589 81T514 64Q475 64 454 84T427 142H424Q404 106 374 85T305 64Q257 64 228 99T199 195Q199 241 214 283T258 357T328 408T423 427Q455 427 488 420T540 402L511 219Q505 175 510 155T537 135Q552 135 567 144T595 174T616 227T624 305Q624 351 610 392T568 464T497 512T398 530Q344 530 295 508T207 446T147 348T124 218Q124 155 142 107T193 26T269 -23T366 -40Q401 -40 438 -32T506 -8L523 -66Z"  />
<glyph unicode="A" horiz-adv-x="613" d="M220 149L186 0H10L190 674H415L592 0H411L374 149H220ZM353 278L326 402Q323 416 320 434T312 470T304 507T297 540H295Q292 525 289 507T281 470T274 433T267 401L241 278H353Z"  />
<glyph unicode="B" horiz-adv-x="595" d="M61 665Q92 670 146 674T259 679Q324 679 371 672T457 641Q494 621 515 586T537 506Q537 464 513 425T432 363V360Q493 343 526 300T559 199Q559 153 541 118T492 57Q456 27 393 10T224 -7Q170 -7 129 -4T61 3V665ZM232 410H265Q315 410 340 430T365 485Q365 516 345 535T283 554Q264 554 252 553T232 550V410ZM232 123Q241 121 251 121T276 121Q296 121 314 126T347 141T369 167T378 205Q378 248 347 267T270 287H232V123Z"  />
<glyph unicode="C" horiz-adv-x="543" d="M514 15Q497 7 458 -1T365 -9Q277 -9 214 18T110 92T50 198T30 326Q30 416 59 483T136 595T247 661T379 683Q431 683 469 675T525 657L493 518Q474 526 449 532T389 539Q353 539 321 527T265 491T227 428T213 336Q213 239 260 188T390 137Q418 137 446 141T493 153L514 15Z"  />
<glyph unicode="D" horiz-adv-x="650" d="M61 665Q99 671 149 675T254 679Q343 679 403 663T509 612Q561 573 590 509T620 350Q620 248 589 179T508 70Q458 30 386 12T222 -7Q165 -7 125 -4T61 3V665ZM233 131Q239 129 248 129T266 129Q303 129 334 141T389 179T425 247T438 348Q438 446 394 495T278 545Q245 545 233 541V131Z"  />
<glyph unicode="E" horiz-adv-x="510" d="M447 276H234V143H473V0H61V674H459V531H234V417H447V276Z"  />
<glyph unicode="F" horiz-adv-x="505" d="M61 674H456V531H234V400H443V259H234V0H61V674Z"  />
<glyph unicode="G" horiz-adv-x="634" d="M587 27Q570 21 547 15T496 4T439 -4T380 -7Q291 -7 229 15T125 77Q77 122 53 187T30 330Q31 418 60 484T139 593T255 659T396 681Q456 681 500 672T568 651L535 510Q510 521 479 528T400 535Q360 535 326 524T266 488T226 425T211 332Q211 283 224 246T259 184T312 147T378 134Q392 134 404 135T423 139V261H345V397H587V27Z"  />
<glyph unicode="H" horiz-adv-x="655" d="M234 674V421H421V674H594V0H421V267H234V0H61V674H234Z"  />
<glyph unicode="I" horiz-adv-x="294" d="M234 674V0H61V674H234Z"  />
<glyph unicode="J" horiz-adv-x="393" d="M166 674H339V249Q339 173 322 123T273 44T197 2T99 -10Q73 -10 44 -7T-7 5L11 145Q25 140 42 138T80 135Q99 135 114 140T141 157T159 191T166 246V674Z"  />
<glyph unicode="K" horiz-adv-x="596" d="M61 674H232V385H234Q244 405 253 424T273 464L386 674H593L399 384L599 0H401L278 269L232 205V0H61V674Z"  />
<glyph unicode="L" horiz-adv-x="488" d="M61 674H234V145H465V0H61V674Z"  />
<glyph unicode="M" horiz-adv-x="801" d="M584 232Q582 285 581 349T579 485H577Q563 422 547 356T516 241L455 14H322L269 240Q258 288 245 353T221 485H219Q216 419 213 352T208 232L198 0H42L87 674H305L350 482Q364 423 377 361T400 238H403Q415 298 429 362T458 483L506 674H720L757 0H593L584 232Z"  />
<glyph unicode="N" horiz-adv-x="655" d="M61 0V674H252L355 457Q367 434 379 407T404 351T427 293T449 237H452Q446 297 442 372T438 530V674H594V0H418L311 225Q299 250 286 278T259 337T234 396T212 453H209Q212 392 214 316T217 151V0H61Z"  />
<glyph unicode="O" horiz-adv-x="660" d="M335 684Q412 684 467 655T559 577T612 469T629 346Q629 260 608 194T547 83T451 14T324 -10Q250 -10 195 18T103 94T48 204T30 335Q30 405 50 468T110 580T205 656T335 684ZM331 544Q277 544 245 490T212 336Q212 233 245 182T332 130Q388 130 417 187T447 340Q447 383 440 420T417 485T381 528T331 544Z"  />
<glyph unicode="P" horiz-adv-x="566" d="M61 665Q96 671 145 675T261 679Q331 679 382 667T470 625Q504 599 523 557T542 466Q542 412 525 370T477 298Q438 263 384 247T270 231Q259 231 250 231T232 232V0H61V665ZM232 367Q239 365 247 365T266 365Q317 365 344 391T371 459Q371 497 349 521T278 546Q261 546 250 545T232 542V367Z"  />
<glyph unicode="Q" horiz-adv-x="660" d="M590 -122Q525 -101 468 -77T347 -22Q323 -12 302 -10Q247 -7 198 16T112 83T52 189T30 334Q30 404 50 467T109 579T205 655T336 684Q413 684 468 655T559 577T612 469T629 347Q629 291 619 244T592 159T550 95T499 54V50Q532 38 568 29T642 9L590 -122ZM331 130Q387 130 417 186T447 340Q447 385 440 422T417 487T381 529T331 544Q304 544 282 529T245 487T221 421T212 338Q211 242 242 186T331 130Z"  />
<glyph unicode="R" horiz-adv-x="581" d="M61 665Q98 671 149 675T260 679Q332 679 386 668T477 627Q541 576 541 480Q541 451 532 425T507 378T471 342T429 317V313Q463 299 482 268T513 191Q520 165 527 136T541 80T554 32T565 0H388Q380 14 369 55T345 156Q339 186 332 205T314 235T289 250T257 254H232V0H61V665ZM232 381H271Q318 381 343 405T368 467Q368 505 347 526T283 549Q243 549 232 545V381Z"  />
<glyph unicode="S" horiz-adv-x="515" d="M65 172Q93 158 135 147T222 135Q268 135 290 150T312 192Q312 218 289 235T211 275Q41 346 41 474Q41 517 58 555T107 622T188 666T298 683Q352 683 391 674T459 652L426 511Q406 520 374 530T297 540Q256 540 236 526T215 488Q215 476 221 466T240 447T274 428T326 405Q411 370 448 320T486 205Q486 160 469 121T418 53T332 8T214 -9Q158 -9 110 2T35 27L65 172Z"  />
<glyph unicode="T" horiz-adv-x="522" d="M173 525H18V674H504V525H346V0H173V525Z"  />
<glyph unicode="U" horiz-adv-x="643" d="M231 674V277Q231 203 254 167T321 131Q366 131 389 165T412 277V674H585V293Q585 144 518 67T318 -10Q184 -10 121 67T58 296V674H231Z"  />
<glyph unicode="V" horiz-adv-x="609" d="M201 0L7 674H197L259 404Q273 348 284 292T307 173H309Q320 233 331 290T355 403L418 674H604L403 0H201Z"  />
<glyph unicode="W" horiz-adv-x="841" d="M155 0L14 674H198L231 426Q239 368 246 307T261 190H263Q271 249 281 307T302 427L345 674H517L557 419Q566 361 573 307T587 193H589Q596 252 603 309T619 427L654 674H828L677 0H491L451 237Q436 324 423 445H421Q412 384 405 333T387 236L341 0H155Z"  />
<glyph unicode="X" horiz-adv-x="566" d="M367 0L322 110Q308 142 297 169T275 227H273Q265 197 255 169T234 109L195 0H6L175 342L12 674H205L246 566Q258 537 267 511T286 455H288Q299 487 306 512T323 566L360 674H550L385 342L561 0H367Z"  />
<glyph unicode="Y" horiz-adv-x="562" d="M190 0V264L-3 674H191L244 521Q256 486 265 456T284 392H286Q302 453 324 522L372 674H562L363 271V0H190Z"  />
<glyph unicode="Z" horiz-adv-x="531" d="M16 94L287 526V529H42V674H503V567L242 148V145H506V0H16V94Z"  />
<glyph unicode="[" horiz-adv-x="307" d="M56 -112V684H265V587H179V-15H265V-112H56Z"  />
<glyph unicode="\" horiz-adv-x="294" d="M178 -40L4 684H113L288 -40H178Z"  />
<glyph unicode="]" horiz-adv-x="307" d="M251 686V-112H42V-15H128V589H42V686H251Z"  />
<glyph unicode="^" horiz-adv-x="596" d="M439 172L299 517H295L155 172H35L247 650H349L561 172H439Z"  />
<glyph unicode="_" horiz-adv-x="500" d="M500 -75V-125H0V-75H500Z"  />
<glyph unicode="`" horiz-adv-x="300" d="M155 701L234 550H120L5 701H155Z"  />
<glyph unicode="a" horiz-adv-x="518" d="M319 0L310 44H307Q282 15 249 3T178 -10Q143 -10 114 2T65 35T34 84T23 144Q23 193 44 229T101 288T187 322T293 333V339Q293 356 277 369T217 383Q179 383 145 373T87 348L57 459Q80 471 129 486T250 502Q314 502 355 485T421 437T456 368T466 285V118Q466 83 467 52T474 0H319ZM298 227Q249 227 220 212T190 161Q190 135 204 123T239 111Q256 111 272 121T296 151Q298 156 298 162T298 175V227Z"  />
<glyph unicode="b" horiz-adv-x="567" d="M47 0Q49 28 50 70T51 156V705H224V443H226Q246 469 278 485T355 502Q397 502 431 484T489 434T525 356T538 258Q538 192 521 142T475 59T409 8T330 -10Q295 -10 261 4T203 61H201L194 0H47ZM224 203Q224 186 227 176Q233 155 249 141T287 126Q323 126 343 156T364 248Q364 302 345 334T286 366Q265 366 249 352T227 316Q224 304 224 290V203Z"  />
<glyph unicode="c" horiz-adv-x="416" d="M401 9Q383 1 351 -4T281 -9Q223 -9 177 8T98 57T48 135T30 241Q30 296 48 343T100 426T186 481T303 501Q329 501 356 498T405 486L381 357Q370 362 354 365T313 368Q265 368 235 336T205 248Q205 188 237 157T316 126Q355 126 385 138L401 9Z"  />
<glyph unicode="d" horiz-adv-x="567" d="M515 705V156Q515 112 516 71T519 0H367L360 62H358Q336 25 299 8T223 -10Q180 -10 145 9T84 61T44 141T30 243Q30 306 46 354T90 435T155 485T232 502Q271 502 299 490T341 455H343V705H515ZM343 286Q343 292 343 298T341 311Q336 334 321 350T281 367Q261 367 247 358T223 332T209 293T204 245Q204 185 226 157T280 128Q303 128 318 141T339 177Q343 189 343 209V286Z"  />
<glyph unicode="e" horiz-adv-x="511" d="M194 183Q198 152 231 135T312 118Q377 118 436 136L458 19Q419 4 375 -2T285 -9Q162 -9 96 56T30 239Q30 288 45 335T90 419T165 479T271 502Q325 502 365 484T431 432T471 354T484 254Q484 229 482 211T478 183H194ZM326 300Q326 313 324 328T314 356T295 377T263 386Q245 386 232 378T211 356T198 328T193 300H326Z"  />
<glyph unicode="f" horiz-adv-x="347" d="M74 0V367H9V492H74V508Q74 550 88 592T135 665Q164 691 200 703T273 715Q299 715 319 713T357 705L350 573Q340 575 330 576T306 578Q277 578 262 560T246 515V492H334V367H247V0H74Z"  />
<glyph unicode="g" horiz-adv-x="557" d="M511 492Q509 465 508 429T506 339V66Q506 -2 491 -56T433 -147Q395 -180 345 -193T236 -206Q190 -206 147 -198T70 -174L102 -43Q124 -54 157 -64T229 -74Q279 -74 307 -47T336 35V57H334Q314 31 285 18T222 5Q177 5 142 23T81 74T43 150T30 243Q30 301 46 349T90 431T155 483T237 502Q315 502 353 441H355L362 492H511ZM334 294Q334 302 333 309T331 321Q318 368 277 368Q245 368 225 336T204 246Q204 195 223 164T276 133Q296 133 310 144T330 173Q332 181 333 191T334 210V294Z"  />
<glyph unicode="h" horiz-adv-x="563" d="M51 705H224V440H226Q237 455 250 465T280 485Q295 493 314 497T352 502Q433 502 472 445T512 285V0H339V273Q339 313 327 337T282 362Q261 362 249 352T229 324Q227 319 226 310T224 293V0H51V705Z"  />
<glyph unicode="i" horiz-adv-x="276" d="M51 0V492H224V0H51ZM137 710Q176 710 200 687T224 626Q225 591 201 567T136 542Q98 542 74 566T50 626Q50 664 74 687T137 710Z"  />
<glyph unicode="j" horiz-adv-x="290" d="M-39 -72Q-13 -70 7 -64T41 -44Q57 -29 62 3T68 97V492H241V62Q241 -22 222 -72T168 -151Q133 -180 83 -193T-24 -206L-39 -72ZM154 710Q193 710 216 687T241 626Q241 591 217 567T152 542Q114 542 90 566T67 626Q66 664 90 687T154 710Z"  />
<glyph unicode="k" horiz-adv-x="534" d="M224 289H226Q234 308 241 323T256 353L327 492H528L374 291L546 0H339L255 188L224 142V0H51V705H224V289Z"  />
<glyph unicode="l" horiz-adv-x="276" d="M51 705H224V0H51V705Z"  />
<glyph unicode="m" horiz-adv-x="821" d="M51 328Q51 374 50 415T47 492H194L201 432H204Q212 442 224 454T253 477T292 495T342 502Q389 502 421 483T468 428H470Q483 445 499 459T532 483Q567 502 614 502Q692 502 731 448T770 294V0H601V268Q601 313 590 338T550 363Q530 363 518 352T500 324Q498 317 497 307T495 289V0H326V278Q326 313 316 338T276 363Q256 363 244 351T226 326Q223 318 222 309T220 290V0H51V328Z"  />
<glyph unicode="n" horiz-adv-x="563" d="M51 328Q51 374 50 415T47 492H196L204 431H207Q215 442 227 454T257 477T297 495T347 502Q431 502 471 447T512 296V0H339V279Q339 317 326 339T283 362Q261 362 249 350T230 323Q224 309 224 283V0H51V328Z"  />
<glyph unicode="o" horiz-adv-x="548" d="M279 502Q334 502 378 484T454 432T501 352T518 250Q518 179 497 130T440 50T361 4T273 -10Q220 -10 175 7T98 57T48 137T30 243Q30 304 48 352T99 433T177 484T279 502ZM276 378Q256 378 243 367T221 337T210 294T206 246Q206 188 222 151T277 114Q309 114 325 151T342 246Q342 271 339 295T327 337T307 367T276 378Z"  />
<glyph unicode="p" horiz-adv-x="567" d="M51 328Q51 374 50 415T47 492H196L204 432H206Q229 465 265 483T349 502Q389 502 423 484T483 432T522 353T537 250Q537 183 519 134T472 53T406 6T332 -10Q294 -10 267 4T226 36H224V-196H51V328ZM224 204Q224 183 228 171Q234 151 249 138T286 124Q324 124 343 157T363 244Q363 301 344 333T288 365Q266 365 250 351T228 314Q224 303 224 287V204Z"  />
<glyph unicode="q" horiz-adv-x="567" d="M343 51H341Q299 -10 216 -10Q178 -10 144 8T85 58T45 136T30 238Q30 302 47 351T92 433T156 484T232 502Q270 502 300 489T350 442L352 441L357 492H519Q518 454 517 415T516 338V-196H343V51ZM343 291Q343 303 340 314Q335 336 320 350T281 365Q242 365 223 333T204 246Q204 187 225 157T280 126Q303 126 319 140T339 175Q341 182 342 189T343 204V291Z"  />
<glyph unicode="r" horiz-adv-x="376" d="M51 329Q51 382 50 420T47 492H195L202 409H206Q216 435 230 452T261 481T294 497T326 502Q338 502 345 502T361 499V335Q345 339 319 339Q287 339 262 325T228 279Q226 272 225 263T224 242V0H51V329Z"  />
<glyph unicode="s" horiz-adv-x="417" d="M55 146Q64 140 79 134T110 123T145 115T178 112Q229 112 229 141Q229 155 217 164T168 187Q130 201 105 218T64 255T43 294T37 334Q37 370 51 401T91 454T154 489T237 502Q279 502 313 495T371 476L344 357Q327 365 301 373T247 381Q200 381 200 352Q200 340 213 331T268 305Q337 279 364 241T392 154Q392 81 338 36T179 -9Q133 -9 93 0T26 24L55 146Z"  />
<glyph unicode="t" horiz-adv-x="369" d="M244 630V492H345V367H244V210Q244 166 257 149T299 131Q311 131 321 132T339 135V3Q324 -2 297 -5T237 -9Q200 -9 170 2T120 32Q97 54 86 90T74 183V367H15V492H74V592L244 630Z"  />
<glyph unicode="u" horiz-adv-x="561" d="M508 164Q508 116 509 75T512 0H363L355 61H352Q344 50 333 38T304 15T264 -3T212 -10Q132 -10 91 42T50 201V492H222V226Q222 179 236 155T279 130Q299 130 311 141T329 165Q335 177 335 196V492H508V164Z"  />
<glyph unicode="v" horiz-adv-x="510" d="M192 492L238 287Q245 255 250 225T260 162H263Q268 196 272 225T283 287L326 492H504L339 0H169L6 492H192Z"  />
<glyph unicode="w" horiz-adv-x="730" d="M184 492L209 305Q214 267 219 228T230 147H232Q239 188 247 228T263 304L302 492H436L473 310Q481 268 489 228T503 147H505Q509 188 514 229T526 311L553 492H722L581 0H422L390 145Q382 179 376 215T364 297H362Q357 251 351 215T336 146L300 0H141L6 492H184Z"  />
<glyph unicode="x" horiz-adv-x="507" d="M195 492L229 417Q237 397 245 379T260 344H263Q270 362 276 381T291 419L321 492H504L360 256L505 0H312L276 81Q268 98 261 116T248 151H245Q238 133 231 115T218 80L186 0H2L148 248L3 492H195Z"  />
<glyph unicode="y" horiz-adv-x="504" d="M194 492L247 264Q252 244 257 222T266 180H269Q273 199 276 221T284 263L325 492H505L398 151Q377 88 358 41T320 -41T283 -101T245 -145Q205 -183 164 -199T94 -219L54 -73Q83 -67 116 -50Q133 -42 147 -30T169 -4Q173 1 175 6T178 17Q178 27 171 41L4 492H194Z"  />
<glyph unicode="z" horiz-adv-x="450" d="M22 101L142 263Q162 288 180 310T215 352V354H37V492H420V385L307 232Q287 207 268 184T230 140V138H428V0H22V101Z"  />
<glyph unicode="{" horiz-adv-x="307" d="M22 332Q46 333 60 339T81 353T91 372T93 393Q93 411 92 429T88 468Q86 488 85 507T83 545Q83 617 124 651T241 686H276V590H259Q230 590 219 572T207 525Q207 512 208 499T211 472Q212 458 213 443T214 410Q215 354 193 327T127 289V287Q171 277 193 250T214 166Q214 148 213 132T211 101Q209 87 208 74T207 50Q207 21 217 3T260 -16H276V-112H240Q205 -112 177 -105T127 -81T95 -37T83 29Q83 47 84 66T88 106Q90 126 91 145T93 182Q93 191 91 201T82 221T60 236T22 243V332Z"  />
<glyph unicode="|" horiz-adv-x="279" d="M199 750V-250H80V750H199Z"  />
<glyph unicode="}" horiz-adv-x="307" d="M285 243Q261 242 247 236T226 221T216 202T214 182Q214 164 215 145T219 106Q221 86 222 67T224 29Q224 -10 213 -37T180 -80T131 -104T68 -112H31V-16H47Q79 -14 90 3T101 50Q101 61 100 74T97 101Q95 116 94 132T93 166Q92 223 114 250T181 287V289Q136 300 114 327T93 410Q93 427 94 442T97 472Q99 486 100 499T101 525Q101 554 89 571T48 590H31V686H66Q141 686 182 652T224 545Q224 526 223 507T219 468Q217 448 216 430T214 393Q214 383 216 373T225 354T247 339T285 332V243Z"  />
<glyph unicode="~" horiz-adv-x="596" d="M43 187Q43 242 55 279T87 340T134 373T191 383Q229 384 259 371T328 333Q361 313 378 304T410 294Q425 294 434 311T446 375H553Q555 321 546 283T518 222T473 187T415 176Q377 176 347 188T279 225Q244 248 226 258T193 269Q176 269 165 253T150 187H43Z"  />
<glyph unicode="&#xA0;" horiz-adv-x="186" />
<glyph unicode="&#xA1;" horiz-adv-x="274" d="M47 -196L71 247H204L227 -196H47ZM137 497Q180 497 207 469T235 396Q234 352 208 325T138 297Q94 297 67 324T40 396Q40 441 67 469T137 497Z"  />
<glyph unicode="&#xA2;" horiz-adv-x="534" d="M264 -10V88Q175 105 123 166Q97 197 84 238T71 326Q71 370 83 410T121 482T182 538T265 571V668H374V578Q394 576 416 573T457 561L435 433Q416 442 397 445T353 448Q304 448 275 418T246 331Q246 272 279 243T358 214Q409 214 447 228L464 103Q446 95 423 91T373 85V-10H264Z"  />
<glyph unicode="&#xA3;" horiz-adv-x="534" d="M46 0V95Q66 102 84 116T117 147T140 186T149 229Q149 237 149 245T147 261H57V376H127Q123 394 122 413T120 451Q120 496 136 534T181 600T253 644T348 660Q387 660 415 653T458 638L434 506Q404 522 360 522Q315 522 298 498T280 444Q280 428 282 411T289 376H414V261H304Q304 244 301 230T293 202Q286 188 276 173T251 143V141H485V0H46Z"  />
<glyph unicode="&#xA4;" horiz-adv-x="534" d="M268 552Q302 552 330 543T380 518L455 602L527 528L439 448Q449 428 458 401T467 334Q467 292 458 264T436 216L522 132L451 60L378 148Q355 129 325 120T265 110Q236 110 206 119T154 147L83 60L12 132L96 212Q83 233 74 261T64 330Q64 372 74 400T96 448L8 528L80 603L156 516Q201 552 268 552ZM266 437Q235 437 216 408T196 331Q196 281 217 253T266 225Q295 225 315 253T335 332Q335 376 317 406T266 437Z"  />
<glyph unicode="&#xA5;" horiz-adv-x="534" d="M184 0V154H35V233H184V291H35V370H146L-3 650H179L231 499Q243 468 252 439T269 384H271Q280 408 289 438T309 500L362 650H537L384 370H495V291H344V233H495V154H344V0H184Z"  />
<glyph unicode="&#xA6;" horiz-adv-x="279" d="M199 174V-176H80V174H199ZM199 674V324H80V674H199Z"  />
<glyph unicode="&#xA7;" horiz-adv-x="538" d="M166 342Q166 322 184 305T243 273Q275 261 304 251T348 233Q358 238 365 250T372 275Q372 293 358 309T313 338Q283 350 250 362T196 383Q186 379 176 368T166 342ZM426 553Q403 563 373 570T301 578Q263 578 245 568T226 542Q226 524 245 511T315 483Q355 470 389 456T448 421T487 372T501 305Q501 265 482 234T431 180Q445 170 459 147T473 90Q473 45 453 14T400 -37T328 -65T253 -74Q210 -74 160 -66T71 -33L100 72Q122 60 162 47T247 33Q281 33 301 42T322 72Q322 92 300 105T226 136Q188 148 154 163T94 198T53 246T37 310Q37 345 57 379T119 434Q104 448 93 472T81 525Q81 563 97 592T143 642T213 673T300 684Q340 684 377 678T449 656L426 553Z"  />
<glyph unicode="&#xA8;" horiz-adv-x="300" d="M46 553Q13 553 -9 575T-31 630Q-31 664 -9 685T46 707Q77 707 98 686T119 630Q119 598 98 576T46 553ZM256 553Q224 553 202 575T180 630Q180 664 202 685T256 707Q288 707 309 686T330 630Q330 598 309 576T256 553Z"  />
<glyph unicode="&#xA9;" horiz-adv-x="677" d="M340 648Q404 648 460 624T557 558T623 460T647 340Q647 275 623 219T558 120T460 54T340 30Q275 30 219 54T120 120T54 218T30 340Q30 404 54 460T120 558T218 624T340 648ZM339 585Q290 585 247 566T172 513T121 435T102 339Q102 288 120 243T171 165T247 113T339 93Q388 93 431 112T506 165T556 243T575 339Q575 390 557 434T506 512T431 565T339 585ZM458 432Q449 437 423 445T364 454Q311 454 279 424T246 337Q246 283 278 251T362 219Q392 219 417 225T459 242L475 184Q449 167 419 160T353 153Q309 153 275 167T217 205T181 263T168 334Q168 377 183 411T226 470T289 507T366 520Q383 520 400 518T432 511T458 502T474 492L458 432Z"  />
<glyph unicode="&#xAA;" horiz-adv-x="369" d="M233 265L227 296H225Q189 260 134 260Q88 260 60 288T32 359Q32 389 46 411T85 447T143 469T215 477V482Q215 485 213 490T205 499T189 507T161 511Q135 511 113 504T76 488L56 560Q75 571 107 580T182 590Q224 590 252 578T297 546T322 501T329 449V343Q329 320 330 300T334 265H233ZM218 411Q184 411 163 400T142 369Q142 355 152 346T177 337Q188 337 199 343T215 360Q218 369 218 379V411Z"  />
<glyph unicode="&#xAB;" horiz-adv-x="457" d="M134 252L246 60H129L21 252L129 444H246L134 252ZM330 252L442 60H325L217 252L324 444H442L330 252Z"  />
<glyph unicode="&#xAC;" horiz-adv-x="596" d="M556 432V100H449V329H40V432H556Z"  />
<glyph unicode="&#xAD;" horiz-adv-x="291" d="M275 324V209H30V324H275Z"  />
<glyph unicode="&#xAE;" horiz-adv-x="446" d="M204 434H152V587Q159 588 178 590T223 593Q250 593 264 590T286 580Q303 570 303 547Q303 536 293 527T266 513V511Q292 502 299 471Q303 454 305 446T309 434H252Q248 439 246 448T241 465Q238 487 218 487H204V434ZM206 522H218Q231 522 237 527T243 539Q243 548 237 552T220 556Q216 556 213 556T206 555V522ZM224 684Q261 684 293 671T348 634T385 579T399 513Q399 477 386 446T349 391T293 354T224 340Q187 340 155 353T99 390T61 445T47 513Q47 548 61 579T99 633T155 670T224 684ZM223 638Q197 638 175 628T137 601T112 561T103 512Q103 486 112 463T137 423T175 396T223 386Q249 386 271 396T309 423T335 463T344 513Q344 539 335 561T310 601T271 628T223 638Z"  />
<glyph unicode="&#xAF;" horiz-adv-x="300" d="M275 673V580H26V673H275Z"  />
<glyph unicode="&#xB0;" horiz-adv-x="348" d="M174 684Q207 684 234 673T280 642T311 597T322 543Q322 511 310 485T277 439T229 410T173 399Q141 399 114 410T68 439T37 483T26 539Q26 569 37 595T69 641T116 672T174 684ZM174 612Q147 612 128 591T109 540Q109 511 128 491T174 471Q202 471 220 490T239 540Q239 569 223 590T174 612Z"  />
<glyph unicode="&#xB1;" horiz-adv-x="596" d="M352 577V414H556V311H352V145H244V311H40V414H244V577H352ZM556 103V0H40V103H556Z"  />
<glyph unicode="&#xB2;" horiz-adv-x="344" d="M14 499L72 555Q97 579 116 597T148 630T169 658T176 687Q176 707 162 718T126 729Q104 729 83 722T46 704L16 790Q39 807 76 818T159 830Q197 830 225 821T273 795T301 756T311 709Q311 682 302 660T277 619T243 583T205 550L187 535V533H318V435H14V499Z"  />
<glyph unicode="&#xB3;" horiz-adv-x="337" d="M23 801Q45 813 80 821T158 830Q232 830 267 801T303 731Q303 696 281 674T224 641V639Q263 634 289 610T316 550Q316 495 267 463T135 430Q97 430 64 437T10 455L31 542Q47 533 72 526T121 519Q145 519 163 529T181 557Q181 578 159 589T106 601H80V676H102Q114 676 127 677T150 683T166 693T173 710Q173 741 127 741Q104 741 82 735T44 720L23 801Z"  />
<glyph unicode="&#xB4;" horiz-adv-x="300" d="M305 701L190 550H75L154 701H305Z"  />
<glyph unicode="&#xB5;" horiz-adv-x="562" d="M360 59Q350 35 325 16T261 -4Q230 -4 209 14V-18Q209 -40 209 -65T211 -116T215 -162T220 -196H66Q63 -187 60 -169T55 -125T52 -71T51 -9V492H224V213Q224 168 238 148T277 127Q297 127 311 139T331 164Q334 169 335 178T337 196V492H510V167Q510 138 519 129T548 118L537 0Q528 -5 513 -7T478 -10Q431 -10 405 8T364 59H360Z"  />
<glyph unicode="&#xB6;" horiz-adv-x="522" d="M186 -47V263H180Q165 263 139 274T88 307T45 365T26 451Q26 491 38 531T83 604T172 657T315 678Q407 678 457 667V-47H355V576H288V-47H186Z"  />
<glyph unicode="&#xB7;" horiz-adv-x="273" d="M137 159Q94 159 67 187T39 262Q39 308 67 337T137 366Q179 366 207 338T235 262Q235 216 208 188T137 159Z"  />
<glyph unicode="&#xB8;" horiz-adv-x="300" d="M207 5L183 -41Q212 -45 233 -64T255 -115Q255 -141 245 -158T217 -185T177 -200T129 -205Q104 -205 82 -200T45 -185L67 -123Q80 -130 95 -134T121 -139Q133 -139 143 -134T153 -116Q153 -104 137 -95T78 -82L118 5H207Z"  />
<glyph unicode="&#xB9;" horiz-adv-x="302" d="M115 435V720H113L35 686L16 776L131 825H244V435H115Z"  />
<glyph unicode="&#xBA;" horiz-adv-x="374" d="M187 590Q224 590 253 578T303 544T334 493T345 428Q345 383 331 351T295 299T244 270T185 260Q150 260 121 271T71 304T38 356T26 423Q26 501 71 545T187 590ZM185 507Q172 507 164 499T151 478T144 451T142 424Q142 390 152 367T186 343Q209 343 219 367T229 426Q229 441 226 455T218 481T204 500T185 507Z"  />
<glyph unicode="&#xBB;" horiz-adv-x="457" d="M16 444H132L241 252L132 60H16L128 252L16 444ZM209 444H325L434 252L325 60H209L321 252L209 444Z"  />
<glyph unicode="&#xBC;" horiz-adv-x="811" d="M124 265V550H123L44 516L26 607L140 655H253V265H124ZM168 -10L529 660H617L257 -10H168ZM611 0V84H431V156L585 393H728V167H775V84H728V0H611ZM611 223Q611 242 612 260T615 297H612Q604 280 597 265T580 235L541 168L543 167H611V223Z"  />
<glyph unicode="&#xBD;" horiz-adv-x="811" d="M113 265V550H112L34 516L15 607L130 655H242V265H113ZM142 -10L502 660H591L231 -10H142ZM472 65L529 120Q554 144 573 162T606 195T626 223T633 252Q633 272 620 283T584 294Q561 294 541 287T504 269L473 355Q497 372 534 383T616 395Q655 395 683 386T731 360T759 321T769 274Q769 247 760 225T735 184T701 148T663 115L644 100V98H775V0H472V65Z"  />
<glyph unicode="&#xBE;" horiz-adv-x="811" d="M39 631Q62 643 97 651T175 660Q249 660 284 631T320 561Q320 527 298 505T241 472V470Q279 465 306 441T333 380Q333 325 284 293T152 260Q113 260 80 267T26 285L47 372Q63 364 88 357T137 349Q161 349 179 359T198 388Q198 408 175 419T122 431H96V507H119Q131 507 144 508T167 514T183 524T190 540Q190 571 143 571Q120 571 98 565T61 550L39 631ZM194 -10L554 660H643L283 -10H194ZM619 0V84H439V156L594 393H737V167H784V84H737V0H619ZM619 223Q619 242 620 260T624 297H621Q613 280 606 265T589 235L549 168L551 167H619V223Z"  />
<glyph unicode="&#xBF;" horiz-adv-x="427" d="M236 497Q280 497 306 470T333 397Q333 353 308 325T237 297Q193 297 166 325T139 397Q139 442 166 469T236 497ZM308 253L309 229Q311 190 297 155T252 80Q232 54 218 34T203 -9Q203 -30 218 -43T266 -58Q288 -58 311 -52T354 -33L388 -159Q363 -173 322 -185T226 -197Q173 -197 136 -184T76 -148T41 -96T30 -37Q30 -9 38 15T58 59T84 96T112 128Q135 155 146 180T159 236L160 253H308Z"  />
<glyph unicode="&#xC0;" horiz-adv-x="613" d="M220 149L186 0H10L190 674H415L592 0H411L374 149H220ZM353 278L326 402Q323 416 320 434T312 470T304 507T297 540H295Q292 525 289 507T281 470T274 433T267 401L241 278H353ZM302 833L382 712H249L129 833H302Z"  />
<glyph unicode="&#xC1;" horiz-adv-x="613" d="M220 149L186 0H10L190 674H415L592 0H411L374 149H220ZM353 278L326 402Q323 416 320 434T312 470T304 507T297 540H295Q292 525 289 507T281 470T274 433T267 401L241 278H353ZM482 833L362 710H229L309 833H482Z"  />
<glyph unicode="&#xC2;" horiz-adv-x="613" d="M220 149L186 0H10L190 674H415L592 0H411L374 149H220ZM353 278L326 402Q323 416 320 434T312 470T304 507T297 540H295Q292 525 289 507T281 470T274 433T267 401L241 278H353ZM371 833L466 710H348L307 766H305L264 710H148L242 833H371Z"  />
<glyph unicode="&#xC3;" horiz-adv-x="613" d="M220 149L186 0H10L190 674H415L592 0H411L374 149H220ZM353 278L326 402Q323 416 320 434T312 470T304 507T297 540H295Q292 525 289 507T281 470T274 433T267 401L241 278H353ZM171 715Q169 784 191 817T249 850Q269 850 284 845T311 831Q323 823 333 818T352 812Q364 812 369 821T378 854H452Q454 780 433 751T372 721Q351 721 336 726T308 739Q296 746 288 751T269 756Q261 756 255 746T247 715H171Z"  />
<glyph unicode="&#xC4;" horiz-adv-x="613" d="M220 149L186 0H10L190 674H415L592 0H411L374 149H220ZM353 278L326 402Q323 416 320 434T312 470T304 507T297 540H295Q292 525 289 507T281 470T274 433T267 401L241 278H353ZM207 709Q176 709 154 731T132 784Q132 816 154 837T207 859Q236 859 257 838T278 784Q278 754 257 732T207 709ZM417 709Q385 709 364 731T343 784Q343 816 364 837T417 859Q447 859 468 838T489 784Q489 754 468 732T417 709Z"  />
<glyph unicode="&#xC5;" horiz-adv-x="613" d="M220 149L186 0H10L190 674H415L592 0H411L374 149H220ZM353 278L326 402Q323 416 320 434T312 470T304 507T297 540H295Q292 525 289 507T281 470T274 433T267 401L241 278H353ZM303 901Q334 901 356 893T392 872T414 840T421 802Q421 761 392 732T303 703Q243 703 214 732T184 800Q184 820 191 838T214 871T251 893T303 901ZM302 845Q281 845 272 831T262 800Q262 785 272 772T302 758Q323 758 332 771T342 801Q342 818 332 831T302 845Z"  />
<glyph unicode="&#xC6;" horiz-adv-x="815" d="M-1 0L254 674H760V531H518L530 409H757V269H550L564 143H792V0H415L397 163H226L174 0H-1ZM379 300L363 450Q361 473 358 499T353 553H350Q342 522 333 490T317 437L272 300H379Z"  />
<glyph unicode="&#xC7;" horiz-adv-x="543" d="M514 15Q497 7 462 0T380 -9L364 -42Q393 -49 414 -68T436 -123Q436 -150 425 -168T397 -197T357 -213T312 -218Q289 -218 265 -214T224 -199L245 -132Q256 -138 272 -142T301 -146Q314 -146 323 -141T333 -123Q333 -110 316 -102T257 -88L295 -4Q225 7 175 37T93 111T45 210T30 326Q30 416 59 483T136 595T247 661T379 683Q431 683 469 675T525 657L493 518Q474 526 449 532T389 539Q353 539 321 527T265 491T227 428T213 336Q213 239 260 188T390 137Q418 137 446 141T493 153L514 15Z"  />
<glyph unicode="&#xC8;" horiz-adv-x="510" d="M447 276H234V143H473V0H61V674H459V531H234V417H447V276ZM268 833L348 712H215L94 833H268Z"  />
<glyph unicode="&#xC9;" horiz-adv-x="510" d="M447 276H234V143H473V0H61V674H459V531H234V417H447V276ZM439 833L319 710H186L265 833H439Z"  />
<glyph unicode="&#xCA;" horiz-adv-x="510" d="M447 276H234V143H473V0H61V674H459V531H234V417H447V276ZM331 833L426 710H308L267 766H265L225 710H108L202 833H331Z"  />
<glyph unicode="&#xCB;" horiz-adv-x="510" d="M447 276H234V143H473V0H61V674H459V531H234V417H447V276ZM155 709Q124 709 103 731T81 784Q81 816 102 837T155 859Q184 859 205 838T227 784Q227 754 206 732T155 709ZM365 709Q333 709 312 731T291 784Q291 816 312 837T365 859Q395 859 416 838T437 784Q437 754 416 732T365 709Z"  />
<glyph unicode="&#xCC;" horiz-adv-x="294" d="M234 674V0H61V674H234ZM146 833L226 712H93L-28 833H146Z"  />
<glyph unicode="&#xCD;" horiz-adv-x="294" d="M234 674V0H61V674H234ZM321 833L201 710H68L148 833H321Z"  />
<glyph unicode="&#xCE;" horiz-adv-x="294" d="M234 674V0H61V674H234ZM211 833L306 710H189L148 766H146L105 710H-11L82 833H211Z"  />
<glyph unicode="&#xCF;" horiz-adv-x="294" d="M234 674V0H61V674H234ZM43 709Q11 709 -10 731T-32 784Q-32 816 -10 837T43 859Q72 859 93 838T114 784Q114 754 93 732T43 709ZM253 709Q221 709 200 731T179 784Q179 816 200 837T253 859Q283 859 304 838T325 784Q325 754 304 732T253 709Z"  />
<glyph unicode="&#xD0;" horiz-adv-x="656" d="M3 410H67V666Q105 673 155 676T261 680Q350 680 409 665T515 616Q568 576 597 510T626 350Q626 248 595 178T514 68Q464 28 393 10T228 -9Q172 -9 132 -6T67 1V280H3V410ZM338 280H239V129Q245 127 254 127T272 127Q309 127 341 139T395 177T431 246T444 348Q444 450 401 498T284 547Q267 547 257 546T239 543V410H338V280Z"  />
<glyph unicode="&#xD1;" horiz-adv-x="655" d="M61 0V674H252L355 457Q367 434 379 407T404 351T427 293T449 237H452Q446 297 442 372T438 530V674H594V0H418L311 225Q299 250 286 278T259 337T234 396T212 453H209Q212 392 214 316T217 151V0H61ZM189 715Q187 784 209 817T266 850Q286 850 301 845T329 831Q341 823 351 818T369 812Q382 812 387 821T395 854H469Q471 780 450 751T389 721Q368 721 353 726T326 739Q314 746 306 751T287 756Q268 756 265 715H189Z"  />
<glyph unicode="&#xD2;" horiz-adv-x="660" d="M335 684Q412 684 467 655T559 577T612 469T629 346Q629 260 608 194T547 83T451 14T324 -10Q250 -10 195 18T103 94T48 204T30 335Q30 405 50 468T110 580T205 656T335 684ZM331 544Q277 544 245 490T212 336Q212 233 245 182T332 130Q388 130 417 187T447 340Q447 383 440 420T417 485T381 528T331 544ZM329 833L409 712H276L156 833H329Z"  />
<glyph unicode="&#xD3;" horiz-adv-x="660" d="M335 684Q412 684 467 655T559 577T612 469T629 346Q629 260 608 194T547 83T451 14T324 -10Q250 -10 195 18T103 94T48 204T30 335Q30 405 50 468T110 580T205 656T335 684ZM331 544Q277 544 245 490T212 336Q212 233 245 182T332 130Q388 130 417 187T447 340Q447 383 440 420T417 485T381 528T331 544ZM511 833L391 710H258L338 833H511Z"  />
<glyph unicode="&#xD4;" horiz-adv-x="660" d="M335 684Q412 684 467 655T559 577T612 469T629 346Q629 260 608 194T547 83T451 14T324 -10Q250 -10 195 18T103 94T48 204T30 335Q30 405 50 468T110 580T205 656T335 684ZM331 544Q277 544 245 490T212 336Q212 233 245 182T332 130Q388 130 417 187T447 340Q447 383 440 420T417 485T381 528T331 544ZM394 833L489 710H371L330 766H328L288 710H172L265 833H394Z"  />
<glyph unicode="&#xD5;" horiz-adv-x="660" d="M335 684Q412 684 467 655T559 577T612 469T629 346Q629 260 608 194T547 83T451 14T324 -10Q250 -10 195 18T103 94T48 204T30 335Q30 405 50 468T110 580T205 656T335 684ZM331 544Q277 544 245 490T212 336Q212 233 245 182T332 130Q388 130 417 187T447 340Q447 383 440 420T417 485T381 528T331 544ZM190 713Q188 782 210 814T268 847Q288 847 303 842T330 828Q342 820 352 815T371 809Q383 809 388 818T396 851H471Q473 777 452 748T390 719Q370 719 354 724T327 736Q315 743 307 748T288 753Q280 753 274 743T266 713H190Z"  />
<glyph unicode="&#xD6;" horiz-adv-x="660" d="M335 684Q412 684 467 655T559 577T612 469T629 346Q629 260 608 194T547 83T451 14T324 -10Q250 -10 195 18T103 94T48 204T30 335Q30 405 50 468T110 580T205 656T335 684ZM331 544Q277 544 245 490T212 336Q212 233 245 182T332 130Q388 130 417 187T447 340Q447 383 440 420T417 485T381 528T331 544ZM226 709Q194 709 173 731T151 784Q151 816 173 837T226 859Q255 859 276 838T297 784Q297 754 276 732T226 709ZM435 709Q404 709 383 731T362 784Q362 816 383 837T435 859Q466 859 487 838T508 784Q508 754 487 732T435 709Z"  />
<glyph unicode="&#xD7;" horiz-adv-x="596" d="M111 526L298 336L485 526L556 452L371 263L556 75L483 0L298 189L113 0L40 75L225 263L40 452L111 526Z"  />
<glyph unicode="&#xD8;" horiz-adv-x="660" d="M65 -5L116 83Q72 131 51 197T30 338Q30 406 50 468T108 579T203 655T331 684Q367 684 398 678T458 659L505 736L599 679L548 592Q592 542 610 476T629 344Q629 259 608 193T547 82T452 14T330 -10Q265 -10 207 15L155 -71L65 -5ZM383 529Q361 546 331 546Q274 546 238 494T202 338Q202 315 204 293T213 245H214L383 529ZM282 145Q290 136 303 132T331 128Q388 128 423 181T458 340Q458 360 456 381T450 423H448L282 145Z"  />
<glyph unicode="&#xD9;" horiz-adv-x="643" d="M231 674V277Q231 203 254 167T321 131Q366 131 389 165T412 277V674H585V293Q585 144 518 67T318 -10Q184 -10 121 67T58 296V674H231ZM325 833L404 712H272L151 833H325Z"  />
<glyph unicode="&#xDA;" horiz-adv-x="643" d="M231 674V277Q231 203 254 167T321 131Q366 131 389 165T412 277V674H585V293Q585 144 518 67T318 -10Q184 -10 121 67T58 296V674H231ZM489 833L368 710H236L315 833H489Z"  />
<glyph unicode="&#xDB;" horiz-adv-x="643" d="M231 674V277Q231 203 254 167T321 131Q366 131 389 165T412 277V674H585V293Q585 144 518 67T318 -10Q184 -10 121 67T58 296V674H231ZM396 833L491 710H373L332 766H330L289 710H173L267 833H396Z"  />
<glyph unicode="&#xDC;" horiz-adv-x="643" d="M231 674V277Q231 203 254 167T321 131Q366 131 389 165T412 277V674H585V293Q585 144 518 67T318 -10Q184 -10 121 67T58 296V674H231ZM222 709Q191 709 170 731T148 784Q148 816 170 837T222 859Q252 859 273 838T294 784Q294 754 273 732T222 709ZM432 709Q400 709 379 731T358 784Q358 816 379 837T432 859Q462 859 483 838T504 784Q504 754 483 732T432 709Z"  />
<glyph unicode="&#xDD;" horiz-adv-x="562" d="M190 0V264L-3 674H191L244 521Q256 486 265 456T284 392H286Q302 453 324 522L372 674H562L363 271V0H190ZM463 833L342 710H210L289 833H463Z"  />
<glyph unicode="&#xDE;" horiz-adv-x="564" d="M61 674H231V560Q242 561 255 561T296 562Q350 562 393 551T473 511Q506 483 523 443T540 357Q540 290 518 245T461 173T380 133T287 121Q266 121 253 122T231 125V0H61V674ZM231 261Q248 256 278 256Q326 256 348 281T370 344Q370 383 348 406T279 429Q243 429 231 425V261Z"  />
<glyph unicode="&#xDF;" horiz-adv-x="591" d="M51 0V422Q51 507 71 560T127 648Q161 680 208 697T314 715Q364 715 405 701T474 661T518 601T534 527Q534 507 528 484T510 447Q484 433 473 417T461 384Q461 369 467 355T490 324Q503 309 516 293T540 257T557 216T564 166Q564 87 511 39T362 -10Q336 -10 308 -7T260 3L279 130Q304 119 342 119Q367 119 380 130T393 158Q393 172 386 185T361 218Q349 231 337 246T314 278T297 315T290 359Q290 397 308 429T362 481Q369 498 369 517Q369 542 353 562T305 582Q271 582 248 551T224 440V0H51Z"  />
<glyph unicode="&#xE0;" horiz-adv-x="518" d="M319 0L310 44H307Q282 15 249 3T178 -10Q143 -10 114 2T65 35T34 84T23 144Q23 193 44 229T101 288T187 322T293 333V339Q293 356 277 369T217 383Q179 383 145 373T87 348L57 459Q80 471 129 486T250 502Q314 502 355 485T421 437T456 368T466 285V118Q466 83 467 52T474 0H319ZM298 227Q249 227 220 212T190 161Q190 135 204 123T239 111Q256 111 272 121T296 151Q298 156 298 162T298 175V227ZM248 701L328 550H213L98 701H248Z"  />
<glyph unicode="&#xE1;" horiz-adv-x="518" d="M319 0L310 44H307Q282 15 249 3T178 -10Q143 -10 114 2T65 35T34 84T23 144Q23 193 44 229T101 288T187 322T293 333V339Q293 356 277 369T217 383Q179 383 145 373T87 348L57 459Q80 471 129 486T250 502Q314 502 355 485T421 437T456 368T466 285V118Q466 83 467 52T474 0H319ZM298 227Q249 227 220 212T190 161Q190 135 204 123T239 111Q256 111 272 121T296 151Q298 156 298 162T298 175V227ZM419 701L304 550H189L268 701H419Z"  />
<glyph unicode="&#xE2;" horiz-adv-x="518" d="M319 0L310 44H307Q282 15 249 3T178 -10Q143 -10 114 2T65 35T34 84T23 144Q23 193 44 229T101 288T187 322T293 333V339Q293 356 277 369T217 383Q179 383 145 373T87 348L57 459Q80 471 129 486T250 502Q314 502 355 485T421 437T456 368T466 285V118Q466 83 467 52T474 0H319ZM298 227Q249 227 220 212T190 161Q190 135 204 123T239 111Q256 111 272 121T296 151Q298 156 298 162T298 175V227ZM315 701L412 550H302L258 632H256L212 550H101L199 701H315Z"  />
<glyph unicode="&#xE3;" horiz-adv-x="518" d="M319 0L310 44H307Q282 15 249 3T178 -10Q143 -10 114 2T65 35T34 84T23 144Q23 193 44 229T101 288T187 322T293 333V339Q293 356 277 369T217 383Q179 383 145 373T87 348L57 459Q80 471 129 486T250 502Q314 502 355 485T421 437T456 368T466 285V118Q466 83 467 52T474 0H319ZM298 227Q249 227 220 212T190 161Q190 135 204 123T239 111Q256 111 272 121T296 151Q298 156 298 162T298 175V227ZM107 554Q105 619 127 656T191 693Q211 693 226 687T256 673Q267 666 277 661T296 655Q308 655 313 663T320 697H396Q397 623 374 593T312 562Q292 562 276 568T245 582Q232 589 225 593T208 598Q186 598 185 554H107Z"  />
<glyph unicode="&#xE4;" horiz-adv-x="518" d="M319 0L310 44H307Q282 15 249 3T178 -10Q143 -10 114 2T65 35T34 84T23 144Q23 193 44 229T101 288T187 322T293 333V339Q293 356 277 369T217 383Q179 383 145 373T87 348L57 459Q80 471 129 486T250 502Q314 502 355 485T421 437T456 368T466 285V118Q466 83 467 52T474 0H319ZM298 227Q249 227 220 212T190 161Q190 135 204 123T239 111Q256 111 272 121T296 151Q298 156 298 162T298 175V227ZM155 553Q122 553 100 575T78 630Q78 664 100 685T155 707Q186 707 207 686T228 630Q228 598 207 576T155 553ZM365 553Q333 553 311 575T289 630Q289 664 311 685T365 707Q397 707 418 686T439 630Q439 598 418 576T365 553Z"  />
<glyph unicode="&#xE5;" horiz-adv-x="518" d="M319 0L310 44H307Q282 15 249 3T178 -10Q143 -10 114 2T65 35T34 84T23 144Q23 193 44 229T101 288T187 322T293 333V339Q293 356 277 369T217 383Q179 383 145 373T87 348L57 459Q80 471 129 486T250 502Q314 502 355 485T421 437T456 368T466 285V118Q466 83 467 52T474 0H319ZM298 227Q249 227 220 212T190 161Q190 135 204 123T239 111Q256 111 272 121T296 151Q298 156 298 162T298 175V227ZM261 540Q204 540 174 567T144 636Q144 678 173 707T262 737Q320 737 348 709T377 638Q377 596 347 568T261 540ZM260 593Q283 593 293 607T303 638Q303 655 293 669T259 684Q238 684 229 669T219 637Q219 623 228 608T260 593Z"  />
<glyph unicode="&#xE6;" horiz-adv-x="770" d="M456 194Q459 158 491 137T573 116Q612 116 641 122T698 140L721 25Q678 3 633 -3T546 -10Q489 -10 441 10T366 69H363Q332 33 291 12T189 -10Q151 -10 121 2T68 36T35 87T23 150Q23 196 44 229T102 284T188 317T293 328V339Q293 345 289 352T276 366T250 377T211 382Q176 382 143 371T89 347L57 457Q84 472 129 487T230 502Q284 502 323 484T385 432H387Q445 502 545 502Q593 502 630 484T692 432T730 354T743 254Q743 237 742 221T739 194H456ZM297 224Q246 224 217 208T188 160Q188 135 203 124T238 112Q257 112 271 122T293 147Q297 156 297 175V224ZM586 307Q586 317 584 331T576 358T557 380T523 389Q505 389 492 381T471 359T459 332T455 307H586Z"  />
<glyph unicode="&#xE7;" horiz-adv-x="416" d="M401 9Q387 2 361 -2T303 -9L287 -42Q315 -49 337 -68T359 -123Q359 -150 348 -168T319 -197T279 -213T235 -218Q211 -218 188 -214T147 -199L168 -132Q179 -138 195 -142T224 -146Q237 -146 246 -141T256 -123Q256 -110 239 -102T180 -88L218 -2Q130 15 80 77T30 241Q30 296 48 343T100 426T186 481T303 501Q329 501 356 498T405 486L381 357Q370 362 354 365T313 368Q265 368 235 336T205 248Q205 188 237 157T316 126Q355 126 385 138L401 9Z"  />
<glyph unicode="&#xE8;" horiz-adv-x="511" d="M194 183Q198 152 231 135T312 118Q377 118 436 136L458 19Q419 4 375 -2T285 -9Q162 -9 96 56T30 239Q30 288 45 335T90 419T165 479T271 502Q325 502 365 484T431 432T471 354T484 254Q484 229 482 211T478 183H194ZM326 300Q326 313 324 328T314 356T295 377T263 386Q245 386 232 378T211 356T198 328T193 300H326ZM260 701L339 550H225L109 701H260Z"  />
<glyph unicode="&#xE9;" horiz-adv-x="511" d="M194 183Q198 152 231 135T312 118Q377 118 436 136L458 19Q419 4 375 -2T285 -9Q162 -9 96 56T30 239Q30 288 45 335T90 419T165 479T271 502Q325 502 365 484T431 432T471 354T484 254Q484 229 482 211T478 183H194ZM326 300Q326 313 324 328T314 356T295 377T263 386Q245 386 232 378T211 356T198 328T193 300H326ZM436 701L321 550H206L285 701H436Z"  />
<glyph unicode="&#xEA;" horiz-adv-x="511" d="M194 183Q198 152 231 135T312 118Q377 118 436 136L458 19Q419 4 375 -2T285 -9Q162 -9 96 56T30 239Q30 288 45 335T90 419T165 479T271 502Q325 502 365 484T431 432T471 354T484 254Q484 229 482 211T478 183H194ZM326 300Q326 313 324 328T314 356T295 377T263 386Q245 386 232 378T211 356T198 328T193 300H326ZM326 701L423 550H313L268 632H266L223 550H111L209 701H326Z"  />
<glyph unicode="&#xEB;" horiz-adv-x="511" d="M194 183Q198 152 231 135T312 118Q377 118 436 136L458 19Q419 4 375 -2T285 -9Q162 -9 96 56T30 239Q30 288 45 335T90 419T165 479T271 502Q325 502 365 484T431 432T471 354T484 254Q484 229 482 211T478 183H194ZM326 300Q326 313 324 328T314 356T295 377T263 386Q245 386 232 378T211 356T198 328T193 300H326ZM168 553Q135 553 113 575T91 630Q91 664 113 685T168 707Q199 707 220 686T241 630Q241 598 220 576T168 553ZM378 553Q346 553 324 575T302 630Q302 664 324 685T378 707Q410 707 431 686T452 630Q452 598 431 576T378 553Z"  />
<glyph unicode="&#xEC;" horiz-adv-x="276" d="M51 0V492H224V0H51ZM122 701L201 550H87L-28 701H122Z"  />
<glyph unicode="&#xED;" horiz-adv-x="276" d="M51 0V492H224V0H51ZM303 701L188 550H73L152 701H303Z"  />
<glyph unicode="&#xEE;" horiz-adv-x="276" d="M51 0V492H224V0H51ZM197 701L294 550H184L140 632H138L94 550H-17L81 701H197Z"  />
<glyph unicode="&#xEF;" horiz-adv-x="276" d="M51 0V492H224V0H51ZM34 553Q1 553 -21 575T-43 630Q-43 664 -21 685T34 707Q65 707 86 686T107 630Q107 598 86 576T34 553ZM244 553Q212 553 190 575T168 630Q168 664 190 685T244 707Q276 707 297 686T318 630Q318 598 297 576T244 553Z"  />
<glyph unicode="&#xF0;" horiz-adv-x="548" d="M275 114Q311 114 326 149T342 241Q342 276 339 299T327 338Q318 352 306 360T277 369Q256 369 243 357T221 325T209 283T206 241Q206 187 222 151T275 114ZM68 538L162 581Q126 602 82 623L163 715Q198 703 233 684T304 642L432 697L465 636L367 594Q434 539 477 454Q500 411 509 363T518 261Q518 187 497 135T440 51T361 5T273 -10Q220 -10 175 7T98 57T48 136T30 240Q30 296 48 339T97 413T168 458T253 474Q275 474 296 464L298 468Q283 487 266 504T229 534L99 476L68 538Z"  />
<glyph unicode="&#xF1;" horiz-adv-x="563" d="M51 328Q51 374 50 415T47 492H196L204 431H207Q215 442 227 454T257 477T297 495T347 502Q431 502 471 447T512 296V0H339V279Q339 317 326 339T283 362Q261 362 249 350T230 323Q224 309 224 283V0H51V328ZM140 554Q138 619 160 656T224 693Q244 693 259 687T289 673Q300 666 310 661T330 655Q341 655 346 663T353 697H429Q430 623 407 593T345 562Q325 562 309 568T278 582Q265 589 258 593T241 598Q219 598 218 554H140Z"  />
<glyph unicode="&#xF2;" horiz-adv-x="548" d="M279 502Q334 502 378 484T454 432T501 352T518 250Q518 179 497 130T440 50T361 4T273 -10Q220 -10 175 7T98 57T48 137T30 243Q30 304 48 352T99 433T177 484T279 502ZM276 378Q256 378 243 367T221 337T210 294T206 246Q206 188 222 151T277 114Q309 114 325 151T342 246Q342 271 339 295T327 337T307 367T276 378ZM266 701L345 550H231L115 701H266Z"  />
<glyph unicode="&#xF3;" horiz-adv-x="548" d="M279 502Q334 502 378 484T454 432T501 352T518 250Q518 179 497 130T440 50T361 4T273 -10Q220 -10 175 7T98 57T48 137T30 243Q30 304 48 352T99 433T177 484T279 502ZM276 378Q256 378 243 367T221 337T210 294T206 246Q206 188 222 151T277 114Q309 114 325 151T342 246Q342 271 339 295T327 337T307 367T276 378ZM439 701L324 550H209L288 701H439Z"  />
<glyph unicode="&#xF4;" horiz-adv-x="548" d="M279 502Q334 502 378 484T454 432T501 352T518 250Q518 179 497 130T440 50T361 4T273 -10Q220 -10 175 7T98 57T48 137T30 243Q30 304 48 352T99 433T177 484T279 502ZM276 378Q256 378 243 367T221 337T210 294T206 246Q206 188 222 151T277 114Q309 114 325 151T342 246Q342 271 339 295T327 337T307 367T276 378ZM333 701L430 550H320L276 632H274L230 550H119L217 701H333Z"  />
<glyph unicode="&#xF5;" horiz-adv-x="548" d="M279 502Q334 502 378 484T454 432T501 352T518 250Q518 179 497 130T440 50T361 4T273 -10Q220 -10 175 7T98 57T48 137T30 243Q30 304 48 352T99 433T177 484T279 502ZM276 378Q256 378 243 367T221 337T210 294T206 246Q206 188 222 151T277 114Q309 114 325 151T342 246Q342 271 339 295T327 337T307 367T276 378ZM130 554Q128 619 150 656T214 693Q234 693 249 687T279 673Q290 666 300 661T320 655Q331 655 336 663T343 697H419Q420 623 397 593T335 562Q315 562 299 568T268 582Q255 589 248 593T231 598Q209 598 208 554H130Z"  />
<glyph unicode="&#xF6;" horiz-adv-x="548" d="M279 502Q334 502 378 484T454 432T501 352T518 250Q518 179 497 130T440 50T361 4T273 -10Q220 -10 175 7T98 57T48 137T30 243Q30 304 48 352T99 433T177 484T279 502ZM276 378Q256 378 243 367T221 337T210 294T206 246Q206 188 222 151T277 114Q309 114 325 151T342 246Q342 271 339 295T327 337T307 367T276 378ZM170 553Q137 553 115 575T93 630Q93 664 115 685T170 707Q201 707 222 686T243 630Q243 598 222 576T170 553ZM380 553Q348 553 326 575T304 630Q304 664 326 685T380 707Q412 707 433 686T454 630Q454 598 433 576T380 553Z"  />
<glyph unicode="&#xF7;" horiz-adv-x="596" d="M298 363Q263 363 243 384T222 441Q222 476 243 497T298 519Q333 519 353 498T375 441Q375 406 355 385T298 363ZM40 215V319H556V215H40ZM298 15Q263 15 243 36T222 93Q222 128 243 149T298 171Q333 171 353 150T375 93Q375 58 355 37T298 15Z"  />
<glyph unicode="&#xF8;" horiz-adv-x="548" d="M274 502Q336 502 384 480L428 548L489 508L443 437Q479 404 498 356T518 247Q518 178 496 129T440 50T362 5T275 -10Q246 -10 219 -5T168 12L122 -58L63 -15L107 53Q70 85 50 133T30 245Q30 305 48 352T98 433T175 484T274 502ZM312 363Q304 370 295 374T273 378Q250 378 235 366T210 334T197 291T193 246Q193 232 194 219T200 193L203 191L312 363ZM239 130Q251 114 275 114Q314 114 334 149T354 239Q354 253 353 267T349 294H346L239 130Z"  />
<glyph unicode="&#xF9;" horiz-adv-x="561" d="M508 164Q508 116 509 75T512 0H363L355 61H352Q344 50 333 38T304 15T264 -3T212 -10Q132 -10 91 42T50 201V492H222V226Q222 179 236 155T279 130Q299 130 311 141T329 165Q335 177 335 196V492H508V164ZM271 701L350 550H236L120 701H271Z"  />
<glyph unicode="&#xFA;" horiz-adv-x="561" d="M508 164Q508 116 509 75T512 0H363L355 61H352Q344 50 333 38T304 15T264 -3T212 -10Q132 -10 91 42T50 201V492H222V226Q222 179 236 155T279 130Q299 130 311 141T329 165Q335 177 335 196V492H508V164ZM446 701L331 550H216L295 701H446Z"  />
<glyph unicode="&#xFB;" horiz-adv-x="561" d="M508 164Q508 116 509 75T512 0H363L355 61H352Q344 50 333 38T304 15T264 -3T212 -10Q132 -10 91 42T50 201V492H222V226Q222 179 236 155T279 130Q299 130 311 141T329 165Q335 177 335 196V492H508V164ZM340 701L437 550H327L283 632H281L237 550H125L223 701H340Z"  />
<glyph unicode="&#xFC;" horiz-adv-x="561" d="M508 164Q508 116 509 75T512 0H363L355 61H352Q344 50 333 38T304 15T264 -3T212 -10Q132 -10 91 42T50 201V492H222V226Q222 179 236 155T279 130Q299 130 311 141T329 165Q335 177 335 196V492H508V164ZM180 553Q147 553 125 575T103 630Q103 664 125 685T180 707Q211 707 232 686T253 630Q253 598 232 576T180 553ZM390 553Q358 553 336 575T314 630Q314 664 336 685T390 707Q422 707 443 686T464 630Q464 598 443 576T390 553Z"  />
<glyph unicode="&#xFD;" horiz-adv-x="505" d="M194 492L247 264Q252 244 257 222T266 180H269Q273 199 276 221T284 263L325 492H505L398 151Q377 88 358 41T320 -41T283 -101T245 -145Q205 -183 164 -199T94 -219L54 -73Q83 -67 116 -50Q133 -42 147 -30T169 -4Q173 1 175 6T178 17Q178 27 171 41L4 492H194ZM428 701L313 550H198L277 701H428Z"  />
<glyph unicode="&#xFE;" horiz-adv-x="567" d="M223 705V437H225Q244 466 275 484T351 502Q390 503 423 485T482 434T522 354T537 248Q537 181 519 132T471 52T407 5T337 -10Q295 -10 268 5T226 40H224V-196H51V705H223ZM224 197Q224 184 227 171T238 149Q247 138 259 131T286 124Q323 124 343 157T363 246Q363 301 344 333T291 365Q253 365 234 332Q229 325 227 315T224 294V197Z"  />
<glyph unicode="&#xFF;" horiz-adv-x="504" d="M194 492L247 264Q252 244 257 222T266 180H269Q273 199 276 221T284 263L325 492H505L398 151Q377 88 358 41T320 -41T283 -101T245 -145Q205 -183 164 -199T94 -219L54 -73Q83 -67 116 -50Q133 -42 147 -30T169 -4Q173 1 175 6T178 17Q178 27 171 41L4 492H194ZM157 553Q125 553 103 575T80 630Q80 664 102 685T157 707Q188 707 209 686T230 630Q230 598 210 576T157 553ZM368 553Q335 553 314 575T292 630Q292 664 314 685T368 707Q400 707 421 686T442 630Q442 598 421 576T368 553Z"  />
<glyph unicode="&#x152;" horiz-adv-x="868" d="M830 0H472Q460 0 447 -1T418 -5Q403 -7 386 -8T348 -10Q261 -10 201 19T102 96T47 205T30 333Q30 408 51 472T113 583T213 657T350 684Q373 684 392 683T428 679Q445 677 458 676T483 674H817V531H591V417H805V276H591V143H830V0ZM419 532Q408 537 393 540T361 544Q332 544 306 532T258 495T225 430T212 338Q211 242 252 186T369 130Q397 130 419 140V532Z"  />
<glyph unicode="&#x153;" horiz-adv-x="817" d="M504 187Q509 155 542 136T620 117Q660 117 689 123T746 140L768 25Q747 14 724 7T678 -4T634 -9T596 -10Q547 -10 503 5T426 64H424Q394 26 349 8T256 -10Q208 -10 167 7T96 57T48 137T30 245Q30 305 48 352T98 433T174 484T269 502Q314 502 356 484T423 427H425Q455 465 496 483T586 502Q638 502 676 483T740 431T778 353T791 254Q791 232 790 214T786 187H504ZM276 378Q255 378 242 366T220 335T209 293T206 246Q206 188 222 151T275 114Q311 114 326 151T342 247Q342 273 339 296T327 338T307 367T276 378ZM633 300Q633 312 631 327T623 355T604 376T570 385Q552 385 540 377T519 355T507 328T503 300H633Z"  />
<glyph unicode="&#x160;" horiz-adv-x="515" d="M65 172Q93 158 135 147T222 135Q268 135 290 150T312 192Q312 218 289 235T211 275Q41 346 41 474Q41 517 58 555T107 622T188 666T298 683Q352 683 391 674T459 652L426 511Q406 520 374 530T297 540Q256 540 236 526T215 488Q215 476 221 466T240 447T274 428T326 405Q411 370 448 320T486 205Q486 160 469 121T418 53T332 8T214 -9Q158 -9 110 2T35 27L65 172ZM202 710L108 833H225L266 777H268L309 833H425L332 710H202Z"  />
<glyph unicode="&#x161;" horiz-adv-x="417" d="M55 146Q64 140 79 134T110 123T145 115T178 112Q229 112 229 141Q229 155 217 164T168 187Q130 201 105 218T64 255T43 294T37 334Q37 370 51 401T91 454T154 489T237 502Q279 502 313 495T371 476L344 357Q327 365 301 373T247 381Q200 381 200 352Q200 340 213 331T268 305Q337 279 364 241T392 154Q392 81 338 36T179 -9Q133 -9 93 0T26 24L55 146ZM151 550L54 701H164L208 620H210L254 701H366L268 550H151Z"  />
<glyph unicode="&#x178;" horiz-adv-x="562" d="M190 0V264L-3 674H191L244 521Q256 486 265 456T284 392H286Q302 453 324 522L372 674H562L363 271V0H190ZM184 709Q153 709 132 731T110 784Q110 816 131 837T184 859Q213 859 234 838T255 784Q255 754 234 732T184 709ZM394 709Q362 709 341 731T320 784Q320 816 341 837T394 859Q424 859 445 838T466 784Q466 754 445 732T394 709Z"  />
<glyph unicode="&#x17D;" horiz-adv-x="531" d="M16 94L287 526V529H42V674H503V567L242 148V145H506V0H16V94ZM207 710L113 833H230L271 777H273L314 833H430L337 710H207Z"  />
<glyph unicode="&#x17E;" horiz-adv-x="450" d="M22 101L142 263Q162 288 180 310T215 352V354H37V492H420V385L307 232Q287 207 268 184T230 140V138H428V0H22V101ZM172 550L75 701H185L229 620H231L275 701H387L289 550H172Z"  />
<glyph unicode="&#x192;" horiz-adv-x="534" d="M103 411H184L187 443Q190 471 201 508T237 579T303 636T409 660Q434 660 455 656T491 645L466 522Q447 529 424 529Q392 529 376 509T354 452L349 411H442V289H337L318 123Q313 80 302 42T269 -26T209 -72T117 -89Q88 -89 64 -84T27 -73L50 48Q68 41 91 41Q105 41 115 45T134 61T147 97T158 159L172 289H103V411Z"  />
<glyph unicode="&#x2C6;" horiz-adv-x="300" d="M209 701L306 550H196L152 632H150L106 550H-5L93 701H209Z"  />
<glyph unicode="&#x2DC;" horiz-adv-x="300" d="M6 554Q4 619 26 656T90 693Q110 693 125 687T155 673Q166 666 176 661T196 655Q207 655 212 663T219 697H295Q296 623 273 593T211 562Q191 562 175 568T144 582Q131 589 124 593T107 598Q85 598 84 554H6Z"  />
<glyph unicode="&#x2013;" horiz-adv-x="500" d="M470 309V202H30V309H470Z"  />
<glyph unicode="&#x2014;" horiz-adv-x="1000" d="M970 309V202H30V309H970Z"  />
<glyph unicode="&#x2018;" horiz-adv-x="257" d="M17 397Q42 473 74 541T146 676L244 684Q218 612 200 544T170 406L17 397Z"  />
<glyph unicode="&#x2019;" horiz-adv-x="257" d="M242 684Q217 608 185 540T113 406L14 397Q40 469 58 538T88 676L242 684Z"  />
<glyph unicode="&#x201A;" horiz-adv-x="257" d="M9 -100Q35 -28 53 40T83 178L236 187Q211 111 179 43T108 -91L9 -100Z"  />
<glyph unicode="&#x201C;" horiz-adv-x="453" d="M14 397Q39 473 71 541T143 676L242 684Q216 612 198 544T168 406L14 397ZM215 397Q240 473 272 541T344 676L442 684Q417 612 399 544T369 406L215 397Z"  />
<glyph unicode="&#x201D;" horiz-adv-x="453" d="M239 684Q214 608 182 540T110 406L12 397Q38 469 56 538T86 676L239 684ZM440 684Q415 608 383 540T311 406L213 397Q238 469 256 538T286 676L440 684Z"  />
<glyph unicode="&#x201E;" horiz-adv-x="457" d="M7 -100Q32 -28 50 40T80 178L234 187Q209 111 177 43T105 -91L7 -100ZM207 -100Q233 -28 251 40T281 178L435 187Q410 111 378 43T306 -91L207 -100Z"  />
<glyph unicode="&#x2020;" horiz-adv-x="507" d="M330 674L317 481L476 492V359L317 371L330 -50H178L191 371L31 359V492L191 481L178 674H330Z"  />
<glyph unicode="&#x2021;" horiz-adv-x="507" d="M329 674L318 497L476 508V375L318 386V244L476 256V122L318 133L329 -50H178L188 133L31 122V256L189 244V386L31 375V508L189 497L178 674H329Z"  />
<glyph unicode="&#x2022;" horiz-adv-x="344" d="M172 130Q144 130 120 140T78 167T50 209T40 263Q40 292 50 317T78 360T120 388T172 398Q199 398 223 388T265 360T293 318T304 264Q304 235 294 211T266 168T224 140T172 130Z"  />
<glyph unicode="&#x2026;" horiz-adv-x="1000" d="M166 -10Q124 -10 96 18T68 93Q68 139 96 168T166 197Q209 197 236 169T264 93Q264 47 238 19T166 -10ZM500 -10Q458 -10 430 18T402 93Q402 139 430 168T500 197Q543 197 570 169T598 93Q598 47 572 19T500 -10ZM834 -10Q792 -10 764 18T736 93Q736 139 764 168T834 197Q877 197 904 169T932 93Q932 47 906 19T834 -10Z"  />
<glyph unicode="&#x2030;" horiz-adv-x="1228" d="M650 392Q694 392 726 376T778 332T809 269T819 198Q819 147 805 109T766 44T711 4T646 -9Q607 -9 575 6T521 48T486 111T474 188Q474 228 485 264T519 329T575 375T650 392ZM648 301Q621 301 609 272T597 192Q596 138 609 110T649 82Q697 82 697 191Q697 242 686 271T648 301ZM1036 392Q1080 392 1112 376T1164 332T1195 269T1205 198Q1205 147 1191 109T1152 44T1097 4T1032 -9Q993 -9 962 6T908 48T873 111T861 188Q861 228 872 264T906 329T961 375T1036 392ZM1034 301Q1008 301 996 272T983 192Q983 138 996 110T1035 82Q1083 82 1083 191Q1083 242 1072 271T1034 301ZM197 660Q241 660 273 644T326 600T357 537T367 466Q367 415 353 377T314 312T259 273T194 260Q155 260 123 275T69 317T34 380T22 457Q22 496 33 533T67 598T122 643T197 660ZM195 569Q169 569 157 540T144 460Q144 407 157 379T196 351Q244 351 244 460Q244 510 233 539T195 569ZM194 -10L559 660H646L282 -10H194Z"  />
<glyph unicode="&#x2039;" horiz-adv-x="261" d="M134 252L246 60H129L21 252L129 444H246L134 252Z"  />
<glyph unicode="&#x203A;" horiz-adv-x="261" d="M15 444H131L240 252L131 60H15L127 252L15 444Z"  />
<glyph unicode="&#x20AC;" horiz-adv-x="534" d="M503 22Q480 11 442 1T360 -10Q291 -10 230 17T127 100Q87 150 72 227H10V306H62V322Q62 329 62 335T63 348H10V427H74Q82 463 97 493T132 550Q174 603 232 631T364 660Q406 660 441 653T502 634L473 501Q456 508 431 515T376 522Q345 522 318 511T270 470Q264 462 260 451T250 427H459V348H235Q234 341 234 334T234 319V306H459V227H248Q252 210 258 198T272 175Q292 151 320 141T381 131Q409 131 437 138T480 153L503 22Z"  />
<glyph unicode="&#x2122;" horiz-adv-x="630" d="M254 674V598H186V401H92V598H25V674H254ZM532 401L529 503Q529 529 529 558T529 622H524Q518 587 513 558T503 505L485 406H399L387 505Q384 527 381 559T372 622H367Q366 590 366 560T364 503L360 401H275L289 674H431L437 636Q439 618 442 599T450 540H451Q456 568 460 590T469 636L477 674H608L620 401H532Z"  />


</font>
</defs>
<text x="40" y="40" font-family="Myriad W01 Black Sm Cnd" font-size="30" fill="#933" >ABCDEFGHIJKLMNOPQRSTUVWXYZ abcdefghijklmnopqrstuvwxyz AÁÀÂÄÅÃÆ CÇ DÐ EÉÈÊË I Í Ì Î Ï NÑ</text>
<text x="40" y="80" font-family="Myriad W01 Black Sm Cnd" font-size="30" fill="#933" >OÓÒÔÖÕØŒ SŠ UÚÙÛÜ YÝŸ ZŽ Þ aáàâäåãæ cç dð eéèêë i ı í ì î ï nñ oóòôöõøœ sšß uúùûü yýÿ zž</text>
<text x="40" y="120" font-family="Myriad W01 Black Sm Cnd" font-size="30" fill="#933" >þ 1234567890 ½ ¼ ¾ % ‰ $¢£¥ƒ€¤ † ‡ § ¶ # ^~µ +×± &lt; = &gt; ÷¬ !¡?¿ &quot; &amp; &apos; * ° . , : ; () [ \ ] {} / |</text>
<text x="40" y="160" font-family="Myriad W01 Black Sm Cnd" font-size="30" fill="#933" >¦ _ ‚ „ … ‹› «» ‘ ’ “ ” • ­ - – — @ © ® ™ ªº ¹²³ ´ ` ˆ ˜ ¨ ¯ · ¸</text>
</svg>
