<?xml  version="1.0" encoding="UTF-8"?>
<!DOCTYPE svg PUBLIC "-//W3C//DTD SVG 1.0//EN" "http://www.w3.org/TR/2001/REC-SVG-20010904/DTD/svg10.dtd" >
<svg xmlns="http://www.w3.org/2000/svg" >
<metadata>
<version>1.0</version>
<id><![CDATA[Myriad W01 Bd Cnd It]]></id>
<vendor>Monotype Imaging Inc.</vendor>
<credits>
<name>Fonts.com WebFonts</name>
<URL>http://webfonts.fonts.com</URL>
<role>Home of the Web fonts</role>
</credits>
<license>
<URL>http://webfonts.fonts.com/Legal</URL>
</license>
<copyright><![CDATA[© 1992, 1994, 1997, 2000, 2004 Adobe Systems Incorporated. All rights reserved.]]></copyright>
<trademark><![CDATA[Myriad is either a registered trademark or a trademark of Adobe Systems Incorporated in the United States and/or other countries.]]></trademark>
<licensee>
<name></name>
</licensee>
</metadata>
<defs >
<font horiz-adv-x="403" id="f7006adb-c3c7-4e07-b020-ec556658e45a">
<font-face font-family="Myriad W01 Bd Cnd It" panose-1="2 11 7 6 3 4 3 9 2 4" ascent="865" descent="-250" units-per-em="1000" alphabetic="0">
</font-face>
<missing-glyph horiz-adv-x="142" />

<glyph unicode="&#xA;" horiz-adv-x="0" />
<glyph unicode="&#xD;" horiz-adv-x="142" />
<glyph unicode=" " horiz-adv-x="142" />
<glyph unicode="!" horiz-adv-x="236" d="M58 219L130 674H271L167 219H58ZM79 -8Q46 -8 28 14T10 68Q10 83 16 98T33 126T58 146T88 154Q123 154 141 132T160 80Q160 41 136 17T79 -8Z"  />
<glyph unicode="&quot;" horiz-adv-x="316" d="M212 682L150 422H79L108 682H212ZM373 682L310 422H240L269 682H373Z"  />
<glyph unicode="#" horiz-adv-x="429" d="M247 266L283 389H212L175 266H247ZM20 0L82 196H10L24 266H104L142 389H66L79 458H163L222 650H293L234 458H305L365 650H436L376 458H448L434 389H354L318 266H393L380 197H296L235 0H163L225 197H153L92 0H20Z"  />
<glyph unicode="$" horiz-adv-x="429" d="M100 -85L121 17Q91 19 65 26T25 41L55 136Q75 127 96 120T146 113Q192 113 214 138T237 195Q237 227 224 248T183 293Q133 336 115 374T96 453Q96 480 105 508T133 560T181 603T252 629L268 725H343L325 633Q348 632 370 626T406 611L374 518Q358 526 340 531T299 537Q263 537 241 516T218 464Q218 440 230 419T280 367Q326 331 341 292T357 216Q357 175 345 141T311 82T259 40T194 20L175 -85H100Z"  />
<glyph unicode="%" horiz-adv-x="670" d="M217 657Q249 657 270 645T303 615T321 573T326 527Q326 472 313 423T277 338T223 280T157 259Q103 259 75 295T46 395Q46 441 58 488T92 572T146 633T217 657ZM211 589Q190 589 175 564T151 506T137 437T132 383Q132 327 162 327Q176 327 187 340T207 374T222 420T232 468T238 511T240 539Q240 558 235 573T211 589ZM75 -8L548 658H617L145 -8H75ZM543 393Q575 393 596 381T629 351T647 309T652 263Q652 208 639 159T603 74T549 16T483 -5Q429 -5 401 31T372 131Q372 177 384 224T418 308T472 369T543 393ZM537 325Q516 325 501 300T476 242T462 174T457 120Q457 63 488 63Q502 63 513 76T533 110T548 156T558 204T564 247T566 275Q566 294 561 309T537 325Z"  />
<glyph unicode="&amp;" horiz-adv-x="526" d="M342 0Q336 11 330 20T318 43Q286 18 250 5T168 -8Q128 -8 98 5T46 41T15 91T4 151Q4 191 16 223T48 282T95 329T155 368V371Q136 409 130 438T124 491Q124 535 139 570T179 630T238 668T308 682Q348 682 375 670T418 638T442 594T449 547Q449 494 413 443T291 344V339Q299 324 309 305T328 265T348 227T366 195Q389 233 403 277T428 359H531Q514 290 481 225T406 116Q417 96 434 66T474 0H342ZM200 84Q224 84 244 93T279 117Q258 153 234 200T191 291Q165 274 145 244T125 171Q125 133 146 109T200 84ZM300 601Q285 601 274 593T254 570T242 538T237 500Q237 474 242 455T256 418Q294 443 317 477T340 550Q340 573 332 587T300 601Z"  />
<glyph unicode="&apos;" horiz-adv-x="155" d="M212 682L150 422H79L108 682H212Z"  />
<glyph unicode="(" horiz-adv-x="258" d="M347 692Q309 653 273 598T208 474T162 326T144 158Q144 83 152 16T189 -120H101Q72 -62 59 8T45 158Q45 251 64 333T114 484T180 605T249 692H347Z"  />
<glyph unicode=")" horiz-adv-x="258" d="M-78 -120Q-42 -81 -6 -25T59 99T106 248T124 418Q124 493 117 559T80 692H172Q199 635 211 566T224 418Q224 324 205 241T156 90T91 -32T24 -120H-78Z"  />
<glyph unicode="*" horiz-adv-x="377" d="M388 634L277 519L278 516L419 546L402 446L269 477L268 474L360 359L267 314L228 458L225 455L164 311L84 364L197 479L194 480L55 446L72 546L200 516L202 519L114 636L206 681L244 540H247L302 682L388 634Z"  />
<glyph unicode="+" horiz-adv-x="596" d="M345 532V308H561V226H345V0H260V226H45V308H260V532H345Z"  />
<glyph unicode="&#x2c;" horiz-adv-x="225" d="M-63 -125Q-47 -94 -30 -60T2 9T31 77T55 141L188 151Q172 117 154 82T114 11T72 -56T28 -116L-63 -125Z"  />
<glyph unicode="-" horiz-adv-x="259" d="M245 323L227 229H28L46 323H245Z"  />
<glyph unicode="." horiz-adv-x="225" d="M87 -8Q52 -8 33 15T14 73Q14 91 20 107T38 137T63 158T95 166Q132 166 151 144T170 86Q170 42 145 17T87 -8Z"  />
<glyph unicode="/" horiz-adv-x="280" d="M-79 -40L294 682H386L13 -40H-79Z"  />
<glyph unicode="0" horiz-adv-x="429" d="M288 658Q336 658 364 638T408 588T428 524T433 461Q433 414 427 361T408 256T374 156T326 72T261 14T178 -8Q133 -8 105 11T62 59T40 124T34 194Q34 276 51 359T100 508T179 616T288 658ZM276 552Q256 552 239 531T209 475T185 399T168 316T158 240T154 183Q154 142 163 120T195 98Q214 98 230 121T260 180T283 261T299 348T308 426T312 480Q312 512 304 532T276 552Z"  />
<glyph unicode="1" horiz-adv-x="429" d="M230 530H228L118 477L116 577L267 650H376L252 0H129L230 530Z"  />
<glyph unicode="2" horiz-adv-x="429" d="M-8 0L7 88L80 169Q117 210 153 251T219 331T265 407T283 478Q283 510 267 531T209 553Q180 553 159 545T123 528L111 623Q137 637 172 647T248 658Q297 658 328 643T377 605T400 555T407 504Q407 451 388 403T338 311T270 228T199 152L163 113V111H355L335 0H-8Z"  />
<glyph unicode="3" horiz-adv-x="429" d="M38 117Q55 110 74 106T117 101Q169 101 201 130T233 207Q233 231 225 248T204 276T172 292T135 297H117L135 395H148Q165 395 185 400T223 416T253 444T265 487Q265 515 247 531T195 548Q175 548 157 543T125 531L126 635Q142 643 172 650T239 658Q284 658 314 646T362 613T388 567T396 518Q396 486 386 460T360 412T322 375T278 351L277 349Q316 332 337 295T359 212Q359 164 342 124T292 54T216 9T119 -8Q82 -8 51 -2T6 12L38 117Z"  />
<glyph unicode="4" horiz-adv-x="429" d="M190 0L222 160H9L24 246L303 650H423L348 257H414L396 160H330L299 0H190ZM240 257L264 381Q271 412 279 444T295 507H292Q272 475 257 448T224 395L133 259L132 257H240Z"  />
<glyph unicode="5" horiz-adv-x="429" d="M406 539H252L219 418Q221 419 224 419Q244 419 273 408T326 368Q347 344 356 314T365 246Q365 193 346 147T293 66T211 12T107 -8Q72 -8 47 -3T8 10L39 115Q53 108 70 104T111 100Q138 100 161 109T203 134T231 174T242 225Q242 252 233 271T209 302T173 319T129 324Q118 324 109 324T87 322L171 650H429L406 539Z"  />
<glyph unicode="6" horiz-adv-x="429" d="M397 551Q388 551 380 550T362 546Q302 532 257 490T183 378H187Q206 400 231 412T284 424Q317 424 339 410T375 373T395 325T401 276Q401 221 386 170T342 80T273 16T184 -8Q140 -8 111 9T63 55T38 120T30 192Q30 255 44 311T80 415T130 500T185 563Q229 603 278 625T379 655Q392 657 399 657T415 658L397 551ZM192 83Q216 83 232 102T258 149T272 209T277 267Q277 294 267 313T231 332Q211 332 191 315T160 270Q158 265 157 260T154 250Q149 222 148 203T147 166Q147 150 149 135T156 109T170 90T192 83Z"  />
<glyph unicode="7" horiz-adv-x="429" d="M453 650L437 564Q363 422 290 282T140 0H15Q88 135 160 268T304 537L305 539H94L115 650H453Z"  />
<glyph unicode="8" horiz-adv-x="429" d="M278 658Q317 658 346 647T394 616T423 569T433 512Q433 461 405 419T320 345V342Q357 311 374 274T392 196Q392 149 374 111T327 47T260 6T184 -8Q101 -8 57 37T13 152Q13 189 24 219T54 274T96 316T141 348L142 350Q110 380 99 411T87 474Q87 514 102 547T143 605T204 644T278 658ZM189 75Q207 75 221 84T247 108T264 145T270 191Q270 229 255 254T212 297Q199 288 185 275T160 244T142 205T134 159Q134 124 146 100T189 75ZM271 576Q257 576 245 568T223 547T208 515T202 476Q202 445 213 426T248 389Q286 412 302 445T318 513Q318 543 307 559T271 576Z"  />
<glyph unicode="9" horiz-adv-x="429" d="M62 101Q74 101 86 102T112 106Q131 110 152 120T191 145Q218 167 241 199T281 272H279Q262 255 238 246T188 236Q156 236 133 249T94 283T72 330T64 385Q64 436 81 485T127 573T196 634T282 658Q328 658 358 641T405 597T428 538T434 476Q433 406 419 345T381 233T329 143T272 79Q237 47 192 25T98 -5Q85 -7 75 -7T44 -8L62 101ZM273 567Q252 567 236 550T210 506T194 451T188 398Q188 362 200 343T234 323Q255 323 270 337T293 364Q297 370 300 381T308 419Q312 435 314 455T316 494Q316 526 307 546T273 567Z"  />
<glyph unicode=":" horiz-adv-x="225" d="M150 320Q116 320 98 342T80 397Q80 413 86 429T103 457T128 478T158 486Q193 486 211 464T230 410Q230 370 206 345T150 320ZM87 -8Q53 -8 35 14T17 69Q17 85 23 101T40 129T65 150T95 158Q130 158 148 136T167 82Q167 41 143 17T87 -8Z"  />
<glyph unicode=";" horiz-adv-x="225" d="M-63 -125Q-47 -94 -30 -60T3 9T32 77T56 141L185 151Q169 117 151 82T111 11T69 -56T25 -116L-63 -125ZM151 320Q118 320 100 342T81 397Q81 413 87 429T105 457T130 478T160 486Q195 486 213 464T232 410Q232 370 208 345T151 320Z"  />
<glyph unicode="&lt;" horiz-adv-x="596" d="M63 297L543 532V430L191 266V264L543 101V0L63 235V297Z"  />
<glyph unicode="=" horiz-adv-x="596" d="M54 320V402H570V320H54ZM54 133V215H570V133H54Z"  />
<glyph unicode="&gt;" horiz-adv-x="596" d="M554 222L73 0V99L457 265V267L73 433V532L554 310V222Z"  />
<glyph unicode="?" horiz-adv-x="325" d="M84 211Q85 216 85 220T86 229Q90 273 111 314T169 400Q194 431 213 459T232 519Q232 544 219 558T176 573Q159 573 140 569T106 554L102 654Q120 665 152 673T219 682Q267 682 295 668T339 634T360 592T365 551Q365 521 355 493T330 440T298 394T267 355Q241 323 225 295T202 232Q200 227 200 222T197 211H84ZM109 -8Q77 -8 59 14T41 68Q41 83 47 98T64 126T89 146T119 154Q155 154 173 132T192 80Q192 41 167 17T109 -8Z"  />
<glyph unicode="@" horiz-adv-x="616" d="M375 362Q366 367 349 367Q331 367 314 354T282 317T258 261T249 190Q249 164 257 149T284 134Q296 134 306 142T326 165T342 196T352 232L375 362ZM445 -58Q405 -81 367 -89T286 -98Q238 -98 193 -79T113 -23T56 71T35 201Q35 276 58 346T123 471T225 559T358 592Q418 592 463 571T537 514T580 432T595 334Q595 203 553 134T437 65Q399 65 382 87T363 150H361Q343 109 314 87T251 65Q211 65 188 97T165 185Q165 232 179 276T219 353T284 407T372 428Q397 428 422 422T464 407L431 223Q421 169 428 145T459 120Q474 120 488 132T515 170T534 232T541 320Q541 368 530 409T496 481T436 529T348 547Q298 547 252 522T169 452T111 343T89 201Q89 137 105 90T149 11T216 -36T300 -52Q335 -52 367 -43T430 -16L445 -58Z"  />
<glyph unicode="A" horiz-adv-x="445" d="M145 157L86 0H-36L237 674H383L389 0H268L270 157H145ZM274 248L277 397Q277 412 278 432T280 475T282 519T283 560H281Q275 541 268 519T254 474T241 432T229 398L175 248H274Z"  />
<glyph unicode="B" horiz-adv-x="467" d="M140 665Q166 670 199 673T270 677Q311 677 352 668T422 630Q444 610 453 583T463 523Q463 492 453 465T426 415T385 377T334 352V348Q359 339 376 324T403 290T418 248T423 204Q423 159 403 121T351 56Q315 27 264 12T140 -3Q92 -3 65 -1T15 6L140 665ZM210 402H228Q282 402 312 432T342 512Q342 525 339 538T328 561T308 578T277 585Q268 585 259 585T243 582L210 402ZM150 97Q157 95 165 95T181 95Q235 95 267 129T300 216Q300 259 279 284T214 310H192L150 97Z"  />
<glyph unicode="C" horiz-adv-x="384" d="M326 7Q296 -6 234 -6Q170 -6 132 19T72 80T45 155T38 224Q38 347 72 441T167 595Q211 640 263 660T367 680Q393 680 415 676T444 666L409 557Q389 566 351 566Q325 566 298 551T250 510Q215 466 193 400T171 252Q171 187 191 147T262 107Q280 107 299 110T331 118L326 7Z"  />
<glyph unicode="D" horiz-adv-x="481" d="M140 665Q166 670 199 673T269 677Q330 677 370 658T435 608Q464 573 474 529T485 433Q485 369 472 311T439 204T392 119T340 61Q299 26 251 12T136 -3Q107 -3 73 0T16 10L140 665ZM154 106Q160 105 168 104T187 103Q218 103 249 127T303 196Q327 244 342 306T357 446Q357 470 353 493T339 535T313 564T273 576Q264 576 257 576T245 574L154 106Z"  />
<glyph unicode="E" horiz-adv-x="387" d="M345 298H197L160 111H330L308 0H14L143 674H425L403 564H248L215 404H366L345 298Z"  />
<glyph unicode="F" horiz-adv-x="385" d="M143 674H425L403 564H248L213 385H360L340 280H194L140 0H14L143 674Z"  />
<glyph unicode="G" horiz-adv-x="469" d="M386 19Q358 8 325 1T253 -6Q193 -6 154 12T89 64Q64 95 52 140T39 232Q39 337 72 429T166 587Q209 632 265 656T385 680Q427 680 452 674T492 662L452 552Q440 557 420 561T379 566Q344 566 317 555T267 521Q246 500 229 471T199 404T179 324T171 234Q171 171 191 137T252 102Q273 102 288 106L319 273H258L279 374H453L386 19Z"  />
<glyph unicode="H" horiz-adv-x="506" d="M268 674L215 400H352L404 674H529L400 0H276L328 286H193L139 0H14L143 674H268Z"  />
<glyph unicode="I" horiz-adv-x="245" d="M268 674L139 0H14L143 674H268Z"  />
<glyph unicode="J" horiz-adv-x="286" d="M-22 110Q-2 106 24 106Q53 106 73 127T102 197L194 674H319L228 201Q216 140 198 100T154 36T95 2T19 -8Q-1 -8 -17 -6T-42 -1L-22 110Z"  />
<glyph unicode="K" horiz-adv-x="443" d="M143 674H265L204 358H207Q223 390 236 413T263 459L389 674H525L321 376L398 0H267L224 286L180 225L136 0H14L143 674Z"  />
<glyph unicode="L" horiz-adv-x="351" d="M143 674H268L160 109H324L303 0H14L143 674Z"  />
<glyph unicode="M" horiz-adv-x="623" d="M431 0L467 264Q472 306 481 360T503 480H499Q477 414 456 359T419 268L309 11H220L208 271Q206 305 205 359T205 480H203Q190 414 179 360T157 264L95 0H-13L158 674H291L303 354Q305 316 306 269T305 185H307Q312 203 319 224T334 268T350 313T366 354L495 674H628L540 0H431Z"  />
<glyph unicode="N" horiz-adv-x="503" d="M14 0L143 674H257L309 406Q322 339 330 289T342 197H344Q351 253 360 333T386 499L419 674H527L398 0H291L237 251Q229 286 224 313T215 366T209 417T203 475H201Q194 424 183 346T155 179L121 0H14Z"  />
<glyph unicode="O" horiz-adv-x="481" d="M321 682Q376 682 408 660T458 605T480 535T485 468Q485 414 477 356T451 242T408 138T349 56Q317 24 281 8T200 -8Q145 -8 112 16T62 74T39 146T33 212Q33 263 42 320T68 433T112 537T173 620Q203 649 239 665T321 682ZM304 572Q280 572 259 551Q236 527 218 484T188 390T169 288T162 200Q162 186 163 169T171 137T188 112T219 102Q242 102 260 122Q277 138 290 166T314 227T333 297T346 368T353 431T356 478Q356 494 355 511T348 541T332 563T304 572Z"  />
<glyph unicode="P" horiz-adv-x="449" d="M141 665Q172 670 208 673T276 677Q293 677 313 675T354 667T395 651T430 623Q452 600 462 567T472 507Q472 472 465 441T445 385T417 339T385 305Q350 275 304 261T215 246Q207 246 199 246T183 247L136 0H14L141 665ZM203 350Q209 349 215 349T227 349Q261 349 284 364T320 401T340 450T346 498Q346 532 330 553T276 575Q256 575 246 572L203 350Z"  />
<glyph unicode="Q" horiz-adv-x="481" d="M374 -103Q348 -92 324 -80T277 -56T238 -34T209 -18Q198 -11 195 -10T188 -8Q148 -6 119 11T71 58T43 127T33 214Q33 263 41 319T67 429T110 532T172 617Q203 648 239 665T318 682Q360 682 389 669T436 636T465 590T479 541T484 497T485 465Q485 418 477 362T452 252T413 150T359 72Q350 63 340 55T317 41L316 37Q345 23 374 13T436 -9L374 -103ZM302 572Q278 572 257 551Q232 526 214 479T184 380T167 277T161 194Q161 177 163 160T173 130T191 109T220 101Q239 101 257 119Q273 135 286 162T310 223T329 293T344 365T353 431T356 483Q356 494 355 509T349 538T332 562T302 572Z"  />
<glyph unicode="R" horiz-adv-x="459" d="M141 665Q173 670 207 673T275 677Q319 677 358 667T424 631Q445 610 456 582T468 520Q468 483 458 450T429 391T385 345T331 316V314Q359 301 371 271T386 183Q387 155 387 127T389 73T392 29T397 0H271Q270 7 269 22T268 59T267 107T266 161Q266 223 253 246T207 270H186L136 0H14L141 665ZM206 367H235Q259 367 278 378T311 409T332 453T340 505Q340 532 327 555T278 579Q257 579 245 576L206 367Z"  />
<glyph unicode="S" horiz-adv-x="374" d="M28 128Q45 118 69 112T121 105Q164 103 191 127T218 191Q218 225 201 248T151 304Q71 379 71 467Q71 514 87 553T131 620T200 664T291 680Q330 680 355 674T392 659L358 551Q343 559 326 564T285 569Q245 569 221 546T195 483Q195 471 198 460T208 437T229 410T262 378Q304 341 323 299T343 216Q343 163 327 122T281 53T211 9T122 -6Q71 -6 40 2T-4 19L28 128Z"  />
<glyph unicode="T" horiz-adv-x="370" d="M180 556H63L86 674H445L422 556H305L199 0H74L180 556Z"  />
<glyph unicode="U" horiz-adv-x="486" d="M262 674L178 236Q169 191 169 162Q169 133 182 118T219 103Q249 103 270 129T305 231L390 674H515L434 249Q422 188 404 140T359 59T294 9T205 -8Q122 -8 84 34T45 151Q45 173 48 199T57 257L136 674H262Z"  />
<glyph unicode="V" horiz-adv-x="433" d="M97 0L76 674H215L206 333Q205 310 204 285T202 234T199 185T196 142H198Q203 161 210 185T224 234T240 285T256 333L377 674H515L233 0H97Z"  />
<glyph unicode="W" horiz-adv-x="659" d="M67 0L88 674H218L197 371Q192 315 187 262T175 154H178Q191 209 207 258T242 359L359 674H473L462 373Q460 319 456 265T446 154H448Q462 209 476 261T506 364L604 674H727L487 0H355V226Q356 282 359 338T368 446H366Q349 395 329 337T279 210L192 0H67Z"  />
<glyph unicode="X" horiz-adv-x="383" d="M219 0L198 148Q194 178 192 200T188 252H185Q171 220 161 197T136 141L71 0H-56L132 347L81 674H206L221 549Q223 531 224 517T227 489T230 462T232 432H234Q240 449 246 463T257 491T269 519T284 551L341 674H469L282 337L345 0H219Z"  />
<glyph unicode="Y" horiz-adv-x="390" d="M84 0L133 258L67 674H201L215 513Q219 458 219 424T220 369H222Q233 401 246 434T276 505L354 674H485L257 257L209 0H84Z"  />
<glyph unicode="Z" horiz-adv-x="373" d="M-20 81L275 560V562H92L114 674H436L417 572L134 114V112H329L307 0H-34L-20 81Z"  />
<glyph unicode="[" horiz-adv-x="258" d="M-21 -112L131 686H310L294 605H210L88 -31H174L158 -112H-21Z"  />
<glyph unicode="\" horiz-adv-x="280" d="M182 -40L57 682H140L266 -40H182Z"  />
<glyph unicode="]" horiz-adv-x="258" d="M287 686L135 -112H-44L-28 -31H56L178 605H92L108 686H287Z"  />
<glyph unicode="^" horiz-adv-x="596" d="M451 177L299 538H293L141 177H43L255 650H339L550 177H451Z"  />
<glyph unicode="_" horiz-adv-x="500" d="M448 -75L438 -125H-62L-52 -75H448Z"  />
<glyph unicode="`" horiz-adv-x="379" d="M260 687L307 547H225L146 687H260Z"  />
<glyph unicode="a" horiz-adv-x="426" d="M246 0Q247 20 248 40T250 82H247Q218 33 185 13T122 -8Q68 -8 42 33T16 139Q16 176 22 217T43 297T79 373T133 437T206 481T300 497Q337 497 371 492T428 477L374 205Q369 184 366 157T359 101T355 47T354 0H246ZM291 401Q276 404 265 404Q234 404 211 378T171 314T147 236T138 169Q138 137 145 116T175 95Q201 95 223 134T259 240L291 401Z"  />
<glyph unicode="b" horiz-adv-x="434" d="M253 692L200 428H202Q224 460 251 478T314 497Q347 497 366 482T397 446T411 400T415 357Q415 288 397 223T345 106T260 24T145 -8Q20 -8 20 100Q20 120 23 138T28 168L130 692H253ZM149 177Q147 164 146 153T144 128Q144 108 151 96T178 83Q204 83 224 109T258 173T279 251T287 317Q287 349 281 370T250 391Q237 391 225 383T203 361T186 329T174 292L149 177Z"  />
<glyph unicode="c" horiz-adv-x="308" d="M260 7Q249 2 227 -2T173 -6Q132 -6 104 9T56 48T29 104T20 170Q20 236 39 295T94 398T177 469T283 496Q306 496 320 494T344 487L313 385Q293 390 278 390Q251 390 227 373T184 328T156 264T145 188Q145 146 161 121T209 96Q226 96 241 100T269 107L260 7Z"  />
<glyph unicode="d" horiz-adv-x="428" d="M467 692L367 161Q359 122 353 80T342 0H240L246 72H244Q222 34 191 13T127 -8Q73 -8 45 34T16 145Q16 209 32 272T80 385T157 466T259 497Q273 497 284 494T303 486L343 692H467ZM287 391Q275 403 256 403Q229 403 208 378T171 316T148 238T140 167Q140 134 149 115T181 95Q203 95 221 120T250 185L287 391Z"  />
<glyph unicode="e" horiz-adv-x="384" d="M327 21Q295 7 262 1T186 -6Q141 -6 110 8T58 46T29 105T20 178Q20 231 35 287T79 390T152 467T255 497Q288 497 312 486T353 456T377 413T385 364Q385 314 366 279T314 223T237 192T141 184Q140 173 142 157T152 127Q161 112 177 102T220 92Q251 92 274 98T319 116L327 21ZM274 352Q274 373 266 385T239 397Q210 397 187 364T153 278Q178 277 200 281T238 294T264 318T274 352Z"  />
<glyph unicode="f" horiz-adv-x="280" d="M17 0L94 401H29L45 489H111L115 509Q123 553 140 589T189 655Q212 676 243 688T313 700Q337 700 355 697T384 690L356 594Q347 597 338 598T317 600Q300 600 287 592T264 571T248 542T238 510L234 489H329L312 401H219L142 0H17Z"  />
<glyph unicode="g" horiz-adv-x="428" d="M25 -83Q40 -91 62 -97T103 -103Q156 -103 184 -71T223 14L234 73H232Q207 33 179 17T122 1Q96 1 77 12T46 42T27 87T19 141Q18 199 34 262T84 377T168 463T287 497Q329 497 364 489T426 468L347 51Q335 -14 315 -62T263 -142Q233 -172 192 -186T98 -200Q84 -200 69 -199T39 -194T12 -187T-7 -178L25 -83ZM291 395Q280 401 265 401Q238 401 216 378T177 320T152 248T143 178Q143 164 144 150T149 125T160 107T181 100Q196 100 208 111T230 138T246 173T256 207L291 395Z"  />
<glyph unicode="h" horiz-adv-x="443" d="M-1 0L131 692H256L205 429H207Q230 458 260 477T330 497Q377 497 398 468T419 390Q419 369 416 346T407 294L351 0H226L283 294Q285 308 287 326T289 356Q289 374 282 384T259 395Q237 395 213 365T178 279L124 0H-1Z"  />
<glyph unicode="i" horiz-adv-x="218" d="M-1 0L93 489H218L124 0H-1ZM173 548Q143 548 129 567T116 614Q116 627 120 641T134 666T156 684T186 691Q217 691 231 672T245 626Q244 588 223 568T173 548Z"  />
<glyph unicode="j" horiz-adv-x="208" d="M216 489L129 34Q116 -34 104 -70T78 -129Q59 -161 23 -180T-64 -200Q-91 -200 -118 -194L-106 -101Q-100 -102 -94 -102T-81 -103Q-67 -103 -55 -98T-33 -80T-15 -44T1 17L91 489H216ZM170 548Q140 548 126 567T113 614Q113 627 118 641T132 666T153 684T183 691Q214 691 228 672T242 626Q242 588 221 568T170 548Z"  />
<glyph unicode="k" horiz-adv-x="394" d="M0 0L131 692H253L176 287H178Q187 302 196 316T213 345L303 489H437L280 273L354 0H226L182 211L153 169L121 0H0Z"  />
<glyph unicode="l" horiz-adv-x="217" d="M-1 0L131 692H256L124 0H-1Z"  />
<glyph unicode="m" horiz-adv-x="654" d="M-1 0L62 330Q70 373 76 413T88 489H195L190 422H192Q241 497 325 497Q360 497 381 476T407 422Q431 457 465 477T541 497Q587 497 609 468T631 391Q631 375 628 349T619 292L563 0H440L495 290Q499 310 501 328T503 363Q503 378 496 387T473 397Q453 397 429 365T390 260L340 0H220L275 290Q279 309 281 326T283 360Q283 377 277 387T255 397Q236 397 211 363T172 260L123 0H-1Z"  />
<glyph unicode="n" horiz-adv-x="443" d="M-1 0L62 330Q70 373 76 413T88 489H195L190 426H192Q244 497 324 497Q350 497 368 489T397 466T414 432T419 390Q419 368 416 346T407 297L351 0H226L284 304Q286 317 288 329T290 356Q290 373 283 384T259 395Q237 395 212 362T173 259L124 0H-1Z"  />
<glyph unicode="o" horiz-adv-x="417" d="M258 497Q304 497 332 480T375 437T395 381T400 326Q400 268 385 209T341 101T268 23T169 -8Q123 -8 94 8T48 49T25 104T19 161Q19 223 35 283T83 390T158 467T258 497ZM238 402Q218 402 201 377T170 316T150 239T143 167Q143 153 144 139T148 114T160 95T183 87Q205 87 222 114T252 181T270 264T277 341Q277 366 269 384T238 402Z"  />
<glyph unicode="p" horiz-adv-x="434" d="M-37 -192L62 328Q70 372 76 412T88 489H195L187 418H189Q212 455 244 476T311 497Q344 497 364 484T396 450T412 401T416 346Q416 284 400 221T354 107T282 24T185 -8Q168 -8 152 -5T125 4H122L86 -192H-37ZM140 97Q148 92 156 89T175 85Q203 85 224 112T260 177T281 256T288 324Q288 336 287 348T283 369T272 385T252 391Q240 391 228 382T206 358T187 323T174 281L140 97Z"  />
<glyph unicode="q" horiz-adv-x="427" d="M175 -192L229 70H227Q205 30 178 11T120 -8Q69 -8 43 34T16 146Q16 199 31 260T80 374T164 462T289 497Q331 497 365 488T425 470L298 -192H175ZM288 395Q279 401 263 401Q235 401 213 377T174 318T148 241T139 164Q138 132 147 114T177 95Q192 95 204 106T226 133T242 168T252 201L288 395Z"  />
<glyph unicode="r" horiz-adv-x="294" d="M-1 0L62 332Q70 374 76 414T87 489H194Q192 470 191 451T187 408H190Q217 455 248 476T311 497Q317 497 321 497T331 495L308 370Q304 370 298 370T287 371Q267 371 248 360T212 330T185 284T167 226L124 0H-1Z"  />
<glyph unicode="s" horiz-adv-x="317" d="M17 107Q32 99 51 93T96 87Q123 88 137 103T152 142Q152 162 142 178T105 215Q73 241 58 271T43 334Q43 368 55 397T91 449T148 484T224 497Q256 497 279 492T316 479L289 388Q278 394 263 398T231 403Q201 403 184 389T166 349Q166 330 176 317T203 290Q245 258 260 225T276 162Q276 81 225 38T89 -6Q55 -6 28 2T-13 19L17 107Z"  />
<glyph unicode="t" horiz-adv-x="283" d="M252 621L227 489H319L303 401H210L167 174Q165 161 164 151T163 133Q163 110 173 101T201 92Q208 92 217 92T235 94L220 0Q203 -5 183 -6T145 -8Q88 -8 61 21T33 100Q33 117 35 136T42 173L85 401H28L45 489H102L122 590L252 621Z"  />
<glyph unicode="u" horiz-adv-x="439" d="M437 489L375 160Q366 116 361 76T350 0H242L246 65L244 67Q217 28 185 10T117 -8Q68 -8 46 24T24 105Q24 128 27 153T36 206L89 489H214L161 211Q157 188 155 169T152 133Q152 115 159 105T182 94Q206 94 227 123T260 206L312 489H437Z"  />
<glyph unicode="v" horiz-adv-x="380" d="M179 489L172 265Q170 240 170 222T168 188T167 158T165 126H167Q172 143 176 157T186 186T196 218T210 257L295 489H420L200 0H75L47 489H179Z"  />
<glyph unicode="w" horiz-adv-x="596" d="M180 489L168 271Q166 246 165 227T162 191T159 157T154 122H157Q167 159 177 189T205 261L300 489H396L398 264Q398 239 398 221T397 188T395 157T391 122H394Q398 140 402 157T412 191T424 229T439 275L514 489H636L421 0H312L305 179Q304 211 306 248T312 331H309Q296 286 284 248T258 179L182 0H72L50 489H180Z"  />
<glyph unicode="x" horiz-adv-x="352" d="M169 489L184 401Q189 371 189 352T192 318H195Q202 334 211 354T230 394L278 489H407L246 245L311 0H183L167 86Q162 111 160 128T155 172H153Q147 158 140 141T118 94L71 0H-58L104 248L40 489H169Z"  />
<glyph unicode="y" horiz-adv-x="381" d="M177 489L180 254Q181 219 181 192T181 138H183Q191 168 199 196T220 263L294 489H420L260 104Q224 19 183 -48T97 -157Q75 -177 52 -192T13 -214L-37 -112Q-20 -104 -4 -94T28 -72Q49 -55 67 -35T95 6Q97 11 98 15T98 28L46 489H177Z"  />
<glyph unicode="z" horiz-adv-x="320" d="M-21 84L123 291Q136 309 144 321T160 342T176 361T195 384L196 386H52L72 489H346L331 398L192 200Q176 178 165 164T146 139T132 121T118 105V103H279L259 0H-34L-21 84Z"  />
<glyph unicode="{" horiz-adv-x="258" d="M31 329Q71 329 87 346T107 384Q115 422 116 460T125 541Q139 613 179 649T291 686H318L302 607H287Q258 605 242 586T221 538Q213 501 212 471T206 412Q199 363 175 333T113 290V288Q129 282 138 273T153 252T160 229T162 207Q162 190 156 163T142 106Q134 77 128 52T122 15Q122 -6 132 -19T168 -33H181L166 -112H144Q80 -112 52 -85T24 -12Q24 17 31 48T49 110Q58 141 65 165T73 203Q73 210 72 218T64 232T47 243T15 247L31 329Z"  />
<glyph unicode="|" horiz-adv-x="216" d="M169 750V-250H82V750H169Z"  />
<glyph unicode="}" horiz-adv-x="258" d="M247 245Q227 245 213 240T191 228T177 210T170 190Q162 152 161 114T152 33Q138 -39 99 -75T-13 -112H-41L-25 -33H-10Q19 -31 35 -12T56 36Q64 73 65 103T71 162Q78 211 102 241T164 284V286Q148 292 139 301T124 322T117 345T115 367Q116 384 122 411T136 468Q144 497 150 522T156 559Q156 580 146 593T110 607H97L111 686H134Q197 686 225 659T253 586Q253 558 246 526T229 463Q219 434 212 410T204 371Q204 364 205 356T213 342T230 331T262 327L247 245Z"  />
<glyph unicode="~" horiz-adv-x="596" d="M60 201Q60 249 72 281T103 333T147 361T195 370Q230 370 260 357T329 320Q365 297 382 288T415 279Q438 279 448 298T459 361H543Q547 279 515 235T421 191Q388 191 356 202T276 245Q256 258 232 271T191 284Q163 284 155 261T144 201H60Z"  />
<glyph unicode="&#xA0;" horiz-adv-x="142" />
<glyph unicode="&#xA1;" horiz-adv-x="236" d="M-36 -192L68 263H177L105 -192H-36ZM156 495Q189 495 207 473T225 419Q225 404 219 389T202 361T177 341T148 333Q112 333 94 355T75 407Q75 426 81 442T99 470T125 488T156 495Z"  />
<glyph unicode="&#xA2;" horiz-adv-x="429" d="M171 -7L190 94Q163 99 140 114T103 149Q90 168 82 196T74 259Q74 318 90 368T133 456T199 521T281 557L300 656H374L355 562Q375 561 391 557T417 547L385 452Q369 461 353 462T322 464Q296 464 273 448T233 406T207 346T197 274Q197 239 215 212T276 184Q293 184 310 186T347 196L341 102Q309 90 263 90L245 -7H171Z"  />
<glyph unicode="&#xA3;" horiz-adv-x="429" d="M7 0L22 81Q70 101 100 142T138 225Q140 242 142 255T145 283H66L83 370H147Q147 391 149 417T156 471Q163 510 179 544T220 604T281 643T361 658Q385 658 404 652T434 640L404 543Q394 548 382 551T352 555Q320 555 301 532T274 470Q269 441 268 417T266 370H365L349 283H261Q258 263 256 249T246 214Q238 188 220 159T171 107L170 105H376L355 0H7Z"  />
<glyph unicode="&#xA4;" horiz-adv-x="429" d="M230 536Q261 536 283 527T317 504L386 575L441 518L362 441Q373 417 378 389T384 328Q384 294 379 265T363 211L441 134L387 77L316 149Q301 134 275 125T226 116Q200 116 176 125T136 148L72 76L18 134L93 209Q81 232 75 261T69 322Q69 357 76 387T96 441L18 517L74 576L140 502Q155 518 180 527T230 536ZM227 454Q195 454 178 418T160 324Q160 268 178 233T228 198Q261 198 277 233T293 326Q293 351 290 374T278 415T258 443T227 454Z"  />
<glyph unicode="&#xA5;" horiz-adv-x="429" d="M107 0L138 166H16L29 232H151L162 291H40L53 358H151L88 650H211L228 469Q231 440 233 411T236 361H238Q246 381 259 410T287 471L374 650H490L317 358H412L399 291H276L265 232H387L375 166H252L221 0H107Z"  />
<glyph unicode="&#xA6;" horiz-adv-x="216" d="M169 174V-176H82V174H169ZM169 674V324H82V674H169Z"  />
<glyph unicode="&#xA7;" horiz-adv-x="433" d="M157 340Q157 319 167 303T208 269Q230 258 243 250T269 234Q284 244 294 261T305 302Q305 322 295 339T261 370Q241 381 228 388T203 404Q186 396 172 378T157 340ZM397 580Q380 588 360 594T313 600Q277 600 258 583T238 541Q238 523 250 509T298 479Q355 455 380 418T405 339Q405 288 385 251T328 184Q333 173 337 158T342 125Q342 85 328 53T289 -2T230 -37T153 -50Q111 -50 79 -41T28 -20L58 60Q75 51 99 42T161 32Q200 32 218 50T237 91Q237 114 219 132T159 171Q106 197 82 233T58 304Q58 349 80 387T151 458Q133 484 133 520Q133 553 146 582T183 634T242 669T320 682Q352 682 380 675T428 656L397 580Z"  />
<glyph unicode="&#xA8;" horiz-adv-x="379" d="M176 553Q150 553 133 571T116 619Q116 648 134 666T178 684Q204 684 221 667T238 620Q238 591 221 572T176 553ZM347 553Q321 553 304 571T287 619Q287 648 305 666T349 684Q375 684 392 667T409 620Q409 591 392 572T347 553Z"  />
<glyph unicode="&#xA9;" horiz-adv-x="661" d="M355 648Q417 648 472 624T568 558T632 460T656 340Q656 275 633 219T568 120T472 54T355 30Q292 30 237 54T141 120T75 218T51 340Q51 404 75 460T140 558T237 624T355 648ZM354 594Q303 594 259 574T183 520T131 439T112 338Q112 284 131 238T182 157T259 103T354 83Q404 83 448 102T524 156T576 238T595 339Q595 393 577 439T526 520T449 574T354 594ZM474 435Q464 441 439 450T378 459Q323 459 291 427T259 336Q259 284 290 249T375 214Q406 214 432 221T476 238L491 183Q465 167 432 160T366 153Q324 153 291 167T235 205T200 263T187 334Q187 377 202 411T245 470T307 507T381 520Q417 520 448 511T489 494L474 435Z"  />
<glyph unicode="&#xAA;" horiz-adv-x="309" d="M214 263Q214 274 214 286T215 313H213Q196 284 175 271T131 258Q96 258 79 285T62 358Q62 400 73 441T108 515T165 568T247 588Q292 588 330 576L293 362Q289 339 288 313T285 263H214ZM241 518Q235 521 223 521Q203 521 188 505T164 467T149 419T144 376Q143 357 149 344T170 330Q187 330 201 352T221 399L241 518Z"  />
<glyph unicode="&#xAB;" horiz-adv-x="383" d="M104 245L184 67H95L14 252L144 437H241L104 245ZM266 245L346 67H257L176 252L306 437H403L266 245Z"  />
<glyph unicode="&#xAC;" horiz-adv-x="596" d="M561 421V106H480V339H45V421H561Z"  />
<glyph unicode="&#xAD;" horiz-adv-x="259" d="M245 323L227 229H28L46 323H245Z"  />
<glyph unicode="&#xAE;" horiz-adv-x="368" d="M221 449H180V596Q187 598 202 600T240 602Q263 602 275 599T295 590Q310 580 310 557Q310 546 301 537T277 524V522Q300 515 307 484Q310 468 312 461T316 449H271Q267 454 265 462T260 480Q257 503 235 503H221V449ZM223 533H236Q248 533 255 538T263 551Q263 570 238 570Q229 570 223 568V533ZM241 685Q275 685 304 673T354 638T388 587T401 525Q401 492 389 463T355 411T304 377T241 364Q208 364 179 376T128 411T94 462T81 525Q81 558 93 587T127 638T178 672T241 685ZM241 646Q217 646 196 637T160 611T137 572T128 524Q128 499 136 477T160 439T196 414T241 404Q265 404 286 413T322 439T345 477T354 525Q354 550 346 572T322 610T286 636T241 646Z"  />
<glyph unicode="&#xAF;" horiz-adv-x="379" d="M370 653L354 585H150L165 653H370Z"  />
<glyph unicode="&#xB0;" horiz-adv-x="287" d="M201 683Q229 683 251 674T288 648T312 610T320 564Q320 534 309 512T279 473T239 449T196 441Q144 441 111 473T78 557Q78 584 88 607T116 647T155 673T201 683ZM199 631Q174 631 156 610T137 558Q137 530 154 511T198 492Q224 492 242 511T261 561Q261 587 246 609T199 631Z"  />
<glyph unicode="&#xB1;" horiz-adv-x="596" d="M345 567V394H561V312H345V137H260V312H45V394H260V567H345ZM561 82V0H45V82H561Z"  />
<glyph unicode="&#xB2;" horiz-adv-x="259" d="M39 403L51 461L120 530Q138 548 156 567T190 605T214 643T224 681Q224 698 214 709T180 720Q163 720 149 716T119 703L113 773Q130 782 156 790T209 798Q245 798 267 788T301 764T317 734T321 705Q321 674 308 646T275 591T232 543T189 504L169 486V482H286L271 403H39Z"  />
<glyph unicode="&#xB3;" horiz-adv-x="246" d="M118 777Q131 785 154 791T204 798Q234 798 253 790T284 769T300 742T305 714Q305 676 284 651T230 613V611Q256 602 272 580T288 529Q288 502 276 478T243 437T191 409T122 398Q95 398 74 403T42 415L63 482Q74 476 90 472T124 467Q155 467 174 484T193 528Q193 553 175 566T125 580H110L122 640H133Q147 640 161 643T186 652T205 668T212 692Q212 729 171 729Q157 729 144 725T120 714L118 777Z"  />
<glyph unicode="&#xB4;" horiz-adv-x="379" d="M406 687L284 547H198L287 687H406Z"  />
<glyph unicode="&#xB5;" horiz-adv-x="443" d="M155 175Q146 129 154 111T186 92Q205 92 219 108T242 139Q247 147 251 158T258 183L317 489H442L377 156Q370 117 374 104T398 91L369 -2Q355 -8 333 -8Q301 -8 284 8T260 56H257Q243 32 220 16T169 -1Q155 -1 142 4T122 21L114 -19Q105 -71 101 -117T96 -192H-15Q-18 -184 -19 -169T-20 -130T-14 -70T0 13L92 489H217L155 175Z"  />
<glyph unicode="&#xB6;" horiz-adv-x="433" d="M133 -48L193 266H189Q174 266 154 275T116 302T86 351T73 424Q73 480 92 526T147 606T237 657T358 676Q388 676 412 675T452 671L314 -48H252L381 623H323L195 -48H133Z"  />
<glyph unicode="&#xB7;" horiz-adv-x="225" d="M108 184Q73 184 55 207T36 265Q36 283 42 299T60 329T85 350T117 358Q154 358 172 336T191 278Q191 234 167 209T108 184Z"  />
<glyph unicode="&#xB8;" horiz-adv-x="379" d="M183 5L149 -44Q175 -51 188 -70T202 -109Q202 -135 191 -153T164 -183T127 -199T90 -204Q69 -204 51 -199T24 -186L44 -135Q72 -148 95 -148Q109 -148 120 -141T133 -117Q133 -83 70 -77L125 5H183Z"  />
<glyph unicode="&#xB9;" horiz-adv-x="216" d="M112 403L171 709H169L96 675L92 746L197 793H278L203 403H112Z"  />
<glyph unicode="&#xBA;" horiz-adv-x="311" d="M216 588Q246 588 266 577T298 549T314 513T319 475Q319 425 306 385T272 317T223 273T167 258Q138 258 118 268T84 293T66 329T60 371Q60 413 71 452T103 522T152 570T216 588ZM205 519Q191 519 180 505T160 470T147 423T142 374Q142 353 149 340T176 326Q189 326 200 339T218 374T230 421T234 472Q234 492 228 505T205 519Z"  />
<glyph unicode="&#xBB;" horiz-adv-x="383" d="M43 437H132L213 252L83 67H-14L123 263L43 437ZM205 437H294L375 252L245 67H148L285 263L205 437Z"  />
<glyph unicode="&#xBC;" horiz-adv-x="659" d="M452 0L469 88H318L329 153L511 391H611L567 158H609L596 88H554L537 0H452ZM496 229Q499 249 503 265T511 295H509Q498 281 490 269T470 243L408 160V158H482L496 229ZM95 263L154 569H152L79 535L75 606L180 653H261L186 263H95ZM52 -8L525 658H602L130 -8H52Z"  />
<glyph unicode="&#xBD;" horiz-adv-x="659" d="M97 263L156 569H154L81 535L77 606L182 653H263L188 263H97ZM40 -8L513 658H590L118 -8H40ZM346 0L357 58L423 127Q441 145 459 164T493 202T517 241T527 278Q527 295 517 306T484 317Q452 317 426 297L420 370Q437 379 463 387T517 395Q551 395 572 385T604 361T620 331T624 302Q624 271 611 243T578 189T535 141T492 101L472 83V79H585L570 0H346Z"  />
<glyph unicode="&#xBE;" horiz-adv-x="659" d="M73 -8L546 658H622L151 -8H73ZM103 637Q116 645 139 651T190 658Q219 658 238 650T269 629T286 602T291 574Q291 536 270 511T216 473V471Q243 462 258 440T273 389Q273 362 261 338T228 297T176 269T107 258Q81 258 60 263T27 275L49 342Q60 336 76 332T109 327Q141 327 159 344T178 388Q178 413 160 426T110 440H96L107 500H119Q132 500 146 503T171 512T190 528T197 552Q197 589 157 589Q142 589 129 585T105 574L103 637ZM463 0L481 88H329L340 153L522 391H623L579 158H621L608 88H566L548 0H463ZM507 229Q511 249 515 265T523 295H521Q511 281 502 269T482 243L420 160L419 158H494L507 229Z"  />
<glyph unicode="&#xBF;" horiz-adv-x="325" d="M245 275Q245 270 245 266T244 256Q240 212 219 171T161 84Q136 55 117 25T98 -37Q98 -61 111 -76T153 -91Q171 -91 190 -87T225 -73L228 -173Q210 -183 178 -191T111 -200Q64 -200 35 -186T-9 -152T-30 -109T-35 -68Q-35 -14 -7 36T61 132Q88 162 105 190T128 253L133 275H245ZM226 497Q258 497 275 476T293 422Q293 407 287 392T270 364T245 343T214 335Q179 335 161 357T143 409Q143 448 168 472T226 497Z"  />
<glyph unicode="&#xC0;" horiz-adv-x="445" d="M298 835L372 710H285L171 835H298ZM145 157L86 0H-36L237 674H383L389 0H268L270 157H145ZM274 248L277 397Q277 412 278 432T280 475T282 519T283 560H281Q275 541 268 519T254 474T241 432T229 398L175 248H274Z"  />
<glyph unicode="&#xC1;" horiz-adv-x="445" d="M502 835L349 710H258L372 835H502ZM145 157L86 0H-36L237 674H383L389 0H268L270 157H145ZM274 248L277 397Q277 412 278 432T280 475T282 519T283 560H281Q275 541 268 519T254 474T241 432T229 398L175 248H274Z"  />
<glyph unicode="&#xC2;" horiz-adv-x="445" d="M380 835L447 710H357L330 769H328L279 710H183L297 835H380ZM145 157L86 0H-36L237 674H383L389 0H268L270 157H145ZM274 248L277 397Q277 412 278 432T280 475T282 519T283 560H281Q275 541 268 519T254 474T241 432T229 398L175 248H274Z"  />
<glyph unicode="&#xC3;" horiz-adv-x="445" d="M183 712Q192 771 216 796T271 822Q290 822 302 817T325 804Q335 796 343 791T361 786Q371 786 377 794T391 826H454Q444 769 421 743T362 717Q344 717 331 722T307 733Q297 741 289 745T272 750Q263 750 256 741T247 712H183ZM145 157L86 0H-36L237 674H383L389 0H268L270 157H145ZM274 248L277 397Q277 412 278 432T280 475T282 519T283 560H281Q275 541 268 519T254 474T241 432T229 398L175 248H274Z"  />
<glyph unicode="&#xC4;" horiz-adv-x="445" d="M233 714Q209 714 192 732T174 777Q174 803 192 822T234 841Q259 841 276 823T293 778Q293 752 275 733T233 714ZM410 714Q386 714 369 732T351 777Q351 803 369 822T411 841Q436 841 453 823T470 778Q470 752 452 733T410 714ZM145 157L86 0H-36L237 674H383L389 0H268L270 157H145ZM274 248L277 397Q277 412 278 432T280 475T282 519T283 560H281Q275 541 268 519T254 474T241 432T229 398L175 248H274Z"  />
<glyph unicode="&#xC5;" horiz-adv-x="445" d="M319 865Q373 865 398 841T422 782Q422 747 395 722T317 696Q264 696 239 720T214 776Q214 811 241 838T319 865ZM318 825Q298 825 288 810T278 778Q279 762 287 749T317 736Q338 736 348 749T358 781Q358 798 349 811T318 825ZM145 157L86 0H-36L237 674H383L389 0H268L270 157H145ZM274 248L277 397Q277 412 278 432T280 475T282 519T283 560H281Q275 541 268 519T254 474T241 432T229 398L175 248H274Z"  />
<glyph unicode="&#xC6;" horiz-adv-x="565" d="M-60 0L260 674H608L590 564H429L406 392H561L544 286H396L373 111H544L526 0H244L267 183H143L63 0H-60ZM274 282L299 453Q303 482 307 515T317 583H313Q305 562 296 540T277 496T260 456T246 424L185 282H274Z"  />
<glyph unicode="&#xC7;" horiz-adv-x="387" d="M326 8Q314 3 295 0T254 -4L227 -44Q253 -49 267 -67T281 -110Q281 -136 270 -153T242 -182T206 -198T168 -203Q148 -203 132 -198T104 -185L123 -132Q146 -145 174 -145Q187 -145 199 -139T212 -115Q212 -102 197 -92T148 -79L197 -4Q146 2 115 28T66 89T44 160T38 225Q38 347 72 441T167 596Q211 641 263 660T367 680Q393 680 415 676T444 666L409 557Q388 566 351 566Q325 566 298 551T250 510Q215 466 193 400T171 252Q171 187 191 147T262 107Q280 107 299 110T331 118L326 8Z"  />
<glyph unicode="&#xC8;" horiz-adv-x="387" d="M272 835L346 710H260L146 835H272ZM345 298H197L160 111H330L308 0H14L143 674H425L403 564H248L215 404H366L345 298Z"  />
<glyph unicode="&#xC9;" horiz-adv-x="387" d="M476 835L323 710H232L346 835H476ZM345 298H197L160 111H330L308 0H14L143 674H425L403 564H248L215 404H366L345 298Z"  />
<glyph unicode="&#xCA;" horiz-adv-x="387" d="M360 835L426 710H337L310 769H308L258 710H163L277 835H360ZM345 298H197L160 111H330L308 0H14L143 674H425L403 564H248L215 404H366L345 298Z"  />
<glyph unicode="&#xCB;" horiz-adv-x="387" d="M345 298H197L160 111H330L308 0H14L143 674H425L403 564H248L215 404H366L345 298ZM208 714Q184 714 167 732T149 777Q149 803 167 822T209 841Q234 841 251 823T268 778Q268 752 250 733T208 714ZM385 714Q361 714 344 732T326 777Q326 803 344 822T386 841Q411 841 428 823T445 778Q445 752 427 733T385 714Z"  />
<glyph unicode="&#xCC;" horiz-adv-x="245" d="M190 835L264 710H178L63 835H190ZM268 674L139 0H14L143 674H268Z"  />
<glyph unicode="&#xCD;" horiz-adv-x="245" d="M401 835L247 710H157L271 835H401ZM268 674L139 0H14L143 674H268Z"  />
<glyph unicode="&#xCE;" horiz-adv-x="245" d="M275 835L342 710H253L226 769H224L174 710H79L193 835H275ZM268 674L139 0H14L143 674H268Z"  />
<glyph unicode="&#xCF;" horiz-adv-x="245" d="M268 674L139 0H14L143 674H268ZM124 714Q100 714 83 732T65 777Q65 803 83 822T126 841Q150 841 167 823T184 778Q184 752 167 733T124 714ZM301 714Q277 714 260 732T242 777Q242 803 260 822T302 841Q327 841 344 823T361 778Q361 752 344 733T301 714Z"  />
<glyph unicode="&#xD0;" horiz-adv-x="484" d="M31 394H91L142 665Q166 670 198 673T271 677Q331 677 374 658T441 606Q467 569 477 526T487 427Q487 359 474 302T441 198T394 117T343 61Q301 26 253 12T139 -3Q96 -3 69 0T18 10L74 303H14L31 394ZM271 303H195L157 108Q170 103 190 103Q221 103 252 127T306 196Q329 244 344 308T359 438Q359 464 355 488T342 532T316 564T276 576Q256 576 247 572L213 394H289L271 303Z"  />
<glyph unicode="&#xD1;" horiz-adv-x="503" d="M218 720Q227 779 252 804T307 830Q325 830 337 825T361 812Q371 804 379 799T396 794Q406 794 412 802T426 834H489Q479 776 456 751T398 725Q380 725 366 730T343 741Q332 749 325 753T308 757Q299 757 292 749T282 720H218ZM14 0L143 674H257L309 406Q322 339 330 289T342 197H344Q351 253 360 333T386 499L419 674H527L398 0H291L237 251Q229 286 224 313T215 366T209 417T203 475H201Q194 424 183 346T155 179L121 0H14Z"  />
<glyph unicode="&#xD2;" horiz-adv-x="481" d="M306 835L381 710H294L180 835H306ZM321 682Q376 682 408 660T458 605T480 535T485 468Q485 414 477 356T451 242T408 138T349 56Q317 24 281 8T200 -8Q145 -8 112 16T62 74T39 146T33 212Q33 263 42 320T68 433T112 537T173 620Q203 649 239 665T321 682ZM304 572Q280 572 259 551Q236 527 218 484T188 390T169 288T162 200Q162 186 163 169T171 137T188 112T219 102Q242 102 260 122Q277 138 290 166T314 227T333 297T346 368T353 431T356 478Q356 494 355 511T348 541T332 563T304 572Z"  />
<glyph unicode="&#xD3;" horiz-adv-x="481" d="M512 835L358 710H267L381 835H512ZM321 682Q376 682 408 660T458 605T480 535T485 468Q485 414 477 356T451 242T408 138T349 56Q317 24 281 8T200 -8Q145 -8 112 16T62 74T39 146T33 212Q33 263 42 320T68 433T112 537T173 620Q203 649 239 665T321 682ZM304 572Q280 572 259 551Q236 527 218 484T188 390T169 288T162 200Q162 186 163 169T171 137T188 112T219 102Q242 102 260 122Q277 138 290 166T314 227T333 297T346 368T353 431T356 478Q356 494 355 511T348 541T332 563T304 572Z"  />
<glyph unicode="&#xD4;" horiz-adv-x="481" d="M392 835L459 710H369L342 769H340L291 710H195L309 835H392ZM321 682Q376 682 408 660T458 605T480 535T485 468Q485 414 477 356T451 242T408 138T349 56Q317 24 281 8T200 -8Q145 -8 112 16T62 74T39 146T33 212Q33 263 42 320T68 433T112 537T173 620Q203 649 239 665T321 682ZM304 572Q280 572 259 551Q236 527 218 484T188 390T169 288T162 200Q162 186 163 169T171 137T188 112T219 102Q242 102 260 122Q277 138 290 166T314 227T333 297T346 368T353 431T356 478Q356 494 355 511T348 541T332 563T304 572Z"  />
<glyph unicode="&#xD5;" horiz-adv-x="481" d="M196 720Q205 779 229 804T284 830Q303 830 315 825T338 812Q348 804 356 799T374 794Q384 794 390 802T404 834H467Q457 776 434 751T375 725Q357 725 344 730T320 741Q310 749 302 753T285 757Q277 757 270 749T260 720H196ZM321 682Q376 682 408 660T458 605T480 535T485 468Q485 414 477 356T451 242T408 138T349 56Q317 24 281 8T200 -8Q145 -8 112 16T62 74T39 146T33 212Q33 263 42 320T68 433T112 537T173 620Q203 649 239 665T321 682ZM304 572Q280 572 259 551Q236 527 218 484T188 390T169 288T162 200Q162 186 163 169T171 137T188 112T219 102Q242 102 260 122Q277 138 290 166T314 227T333 297T346 368T353 431T356 478Q356 494 355 511T348 541T332 563T304 572Z"  />
<glyph unicode="&#xD6;" horiz-adv-x="481" d="M246 714Q222 714 205 732T187 777Q187 803 205 822T247 841Q272 841 289 823T306 778Q306 752 288 733T246 714ZM423 714Q399 714 382 732T364 777Q364 803 382 822T424 841Q449 841 466 823T483 778Q483 752 465 733T423 714ZM321 682Q376 682 408 660T458 605T480 535T485 468Q485 414 477 356T451 242T408 138T349 56Q317 24 281 8T200 -8Q145 -8 112 16T62 74T39 146T33 212Q33 263 42 320T68 433T112 537T173 620Q203 649 239 665T321 682ZM304 572Q280 572 259 551Q236 527 218 484T188 390T169 288T162 200Q162 186 163 169T171 137T188 112T219 102Q242 102 260 122Q277 138 290 166T314 227T333 297T346 368T353 431T356 478Q356 494 355 511T348 541T332 563T304 572Z"  />
<glyph unicode="&#xD7;" horiz-adv-x="596" d="M104 526L308 321L505 526L564 466L363 262L564 61L505 0L305 202L107 0L52 61L250 261L49 466L104 526Z"  />
<glyph unicode="&#xD8;" horiz-adv-x="468" d="M2 -17L59 78Q44 101 36 137T27 220Q27 278 36 335T63 444T105 539T160 614Q226 682 311 682Q346 682 370 673T409 649L452 725L508 698L451 600Q464 578 470 545T478 475Q479 413 471 354T446 241T406 143T354 67Q287 -8 196 -8Q133 -8 100 28L52 -51L2 -17ZM341 545Q336 558 324 567T292 576Q271 576 253 561T219 520T191 462T170 395Q159 353 154 311T146 215H153L341 545ZM164 130Q175 98 216 98Q236 98 253 113T285 153T312 210T333 278Q344 319 349 360T358 456H352L164 130Z"  />
<glyph unicode="&#xD9;" horiz-adv-x="486" d="M318 835L392 710H306L192 835H318ZM262 674L178 236Q169 191 169 162Q169 133 182 118T219 103Q249 103 270 129T305 231L390 674H515L434 249Q422 188 404 140T359 59T294 9T205 -8Q122 -8 84 34T45 151Q45 173 48 199T57 257L136 674H262Z"  />
<glyph unicode="&#xDA;" horiz-adv-x="486" d="M515 835L361 710H270L384 835H515ZM262 674L178 236Q169 191 169 162Q169 133 182 118T219 103Q249 103 270 129T305 231L390 674H515L434 249Q422 188 404 140T359 59T294 9T205 -8Q122 -8 84 34T45 151Q45 173 48 199T57 257L136 674H262Z"  />
<glyph unicode="&#xDB;" horiz-adv-x="486" d="M400 835L466 710H377L350 769H348L299 710H203L317 835H400ZM262 674L178 236Q169 191 169 162Q169 133 182 118T219 103Q249 103 270 129T305 231L390 674H515L434 249Q422 188 404 140T359 59T294 9T205 -8Q122 -8 84 34T45 151Q45 173 48 199T57 257L136 674H262Z"  />
<glyph unicode="&#xDC;" horiz-adv-x="486" d="M256 714Q232 714 215 732T197 777Q197 803 215 822T257 841Q282 841 299 823T316 778Q316 752 298 733T256 714ZM432 714Q409 714 392 732T374 777Q374 803 392 822T434 841Q459 841 476 823T493 778Q493 752 475 733T432 714ZM262 674L178 236Q169 191 169 162Q169 133 182 118T219 103Q249 103 270 129T305 231L390 674H515L434 249Q422 188 404 140T359 59T294 9T205 -8Q122 -8 84 34T45 151Q45 173 48 199T57 257L136 674H262Z"  />
<glyph unicode="&#xDD;" horiz-adv-x="390" d="M473 835L319 710H229L343 835H473ZM84 0L133 258L67 674H201L215 513Q219 458 219 424T220 369H222Q233 401 246 434T276 505L354 674H485L257 257L209 0H84Z"  />
<glyph unicode="&#xDE;" horiz-adv-x="449" d="M143 674H265L242 559Q252 560 261 560T279 561Q311 561 345 551T407 513Q432 487 441 457T450 399Q450 336 430 288T374 206T294 156T199 139H163L136 0H14L143 674ZM182 241Q189 240 195 240T208 240Q238 240 260 253T297 286T319 331T326 381Q326 416 310 437T254 459Q235 459 223 456L182 241Z"  />
<glyph unicode="&#xDF;" horiz-adv-x="478" d="M-1 0L80 426Q92 488 110 538T158 625T228 680T328 700Q375 700 405 686T453 650T478 604T485 558Q485 518 472 493T445 453Q416 437 400 417T383 373Q383 356 387 341T407 301Q444 239 444 175Q444 129 429 95T388 38T328 4T254 -8Q197 -8 168 5L194 97Q210 89 224 87T249 85Q278 85 298 103T319 156Q319 176 315 192T296 233Q285 252 278 267T267 294T260 319T258 346Q258 370 266 390T286 428T314 457T345 479Q354 490 360 506T366 551Q365 567 355 585T316 603Q278 603 252 565T211 455L124 0H-1Z"  />
<glyph unicode="&#xE0;" horiz-adv-x="426" d="M290 687L338 547H256L177 687H290ZM246 0Q247 20 248 40T250 82H247Q218 33 185 13T122 -8Q68 -8 42 33T16 139Q16 176 22 217T43 297T79 373T133 437T206 481T300 497Q337 497 371 492T428 477L374 205Q369 184 366 157T359 101T355 47T354 0H246ZM291 401Q276 404 265 404Q234 404 211 378T171 314T147 236T138 169Q138 137 145 116T175 95Q201 95 223 134T259 240L291 401Z"  />
<glyph unicode="&#xE1;" horiz-adv-x="426" d="M443 687L321 547H234L324 687H443ZM246 0Q247 20 248 40T250 82H247Q218 33 185 13T122 -8Q68 -8 42 33T16 139Q16 176 22 217T43 297T79 373T133 437T206 481T300 497Q337 497 371 492T428 477L374 205Q369 184 366 157T359 101T355 47T354 0H246ZM291 401Q276 404 265 404Q234 404 211 378T171 314T147 236T138 169Q138 137 145 116T175 95Q201 95 223 134T259 240L291 401Z"  />
<glyph unicode="&#xE2;" horiz-adv-x="426" d="M356 687L415 547H334L309 617H307L256 547H170L278 687H356ZM246 0Q247 20 248 40T250 82H247Q218 33 185 13T122 -8Q68 -8 42 33T16 139Q16 176 22 217T43 297T79 373T133 437T206 481T300 497Q337 497 371 492T428 477L374 205Q369 184 366 157T359 101T355 47T354 0H246ZM291 401Q276 404 265 404Q234 404 211 378T171 314T147 236T138 169Q138 137 145 116T175 95Q201 95 223 134T259 240L291 401Z"  />
<glyph unicode="&#xE3;" horiz-adv-x="426" d="M165 562Q168 585 174 605T189 641T213 666T247 675Q265 675 277 670T299 657Q309 650 316 644T331 638Q339 638 344 645T355 678H413Q400 569 332 569Q318 569 305 574T283 585Q271 595 263 600T248 605Q232 605 227 562H165ZM246 0Q247 20 248 40T250 82H247Q218 33 185 13T122 -8Q68 -8 42 33T16 139Q16 176 22 217T43 297T79 373T133 437T206 481T300 497Q337 497 371 492T428 477L374 205Q369 184 366 157T359 101T355 47T354 0H246ZM291 401Q276 404 265 404Q234 404 211 378T171 314T147 236T138 169Q138 137 145 116T175 95Q201 95 223 134T259 240L291 401Z"  />
<glyph unicode="&#xE4;" horiz-adv-x="426" d="M204 553Q178 553 161 571T144 619Q144 648 162 666T205 684Q232 684 248 667T265 620Q265 591 248 572T204 553ZM375 553Q349 553 332 571T315 619Q315 648 333 666T377 684Q403 684 419 667T436 620Q436 591 419 572T375 553ZM246 0Q247 20 248 40T250 82H247Q218 33 185 13T122 -8Q68 -8 42 33T16 139Q16 176 22 217T43 297T79 373T133 437T206 481T300 497Q337 497 371 492T428 477L374 205Q369 184 366 157T359 101T355 47T354 0H246ZM291 401Q276 404 265 404Q234 404 211 378T171 314T147 236T138 169Q138 137 145 116T175 95Q201 95 223 134T259 240L291 401Z"  />
<glyph unicode="&#xE5;" horiz-adv-x="426" d="M292 721Q340 721 365 696T390 631Q390 591 363 565T290 538Q242 538 216 563T190 626Q190 666 217 693T292 721ZM290 677Q268 677 258 661T248 627Q248 613 257 598T289 582Q313 582 323 598T333 630Q333 647 325 662T290 677ZM246 0Q247 20 248 40T250 82H247Q218 33 185 13T122 -8Q68 -8 42 33T16 139Q16 176 22 217T43 297T79 373T133 437T206 481T300 497Q337 497 371 492T428 477L374 205Q369 184 366 157T359 101T355 47T354 0H246ZM291 401Q276 404 265 404Q234 404 211 378T171 314T147 236T138 169Q138 137 145 116T175 95Q201 95 223 134T259 240L291 401Z"  />
<glyph unicode="&#xE6;" horiz-adv-x="588" d="M533 21Q503 4 465 -2T391 -8Q348 -8 312 12T260 72H257Q234 34 199 13T117 -8Q88 -8 66 2T29 30T7 70T-1 117Q-1 169 20 206T76 266T154 300T241 308L245 331Q250 361 233 382T181 404Q157 404 131 396T82 376L65 461Q99 481 136 489T199 497Q298 497 325 420H328Q353 456 388 476T468 497Q498 497 521 487T559 460T583 421T591 373Q591 287 525 247T347 212Q344 193 343 171T347 133Q357 110 380 100T429 89Q457 89 480 96T526 113L533 21ZM228 226Q207 227 186 224T149 209T122 180T111 135Q111 116 121 102T150 87Q172 87 190 105T216 165L228 226ZM479 357Q479 373 471 386T442 400Q427 400 414 391T389 368T371 334T360 296Q415 293 447 307T479 357Z"  />
<glyph unicode="&#xE7;" horiz-adv-x="310" d="M260 8Q251 4 235 1T198 -4L171 -44Q197 -50 211 -69T225 -109Q225 -135 214 -153T186 -182T149 -198T111 -203Q91 -203 73 -198T46 -186L67 -134Q92 -148 117 -148Q130 -148 142 -141T154 -117Q154 -100 140 -90T92 -77L141 -3Q109 3 86 19T49 59T27 111T20 170Q20 236 39 295T94 398T177 469T283 496Q306 496 321 494T344 487L313 384Q295 390 278 390Q251 390 227 373T184 328T156 264T145 188Q145 146 161 121T208 96Q226 96 241 100T269 107L260 8Z"  />
<glyph unicode="&#xE8;" horiz-adv-x="384" d="M267 687L315 547H233L154 687H267ZM327 21Q295 7 262 1T186 -6Q141 -6 110 8T58 46T29 105T20 178Q20 231 35 287T79 390T152 467T255 497Q288 497 312 486T353 456T377 413T385 364Q385 314 366 279T314 223T237 192T141 184Q140 173 142 157T152 127Q161 112 177 102T220 92Q251 92 274 98T319 116L327 21ZM274 352Q274 373 266 385T239 397Q210 397 187 364T153 278Q178 277 200 281T238 294T264 318T274 352Z"  />
<glyph unicode="&#xE9;" horiz-adv-x="384" d="M425 687L303 547H216L306 687H425ZM327 21Q295 7 262 1T186 -6Q141 -6 110 8T58 46T29 105T20 178Q20 231 35 287T79 390T152 467T255 497Q288 497 312 486T353 456T377 413T385 364Q385 314 366 279T314 223T237 192T141 184Q140 173 142 157T152 127Q161 112 177 102T220 92Q251 92 274 98T319 116L327 21ZM274 352Q274 373 266 385T239 397Q210 397 187 364T153 278Q178 277 200 281T238 294T264 318T274 352Z"  />
<glyph unicode="&#xEA;" horiz-adv-x="384" d="M329 687L388 547H307L282 617H280L229 547H143L251 687H329ZM327 21Q295 7 262 1T186 -6Q141 -6 110 8T58 46T29 105T20 178Q20 231 35 287T79 390T152 467T255 497Q288 497 312 486T353 456T377 413T385 364Q385 314 366 279T314 223T237 192T141 184Q140 173 142 157T152 127Q161 112 177 102T220 92Q251 92 274 98T319 116L327 21ZM274 352Q274 373 266 385T239 397Q210 397 187 364T153 278Q178 277 200 281T238 294T264 318T274 352Z"  />
<glyph unicode="&#xEB;" horiz-adv-x="384" d="M327 21Q295 7 262 1T186 -6Q141 -6 110 8T58 46T29 105T20 178Q20 231 35 287T79 390T152 467T255 497Q288 497 312 486T353 456T377 413T385 364Q385 314 366 279T314 223T237 192T141 184Q140 173 142 157T152 127Q161 112 177 102T220 92Q251 92 274 98T319 116L327 21ZM274 352Q274 373 266 385T239 397Q210 397 187 364T153 278Q178 277 200 281T238 294T264 318T274 352ZM197 553Q171 553 154 571T137 619Q137 648 155 666T199 684Q225 684 242 667T259 620Q259 591 242 572T197 553ZM368 553Q342 553 325 571T308 619Q308 648 326 666T370 684Q396 684 413 667T430 620Q430 591 413 572T368 553Z"  />
<glyph unicode="&#xEC;" horiz-adv-x="218" d="M165 687L212 547H130L51 687H165ZM-1 0L93 489H218L124 0H-1Z"  />
<glyph unicode="&#xED;" horiz-adv-x="218" d="M325 687L203 547H117L207 687H325ZM-1 0L93 489H218L124 0H-1Z"  />
<glyph unicode="&#xEE;" horiz-adv-x="218" d="M231 687L290 547H209L184 617H182L131 547H45L153 687H231ZM-1 0L93 489H218L124 0H-1Z"  />
<glyph unicode="&#xEF;" horiz-adv-x="218" d="M-1 0L93 489H218L124 0H-1ZM96 553Q70 553 53 571T36 619Q36 648 53 666T97 684Q123 684 140 667T157 620Q157 591 140 572T96 553ZM267 553Q241 553 224 571T207 619Q207 648 225 666T268 684Q295 684 311 667T328 620Q328 591 311 572T267 553Z"  />
<glyph unicode="&#xF0;" horiz-adv-x="419" d="M180 86Q200 86 215 102T241 143T259 201T271 265Q276 298 279 318T282 358Q281 371 274 384T243 398Q219 398 200 374T169 314T150 235T143 155Q143 124 152 105T180 86ZM116 545L220 595Q210 607 195 622T164 653L238 712Q263 697 283 678T318 639L404 684L426 636L346 597Q374 554 389 497T404 369Q404 294 388 226T343 106T271 23T178 -8Q127 -8 96 10T47 55T25 114T19 174Q19 223 31 274T68 370T130 444T219 482Q233 485 247 484T276 476L275 482Q272 499 266 518T249 552L140 498L116 545Z"  />
<glyph unicode="&#xF1;" horiz-adv-x="443" d="M161 562Q164 585 169 605T185 641T209 666T242 675Q260 675 272 670T295 657Q304 650 312 644T326 638Q334 638 339 645T350 678H409Q394 569 327 569Q313 569 300 574T278 585Q266 595 259 600T244 605Q228 605 222 562H161ZM-1 0L62 330Q70 373 76 413T88 489H195L190 426H192Q244 497 324 497Q350 497 368 489T397 466T414 432T419 390Q419 368 416 346T407 297L351 0H226L284 304Q286 317 288 329T290 356Q290 373 283 384T259 395Q237 395 212 362T173 259L124 0H-1Z"  />
<glyph unicode="&#xF2;" horiz-adv-x="417" d="M266 687L313 547H232L152 687H266ZM258 497Q304 497 332 480T375 437T395 381T400 326Q400 268 385 209T341 101T268 23T169 -8Q123 -8 94 8T48 49T25 104T19 161Q19 223 35 283T83 390T158 467T258 497ZM238 402Q218 402 201 377T170 316T150 239T143 167Q143 153 144 139T148 114T160 95T183 87Q205 87 222 114T252 181T270 264T277 341Q277 366 269 384T238 402Z"  />
<glyph unicode="&#xF3;" horiz-adv-x="417" d="M415 687L293 547H206L296 687H415ZM258 497Q304 497 332 480T375 437T395 381T400 326Q400 268 385 209T341 101T268 23T169 -8Q123 -8 94 8T48 49T25 104T19 161Q19 223 35 283T83 390T158 467T258 497ZM238 402Q218 402 201 377T170 316T150 239T143 167Q143 153 144 139T148 114T160 95T183 87Q205 87 222 114T252 181T270 264T277 341Q277 366 269 384T238 402Z"  />
<glyph unicode="&#xF4;" horiz-adv-x="417" d="M332 687L391 547H310L285 617H283L232 547H146L254 687H332ZM258 497Q304 497 332 480T375 437T395 381T400 326Q400 268 385 209T341 101T268 23T169 -8Q123 -8 94 8T48 49T25 104T19 161Q19 223 35 283T83 390T158 467T258 497ZM238 402Q218 402 201 377T170 316T150 239T143 167Q143 153 144 139T148 114T160 95T183 87Q205 87 222 114T252 181T270 264T277 341Q277 366 269 384T238 402Z"  />
<glyph unicode="&#xF5;" horiz-adv-x="417" d="M148 562Q151 585 156 605T172 641T196 666T229 675Q247 675 259 670T282 657Q291 650 299 644T313 638Q321 638 326 645T337 678H396Q381 569 315 569Q300 569 287 574T266 585Q253 595 246 600T231 605Q215 605 209 562H148ZM258 497Q304 497 332 480T375 437T395 381T400 326Q400 268 385 209T341 101T268 23T169 -8Q123 -8 94 8T48 49T25 104T19 161Q19 223 35 283T83 390T158 467T258 497ZM238 402Q218 402 201 377T170 316T150 239T143 167Q143 153 144 139T148 114T160 95T183 87Q205 87 222 114T252 181T270 264T277 341Q277 366 269 384T238 402Z"  />
<glyph unicode="&#xF6;" horiz-adv-x="417" d="M195 553Q170 553 153 571T136 619Q136 648 153 666T197 684Q223 684 240 667T257 620Q257 591 240 572T195 553ZM367 553Q341 553 324 571T307 619Q307 648 324 666T368 684Q394 684 411 667T428 620Q428 591 411 572T367 553ZM258 497Q304 497 332 480T375 437T395 381T400 326Q400 268 385 209T341 101T268 23T169 -8Q123 -8 94 8T48 49T25 104T19 161Q19 223 35 283T83 390T158 467T258 497ZM238 402Q218 402 201 377T170 316T150 239T143 167Q143 153 144 139T148 114T160 95T183 87Q205 87 222 114T252 181T270 264T277 341Q277 366 269 384T238 402Z"  />
<glyph unicode="&#xF7;" horiz-adv-x="596" d="M303 377Q276 377 260 394T244 438Q244 465 260 482T303 500Q330 500 345 483T361 438Q361 412 347 395T303 377ZM45 226V308H561V226H45ZM303 34Q276 34 260 51T244 95Q244 121 260 139T303 157Q330 157 345 139T361 95Q361 69 347 52T303 34Z"  />
<glyph unicode="&#xF8;" horiz-adv-x="418" d="M-7 -6L43 64Q32 85 26 106T19 165Q19 226 35 285T82 392T156 468T253 497Q308 497 341 471L386 530L430 500L378 430Q394 397 397 372T400 326Q400 261 383 201T336 95T265 20T174 -8Q139 -8 118 -1T79 21L32 -41L-7 -6ZM273 379Q265 406 237 406Q216 406 200 388T173 343T154 285T145 229Q143 215 143 203T141 178L144 175L273 379ZM150 113Q155 83 185 83Q204 83 219 99T246 141T264 197T274 253Q275 266 276 278T278 303H274L150 113Z"  />
<glyph unicode="&#xF9;" horiz-adv-x="439" d="M278 687L325 547H244L164 687H278ZM437 489L375 160Q366 116 361 76T350 0H242L246 65L244 67Q217 28 185 10T117 -8Q68 -8 46 24T24 105Q24 128 27 153T36 206L89 489H214L161 211Q157 188 155 169T152 133Q152 115 159 105T182 94Q206 94 227 123T260 206L312 489H437Z"  />
<glyph unicode="&#xFA;" horiz-adv-x="439" d="M429 687L307 547H221L310 687H429ZM437 489L375 160Q366 116 361 76T350 0H242L246 65L244 67Q217 28 185 10T117 -8Q68 -8 46 24T24 105Q24 128 27 153T36 206L89 489H214L161 211Q157 188 155 169T152 133Q152 115 159 105T182 94Q206 94 227 123T260 206L312 489H437Z"  />
<glyph unicode="&#xFB;" horiz-adv-x="439" d="M341 687L400 547H319L294 617H292L241 547H155L263 687H341ZM437 489L375 160Q366 116 361 76T350 0H242L246 65L244 67Q217 28 185 10T117 -8Q68 -8 46 24T24 105Q24 128 27 153T36 206L89 489H214L161 211Q157 188 155 169T152 133Q152 115 159 105T182 94Q206 94 227 123T260 206L312 489H437Z"  />
<glyph unicode="&#xFC;" horiz-adv-x="439" d="M196 553Q170 553 153 571T136 619Q136 648 153 666T197 684Q223 684 240 667T257 620Q257 591 240 572T196 553ZM367 553Q341 553 324 571T307 619Q307 648 324 666T368 684Q395 684 411 667T428 620Q428 591 411 572T367 553ZM437 489L375 160Q366 116 361 76T350 0H242L246 65L244 67Q217 28 185 10T117 -8Q68 -8 46 24T24 105Q24 128 27 153T36 206L89 489H214L161 211Q157 188 155 169T152 133Q152 115 159 105T182 94Q206 94 227 123T260 206L312 489H437Z"  />
<glyph unicode="&#xFD;" horiz-adv-x="381" d="M405 687L283 547H197L287 687H405ZM177 489L180 254Q181 219 181 192T181 138H183Q191 168 199 196T220 263L294 489H420L260 104Q224 19 183 -48T97 -157Q75 -177 52 -192T13 -214L-37 -112Q-20 -104 -4 -94T28 -72Q49 -55 67 -35T95 6Q97 11 98 15T98 28L46 489H177Z"  />
<glyph unicode="&#xFE;" horiz-adv-x="434" d="M131 692H254L202 427H204Q225 458 254 477T315 497Q342 497 361 486T393 454T410 407T416 347Q414 272 395 207T345 95T274 20T188 -8Q171 -8 155 -6T124 1H122L86 -192H-37L131 692ZM138 92Q152 81 175 81Q203 81 224 108T260 173T281 252T288 323Q288 350 283 370T252 391Q230 391 206 359T169 261L138 92Z"  />
<glyph unicode="&#xFF;" horiz-adv-x="381" d="M167 553Q141 553 124 571T107 619Q107 648 124 666T168 684Q194 684 211 667T228 620Q228 591 211 572T167 553ZM338 553Q312 553 295 571T278 619Q278 648 296 666T339 684Q366 684 382 667T399 620Q399 591 382 572T338 553ZM177 489L180 254Q181 219 181 192T181 138H183Q191 168 199 196T220 263L294 489H420L260 104Q224 19 183 -48T97 -157Q75 -177 52 -192T13 -214L-37 -112Q-20 -104 -4 -94T28 -72Q49 -55 67 -35T95 6Q97 11 98 15T98 28L46 489H177Z"  />
<glyph unicode="&#x152;" horiz-adv-x="639" d="M564 0H311Q301 0 288 -2T265 -5Q257 -6 247 -7T224 -8Q161 -8 124 15T66 74T40 150T34 227Q34 276 42 329T67 432T109 528T168 607T244 662T339 682Q356 682 366 682T387 679Q398 677 409 676T431 674H677L659 564H497L469 404H617L601 298H447L413 111H582L564 0ZM373 564Q366 567 356 569T328 572Q292 572 262 541T211 461T177 353T164 237Q164 210 168 186T181 143T207 113T247 102Q261 102 270 104T287 108L373 564Z"  />
<glyph unicode="&#x153;" horiz-adv-x="631" d="M571 18Q545 4 510 -2T443 -8Q395 -8 359 11T304 76H302Q279 34 243 13T165 -8Q127 -8 100 6T54 44T28 99T19 166Q19 236 36 296T85 401T157 471T246 497Q293 497 322 475T362 413H364Q387 451 426 474T505 497Q535 497 558 486T597 457T621 416T630 368Q630 318 612 283T560 225T483 192T386 184Q385 168 388 152T398 123Q409 106 427 97T469 89Q498 90 521 97T565 114L571 18ZM184 87Q208 87 226 113T255 178T271 260T277 336Q277 347 276 359T270 380T258 396T237 403Q216 403 199 381T169 323T149 246T142 166Q142 151 144 137T150 112T163 94T184 87ZM519 350Q519 373 511 385T480 398Q453 398 431 365T398 278Q421 276 442 280T481 294T508 317T519 350Z"  />
<glyph unicode="&#x160;" horiz-adv-x="374" d="M226 710L160 835H249L276 775H278L327 835H423L309 710H226ZM28 128Q45 118 69 112T121 105Q164 103 191 127T218 191Q218 225 201 248T151 304Q71 379 71 467Q71 514 87 553T131 620T200 664T291 680Q330 680 355 674T392 659L358 551Q343 559 326 564T285 569Q245 569 221 546T195 483Q195 471 198 460T208 437T229 410T262 378Q304 341 323 299T343 216Q343 163 327 122T281 53T211 9T122 -6Q71 -6 40 2T-4 19L28 128Z"  />
<glyph unicode="&#x161;" horiz-adv-x="317" d="M180 547L121 687H202L227 616H229L279 687H366L258 547H180ZM17 107Q32 99 51 93T96 87Q123 88 137 103T152 142Q152 162 142 178T105 215Q73 241 58 271T43 334Q43 368 55 397T91 449T148 484T224 497Q256 497 279 492T316 479L289 388Q278 394 263 398T231 403Q201 403 184 389T166 349Q166 330 176 317T203 290Q245 258 260 225T276 162Q276 81 225 38T89 -6Q55 -6 28 2T-13 19L17 107Z"  />
<glyph unicode="&#x178;" horiz-adv-x="390" d="M200 714Q176 714 159 732T141 777Q141 803 159 822T201 841Q226 841 243 823T260 778Q260 752 242 733T200 714ZM376 714Q353 714 336 732T318 777Q318 803 336 822T378 841Q403 841 420 823T437 778Q437 752 419 733T376 714ZM84 0L133 258L67 674H201L215 513Q219 458 219 424T220 369H222Q233 401 246 434T276 505L354 674H485L257 257L209 0H84Z"  />
<glyph unicode="&#x17D;" horiz-adv-x="373" d="M232 710L167 835H256L283 775H285L334 835H430L316 710H232ZM-20 81L275 560V562H92L114 674H436L417 572L134 114V112H329L307 0H-34L-20 81Z"  />
<glyph unicode="&#x17E;" horiz-adv-x="320" d="M184 547L124 687H205L230 616H232L283 687H369L262 547H184ZM-21 84L123 291Q136 309 144 321T160 342T176 361T195 384L196 386H52L72 489H346L331 398L192 200Q176 178 165 164T146 139T132 121T118 105V103H279L259 0H-34L-21 84Z"  />
<glyph unicode="&#x192;" horiz-adv-x="429" d="M104 399H171L179 439Q189 487 205 527T246 597T305 642T387 658Q404 658 418 655T444 647L417 556Q408 559 401 560T384 561Q349 561 329 531T296 438L289 399H385L367 305H273L236 116Q228 76 214 41T178 -22T122 -64T43 -80Q23 -80 7 -77T-19 -70L3 23Q14 18 23 18T42 17Q53 17 64 21T85 38T105 71T121 126L155 305H86L104 399Z"  />
<glyph unicode="&#x2C6;" horiz-adv-x="379" d="M312 687L372 547H291L266 617H264L213 547H127L235 687H312Z"  />
<glyph unicode="&#x2DC;" horiz-adv-x="379" d="M139 562Q142 585 147 605T163 641T187 666T220 675Q238 675 250 670T273 657Q282 650 290 644T304 638Q312 638 317 645T328 678H387Q372 569 305 569Q291 569 278 574T256 585Q244 595 237 600T222 605Q206 605 200 562H139Z"  />
<glyph unicode="&#x2013;" horiz-adv-x="500" d="M482 305L465 215H25L43 305H482Z"  />
<glyph unicode="&#x2014;" horiz-adv-x="1000" d="M982 305L965 215H25L43 305H982Z"  />
<glyph unicode="&#x2018;" horiz-adv-x="178" d="M39 421Q72 489 109 554T189 675L265 682Q232 619 202 555T152 431L39 421Z"  />
<glyph unicode="&#x2019;" horiz-adv-x="178" d="M263 682Q230 614 193 549T113 430L37 421Q70 484 100 548T150 672L263 682Z"  />
<glyph unicode="&#x201A;" horiz-adv-x="178" d="M-67 -109Q-34 -46 -5 17T45 141L159 151Q126 83 89 19T9 -100L-67 -109Z"  />
<glyph unicode="&#x201C;" horiz-adv-x="326" d="M35 421Q68 489 105 554T185 675L261 682Q228 619 198 555T148 431L35 421ZM191 421Q223 489 261 554T341 675L416 682Q383 619 354 555T304 431L191 421Z"  />
<glyph unicode="&#x201D;" horiz-adv-x="326" d="M259 682Q226 614 189 549T109 430L33 421Q66 484 96 549T146 674L259 682ZM415 682Q382 614 344 549T264 430L189 421Q222 484 252 549T301 674L415 682Z"  />
<glyph unicode="&#x201E;" horiz-adv-x="326" d="M-67 -109Q-34 -46 -5 17T45 141L159 151Q126 83 89 19T9 -100L-67 -109ZM88 -109Q121 -46 151 17T201 141L314 151Q282 83 244 19T164 -100L88 -109Z"  />
<glyph unicode="&#x2020;" horiz-adv-x="427" d="M347 674L304 485L437 491L418 392L288 398L208 -51H107L199 398L66 392L85 491L215 485L246 674H347Z"  />
<glyph unicode="&#x2021;" horiz-adv-x="427" d="M345 674L302 494L435 500L416 400L286 407L250 220L383 226L364 127L234 133L206 -50H108L152 133L20 127L39 226L168 220L204 407L71 400L91 500L220 494L247 674H345Z"  />
<glyph unicode="&#x2022;" horiz-adv-x="287" d="M153 155Q108 155 78 184T47 263Q47 314 78 343T154 373Q197 373 228 344T259 264Q259 213 230 184T153 155Z"  />
<glyph unicode="&#x2026;" horiz-adv-x="1000" d="M129 -8Q94 -8 76 15T57 73Q57 91 63 107T80 137T105 158T137 166Q175 166 193 144T212 86Q212 42 187 17T129 -8ZM463 -8Q428 -8 410 15T391 73Q391 91 397 107T414 137T439 158T471 166Q509 166 527 144T546 86Q546 42 521 17T463 -8ZM797 -8Q762 -8 744 15T725 73Q725 91 731 107T748 137T773 158T805 166Q843 166 861 144T880 86Q880 42 855 17T797 -8Z"  />
<glyph unicode="&#x2030;" horiz-adv-x="978" d="M543 393Q575 393 596 381T629 351T647 309T652 263Q652 208 639 159T602 74T549 16T483 -5Q429 -5 401 31T372 131Q372 177 384 224T418 308T472 369T543 393ZM537 325Q516 325 501 300T476 242T462 174T457 120Q457 63 487 63Q501 63 512 76T533 110T548 156T558 204T564 247T566 275Q566 294 560 309T537 325ZM851 393Q883 393 904 381T937 351T954 309T959 263Q959 208 946 159T910 74T857 16T791 -5Q737 -5 708 31T679 131Q679 177 691 224T726 308T780 369T851 393ZM845 325Q824 325 809 300T784 242T770 174T765 120Q765 63 795 63Q809 63 820 76T841 110T856 156T866 204T872 247T874 275Q874 294 868 309T845 325ZM219 657Q251 657 272 645T305 615T323 573T328 527Q328 472 315 423T279 338T225 280T159 259Q105 259 77 295T48 395Q48 441 60 488T94 572T148 633T219 657ZM213 589Q192 589 177 564T152 506T138 437T133 383Q133 327 164 327Q178 327 189 340T209 374T224 420T234 468T240 511T242 539Q242 558 237 573T213 589ZM76 -8L549 658H618L146 -8H76Z"  />
<glyph unicode="&#x2039;" horiz-adv-x="221" d="M104 245L184 67H95L14 252L144 437H241L104 245Z"  />
<glyph unicode="&#x203A;" horiz-adv-x="221" d="M43 437H132L213 252L83 67H-14L123 263L43 437Z"  />
<glyph unicode="&#x20AC;" horiz-adv-x="429" d="M374 14Q360 6 331 -1T273 -8Q219 -8 183 12T124 67T94 145T87 238H28L42 305H92Q94 317 96 329T102 352H51L64 419H119Q134 464 160 506T221 583T302 637T400 658Q434 658 454 652T483 641L451 541Q441 545 428 547T399 550Q369 550 344 538T300 507T267 465T245 419H393L379 352H226Q222 341 220 329T216 305H370L356 238H210Q209 215 212 191T225 146T253 113T300 100Q338 100 368 114L374 14Z"  />
<glyph unicode="&#x2122;" horiz-adv-x="575" d="M290 674V610H233V401H156V610H100V674H290ZM531 401L527 521Q527 544 527 569T526 627H523Q518 592 514 566T506 521L486 406H416L399 522Q397 542 394 571T386 627H383Q382 599 382 572T380 521L375 401H308L321 674H432L445 609Q446 598 447 590T450 572T452 550T456 521H457Q460 546 463 567T470 608L485 674H589L601 401H531Z"  />


</font>
</defs>
<text x="40" y="40" font-family="Myriad W01 Bd Cnd It" font-size="30" fill="#933" >ABCDEFGHIJKLMNOPQRSTUVWXYZ abcdefghijklmnopqrstuvwxyz AÁÀÂÄÅÃÆ CÇ DÐ EÉÈÊË I Í Ì Î Ï NÑ</text>
<text x="40" y="80" font-family="Myriad W01 Bd Cnd It" font-size="30" fill="#933" >OÓÒÔÖÕØŒ SŠ UÚÙÛÜ YÝŸ ZŽ Þ aáàâäåãæ cç dð eéèêë i ı í ì î ï nñ oóòôöõøœ sšß uúùûü yýÿ zž</text>
<text x="40" y="120" font-family="Myriad W01 Bd Cnd It" font-size="30" fill="#933" >þ 1234567890 ½ ¼ ¾ % ‰ $¢£¥ƒ€¤ † ‡ § ¶ # ^~µ +×± &lt; = &gt; ÷¬ !¡?¿ &quot; &amp; &apos; * ° . , : ; () [ \ ] {} / |</text>
<text x="40" y="160" font-family="Myriad W01 Bd Cnd It" font-size="30" fill="#933" >¦ _ ‚ „ … ‹› «» ‘ ’ “ ” • ­ - – — @ © ® ™ ªº ¹²³ ´ ` ˆ ˜ ¨ ¯ · ¸</text>
</svg>
